Laser_Spec_Data/6-Feb/tek0001ALL.csv

Model,MDO3014
Firmware Version,1.20

Waveform Type,ANALOG,,,,Waveform Type,ANALOG
Point Format,Y,,,,Point Format,Y
Horizontal Units,s,,,,Horizontal Units,s
Horizontal Scale,0.001,,,,Horizontal Scale,0.001
Horizontal Delay,0,,,,Horizontal Delay,0
Sample Interval,1e-06,,,,Sample Interval,1e-06
Record Length,10000,,,,Record Length,10000
Gating,0.0% to 100.0%,,,,Gating,0.0% to 100.0%
Probe Attenuation,1,1,1,,Probe Attenuation,1
Vertical Units,V,V,V,,Vertical Units,V
Vertical Offset,0,0,0,,Vertical Offset,0
Vertical Scale,0.02,0.02,0.02,,Vertical Scale,0.005
Vertical Position,0,0,0,,Vertical Position,-1.36
,,,,,,
,,,,,,
,,,,,,
Label,,,,,Label,
TIME,CH1,CH2,CH4,,TIME,"MATH<CH1-CH2>"
-5.000000e-03,0.045225,0.0468281,-0.0526031,,-5.000000e-03,-0.00160313
-4.999000e-03,0.0452281,0.0467406,-0.0525813,,-4.999000e-03,-0.0015125
-4.998000e-03,0.0452125,0.0469094,-0.0525094,,-4.998000e-03,-0.00169688
-4.997000e-03,0.0453563,0.0469125,-0.0525875,,-4.997000e-03,-0.00155625
-4.996000e-03,0.0454063,0.0470156,-0.0524563,,-4.996000e-03,-0.00160937
-4.995000e-03,0.0453969,0.0470375,-0.0525,,-4.995000e-03,-0.00164062
-4.994000e-03,0.0454094,0.047075,-0.0525281,,-4.994000e-03,-0.00166563
-4.993000e-03,0.0454125,0.0469375,-0.052575,,-4.993000e-03,-0.001525
-4.992000e-03,0.045425,0.0469844,-0.0524844,,-4.992000e-03,-0.00155937
-4.991000e-03,0.0454094,0.0469063,-0.0524469,,-4.991000e-03,-0.00149687
-4.990000e-03,0.0452656,0.0468406,-0.0524313,,-4.990000e-03,-0.001575
-4.989000e-03,0.0453062,0.0467562,-0.0524,,-4.989000e-03,-0.00145
-4.988000e-03,0.045225,0.0467656,-0.0523875,,-4.988000e-03,-0.00154063
-4.987000e-03,0.0451938,0.0467344,-0.0523813,,-4.987000e-03,-0.00154063
-4.986000e-03,0.0452875,0.0468187,-0.0524125,,-4.986000e-03,-0.00153125
-4.985000e-03,0.0454281,0.0469188,-0.0523781,,-4.985000e-03,-0.00149063
-4.984000e-03,0.0454063,0.0470094,-0.0523281,,-4.984000e-03,-0.00160313
-4.983000e-03,0.0454125,0.047025,-0.0524094,,-4.983000e-03,-0.0016125
-4.982000e-03,0.0454406,0.0467875,-0.0523563,,-4.982000e-03,-0.00134687
-4.981000e-03,0.045525,0.0469469,-0.0523375,,-4.981000e-03,-0.00142187
-4.980000e-03,0.0453531,0.0468938,-0.052375,,-4.980000e-03,-0.00154063
-4.979000e-03,0.0452906,0.0468781,-0.0523875,,-4.979000e-03,-0.0015875
-4.978000e-03,0.0452188,0.0467562,-0.052275,,-4.978000e-03,-0.0015375
-4.977000e-03,0.0451625,0.0467281,-0.0523281,,-4.977000e-03,-0.00156562
-4.976000e-03,0.0451563,0.046725,-0.0523063,,-4.976000e-03,-0.00156875
-4.975000e-03,0.0452938,0.0468219,-0.0522656,,-4.975000e-03,-0.00152812
-4.974000e-03,0.0453656,0.046775,-0.0522937,,-4.974000e-03,-0.00140937
-4.973000e-03,0.0453531,0.0469094,-0.0522031,,-4.973000e-03,-0.00155625
-4.972000e-03,0.0453313,0.0469,-0.0522813,,-4.972000e-03,-0.00156875
-4.971000e-03,0.0453563,0.0469688,-0.0522438,,-4.971000e-03,-0.0016125
-4.970000e-03,0.0453594,0.0469219,-0.0522625,,-4.970000e-03,-0.0015625
-4.969000e-03,0.0453781,0.0468594,-0.0522875,,-4.969000e-03,-0.00148125
-4.968000e-03,0.0452781,0.0467625,-0.0522531,,-4.968000e-03,-0.00148437
-4.967000e-03,0.0451125,0.0466906,-0.052175,,-4.967000e-03,-0.00157812
-4.966000e-03,0.0451313,0.0466719,-0.0521719,,-4.966000e-03,-0.00154063
-4.965000e-03,0.0451375,0.0467156,-0.0522031,,-4.965000e-03,-0.00157812
-4.964000e-03,0.0451406,0.0467719,-0.0522156,,-4.964000e-03,-0.00163125
-4.963000e-03,0.045225,0.0467625,-0.0521281,,-4.963000e-03,-0.0015375
-4.962000e-03,0.0452656,0.0468156,-0.0521375,,-4.962000e-03,-0.00155
-4.961000e-03,0.0452844,0.0468438,-0.0521687,,-4.961000e-03,-0.00155937
-4.960000e-03,0.0453875,0.0468031,-0.0521,,-4.960000e-03,-0.00141563
-4.959000e-03,0.0452844,0.0468469,-0.0521594,,-4.959000e-03,-0.0015625
-4.958000e-03,0.0453219,0.0468187,-0.0521188,,-4.958000e-03,-0.00149687
-4.957000e-03,0.0452469,0.0467688,-0.0520188,,-4.957000e-03,-0.00152188
-4.956000e-03,0.0452063,0.0466188,-0.0520594,,-4.956000e-03,-0.0014125
-4.955000e-03,0.0450656,0.0466031,-0.0520969,,-4.955000e-03,-0.0015375
-4.954000e-03,0.0450344,0.0465687,-0.0521125,,-4.954000e-03,-0.00153437
-4.953000e-03,0.0451969,0.04665,-0.0521219,,-4.953000e-03,-0.00145312
-4.952000e-03,0.0451938,0.0467094,-0.0520219,,-4.952000e-03,-0.00151562
-4.951000e-03,0.0452938,0.0467625,-0.052075,,-4.951000e-03,-0.00146875
-4.950000e-03,0.0453,0.0467469,-0.05205,,-4.950000e-03,-0.00144688
-4.949000e-03,0.0452875,0.046825,-0.0520219,,-4.949000e-03,-0.0015375
-4.948000e-03,0.0453094,0.0468063,-0.0520125,,-4.948000e-03,-0.00149687
-4.947000e-03,0.04525,0.0467938,-0.052,,-4.947000e-03,-0.00154375
-4.946000e-03,0.0452031,0.0467406,-0.0519875,,-4.946000e-03,-0.0015375
-4.945000e-03,0.0451406,0.0465844,-0.0520219,,-4.945000e-03,-0.00144375
-4.944000e-03,0.0450125,0.0464688,-0.0519438,,-4.944000e-03,-0.00145625
-4.943000e-03,0.0451125,0.046525,-0.0519719,,-4.943000e-03,-0.0014125
-4.942000e-03,0.0450438,0.0464625,-0.051925,,-4.942000e-03,-0.00141875
-4.941000e-03,0.0450219,0.0466219,-0.0519875,,-4.941000e-03,-0.0016
-4.940000e-03,0.0451625,0.0467094,-0.0519281,,-4.940000e-03,-0.00154687
-4.939000e-03,0.0452125,0.0467656,-0.0519313,,-4.939000e-03,-0.00155313
-4.938000e-03,0.04525,0.0467344,-0.0518688,,-4.938000e-03,-0.00148437
-4.937000e-03,0.0451656,0.04675,-0.0519281,,-4.937000e-03,-0.00158438
-4.936000e-03,0.0451156,0.0467156,-0.0518688,,-4.936000e-03,-0.0016
-4.935000e-03,0.0451031,0.0466125,-0.0518281,,-4.935000e-03,-0.00150938
-4.934000e-03,0.0449875,0.0464625,-0.0518469,,-4.934000e-03,-0.001475
-4.933000e-03,0.0449594,0.0464625,-0.0518344,,-4.933000e-03,-0.00150312
-4.932000e-03,0.0449,0.0463688,-0.0518562,,-4.932000e-03,-0.00146875
-4.931000e-03,0.0449156,0.0463812,-0.0518625,,-4.931000e-03,-0.00146562
-4.930000e-03,0.0450063,0.0465719,-0.0519094,,-4.930000e-03,-0.00156562
-4.929000e-03,0.0450813,0.0465875,-0.0518938,,-4.929000e-03,-0.00150625
-4.928000e-03,0.0452188,0.0465906,-0.0517469,,-4.928000e-03,-0.00137187
-4.927000e-03,0.0451938,0.0465594,-0.0518313,,-4.927000e-03,-0.00136563
-4.926000e-03,0.0451406,0.0466406,-0.0517906,,-4.926000e-03,-0.0015
-4.925000e-03,0.045225,0.0466125,-0.0517937,,-4.925000e-03,-0.0013875
-4.924000e-03,0.0451156,0.0465625,-0.0517375,,-4.924000e-03,-0.00144688
-4.923000e-03,0.0450281,0.0464,-0.0517719,,-4.923000e-03,-0.00137187
-4.922000e-03,0.0449719,0.0463219,-0.0517375,,-4.922000e-03,-0.00135
-4.921000e-03,0.0449688,0.0463094,-0.0517312,,-4.921000e-03,-0.00134062
-4.920000e-03,0.0449094,0.046275,-0.0516469,,-4.920000e-03,-0.00136563
-4.919000e-03,0.0449688,0.0465687,-0.0517156,,-4.919000e-03,-0.0016
-4.918000e-03,0.0451,0.0465406,-0.0517031,,-4.918000e-03,-0.00144062
-4.917000e-03,0.0450469,0.046525,-0.0516375,,-4.917000e-03,-0.00147813
-4.916000e-03,0.0451187,0.0466063,-0.0517125,,-4.916000e-03,-0.0014875
-4.915000e-03,0.0450844,0.0466063,-0.0516,,-4.915000e-03,-0.00152188
-4.914000e-03,0.0451625,0.0466188,-0.0516656,,-4.914000e-03,-0.00145625
-4.913000e-03,0.045025,0.0464281,-0.0515344,,-4.913000e-03,-0.00140312
-4.912000e-03,0.0449531,0.0463438,-0.0515844,,-4.912000e-03,-0.00139062
-4.911000e-03,0.0448781,0.0463219,-0.0516094,,-4.911000e-03,-0.00144375
-4.910000e-03,0.0448125,0.0462562,-0.0516281,,-4.910000e-03,-0.00144375
-4.909000e-03,0.0448125,0.0462313,-0.0516781,,-4.909000e-03,-0.00141875
-4.908000e-03,0.0447969,0.0462969,-0.051575,,-4.908000e-03,-0.0015
-4.907000e-03,0.0449844,0.0464344,-0.0514125,,-4.907000e-03,-0.00145
-4.906000e-03,0.0450375,0.0463969,-0.0515156,,-4.906000e-03,-0.00135937
-4.905000e-03,0.0450406,0.0464031,-0.0515469,,-4.905000e-03,-0.0013625
-4.904000e-03,0.0450531,0.0464688,-0.0515156,,-4.904000e-03,-0.00141563
-4.903000e-03,0.0451063,0.0465156,-0.0514719,,-4.903000e-03,-0.00140937
-4.902000e-03,0.0449937,0.046475,-0.0514063,,-4.902000e-03,-0.00148125
-4.901000e-03,0.0449438,0.0463812,-0.0515281,,-4.901000e-03,-0.0014375
-4.900000e-03,0.0447875,0.0462063,-0.0515094,,-4.900000e-03,-0.00141875
-4.899000e-03,0.0448062,0.0461563,-0.0513719,,-4.899000e-03,-0.00135
-4.898000e-03,0.0448188,0.0462594,-0.051425,,-4.898000e-03,-0.00144062
-4.897000e-03,0.0448219,0.0463156,-0.0514375,,-4.897000e-03,-0.00149375
-4.896000e-03,0.0449,0.0463594,-0.0514125,,-4.896000e-03,-0.00145938
-4.895000e-03,0.044925,0.0463906,-0.0514125,,-4.895000e-03,-0.00146562
-4.894000e-03,0.0449813,0.0464156,-0.0513969,,-4.894000e-03,-0.00143437
-4.893000e-03,0.04495,0.0464219,-0.0513531,,-4.893000e-03,-0.00147187
-4.892000e-03,0.0450094,0.0464188,-0.0513625,,-4.892000e-03,-0.00140937
-4.891000e-03,0.044975,0.0463438,-0.0513344,,-4.891000e-03,-0.00136875
-4.890000e-03,0.0449,0.04625,-0.0513562,,-4.890000e-03,-0.00135
-4.889000e-03,0.0448125,0.0461781,-0.0514094,,-4.889000e-03,-0.00136563
-4.888000e-03,0.0446969,0.0462313,-0.0512281,,-4.888000e-03,-0.00153437
-4.887000e-03,0.0447031,0.04605,-0.0513813,,-4.887000e-03,-0.00134687
-4.886000e-03,0.0448156,0.0461469,-0.0512469,,-4.886000e-03,-0.00133125
-4.885000e-03,0.0448219,0.0462063,-0.0512656,,-4.885000e-03,-0.00138438
-4.884000e-03,0.0448375,0.0463438,-0.0512312,,-4.884000e-03,-0.00150625
-4.883000e-03,0.044925,0.0462781,-0.0512625,,-4.883000e-03,-0.00135313
-4.882000e-03,0.0450094,0.0463625,-0.0511125,,-4.882000e-03,-0.00135313
-4.881000e-03,0.0450031,0.0463438,-0.0512375,,-4.881000e-03,-0.00134062
-4.880000e-03,0.044875,0.0462688,-0.0512063,,-4.880000e-03,-0.00139375
-4.879000e-03,0.0447656,0.0462313,-0.0511813,,-4.879000e-03,-0.00146562
-4.878000e-03,0.0446719,0.0461688,-0.0511656,,-4.878000e-03,-0.00149687
-4.877000e-03,0.044675,0.04605,-0.0511094,,-4.877000e-03,-0.001375
-4.876000e-03,0.0446531,0.0460219,-0.0510188,,-4.876000e-03,-0.00136875
-4.875000e-03,0.0445875,0.0460594,-0.0511594,,-4.875000e-03,-0.00147187
-4.874000e-03,0.0447594,0.0461219,-0.0510125,,-4.874000e-03,-0.0013625
-4.873000e-03,0.0448563,0.0461813,-0.0511219,,-4.873000e-03,-0.001325
-4.872000e-03,0.0448313,0.0462469,-0.0510438,,-4.872000e-03,-0.00141563
-4.871000e-03,0.0448188,0.0462094,-0.0510469,,-4.871000e-03,-0.00139062
-4.870000e-03,0.0449844,0.046275,-0.0510406,,-4.870000e-03,-0.00129063
-4.869000e-03,0.0448875,0.0461563,-0.0510063,,-4.869000e-03,-0.00126875
-4.868000e-03,0.0448031,0.04615,-0.0509313,,-4.868000e-03,-0.00134687
-4.867000e-03,0.04475,0.0460875,-0.0510188,,-4.867000e-03,-0.0013375
-4.866000e-03,0.0446406,0.045975,-0.0510438,,-4.866000e-03,-0.00133438
-4.865000e-03,0.0445969,0.0459719,-0.0508969,,-4.865000e-03,-0.001375
-4.864000e-03,0.0446125,0.0460656,-0.0509625,,-4.864000e-03,-0.00145312
-4.863000e-03,0.0447656,0.0460125,-0.0509406,,-4.863000e-03,-0.00124687
-4.862000e-03,0.0447719,0.0462156,-0.0509438,,-4.862000e-03,-0.00144375
-4.861000e-03,0.044875,0.0462688,-0.0508469,,-4.861000e-03,-0.00139375
-4.860000e-03,0.0449531,0.0462094,-0.0509031,,-4.860000e-03,-0.00125625
-4.859000e-03,0.0448563,0.0460969,-0.0508594,,-4.859000e-03,-0.00124063
-4.858000e-03,0.0448781,0.0461531,-0.0508781,,-4.858000e-03,-0.001275
-4.857000e-03,0.0447469,0.0460531,-0.05085,,-4.857000e-03,-0.00130625
-4.856000e-03,0.0446156,0.046075,-0.0507375,,-4.856000e-03,-0.00145938
-4.855000e-03,0.0446125,0.0459844,-0.0508656,,-4.855000e-03,-0.00137187
-4.854000e-03,0.04455,0.0459125,-0.05085,,-4.854000e-03,-0.0013625
-4.853000e-03,0.0445969,0.0460031,-0.0508,,-4.853000e-03,-0.00140625
-4.852000e-03,0.0446844,0.0460562,-0.0508469,,-4.852000e-03,-0.00137187
-4.851000e-03,0.0448469,0.0460094,-0.0508125,,-4.851000e-03,-0.0011625
-4.850000e-03,0.0447688,0.0460219,-0.0507187,,-4.850000e-03,-0.00125312
-4.849000e-03,0.0448,0.0461563,-0.0506688,,-4.849000e-03,-0.00135625
-4.848000e-03,0.0448563,0.0461938,-0.0507156,,-4.848000e-03,-0.0013375
-4.847000e-03,0.0447844,0.0461906,-0.0507281,,-4.847000e-03,-0.00140625
-4.846000e-03,0.0447344,0.0460156,-0.0507156,,-4.846000e-03,-0.00128125
-4.845000e-03,0.0445656,0.0459188,-0.0506156,,-4.845000e-03,-0.00135313
-4.844000e-03,0.04455,0.045875,-0.0506562,,-4.844000e-03,-0.001325
-4.843000e-03,0.0444812,0.0458406,-0.050625,,-4.843000e-03,-0.00135937
-4.842000e-03,0.044525,0.0458875,-0.0505094,,-4.842000e-03,-0.0013625
-4.841000e-03,0.0446375,0.0459906,-0.0505937,,-4.841000e-03,-0.00135313
-4.840000e-03,0.0446563,0.0460594,-0.0506719,,-4.840000e-03,-0.00140312
-4.839000e-03,0.0447844,0.0460781,-0.050575,,-4.839000e-03,-0.00129375
-4.838000e-03,0.0447344,0.0460313,-0.0504938,,-4.838000e-03,-0.00129687
-4.837000e-03,0.0447656,0.0460875,-0.0505719,,-4.837000e-03,-0.00132188
-4.836000e-03,0.0446969,0.0461438,-0.0505906,,-4.836000e-03,-0.00144688
-4.835000e-03,0.0446688,0.0461219,-0.0504656,,-4.835000e-03,-0.00145312
-4.834000e-03,0.0445625,0.0458719,-0.0504969,,-4.834000e-03,-0.00130937
-4.833000e-03,0.044475,0.0460156,-0.0506,,-4.833000e-03,-0.00154063
-4.832000e-03,0.0445125,0.0457313,-0.0505125,,-4.832000e-03,-0.00121875
-4.831000e-03,0.0444781,0.0457125,-0.0504344,,-4.831000e-03,-0.00123437
-4.830000e-03,0.0445406,0.045775,-0.0504313,,-4.830000e-03,-0.00123437
-4.829000e-03,0.044625,0.0459375,-0.0503938,,-4.829000e-03,-0.0013125
-4.828000e-03,0.0446938,0.0460375,-0.0504563,,-4.828000e-03,-0.00134375
-4.827000e-03,0.0447531,0.0460562,-0.050475,,-4.827000e-03,-0.00130313
-4.826000e-03,0.0447125,0.0460719,-0.0504281,,-4.826000e-03,-0.00135937
-4.825000e-03,0.0447625,0.0459937,-0.0504344,,-4.825000e-03,-0.00123125
-4.824000e-03,0.0446,0.0459594,-0.0503906,,-4.824000e-03,-0.00135937
-4.823000e-03,0.0445156,0.0459312,-0.0502906,,-4.823000e-03,-0.00141563
-4.822000e-03,0.0445344,0.0456812,-0.0503688,,-4.822000e-03,-0.00114688
-4.821000e-03,0.0443438,0.0458344,-0.0503688,,-4.821000e-03,-0.00149063
-4.820000e-03,0.0444625,0.0457594,-0.0503844,,-4.820000e-03,-0.00129687
-4.819000e-03,0.0445188,0.0457437,-0.0503281,,-4.819000e-03,-0.001225
-4.818000e-03,0.0446563,0.0458375,-0.0502187,,-4.818000e-03,-0.00118125
-4.817000e-03,0.0446469,0.0459688,-0.050225,,-4.817000e-03,-0.00132188
-4.816000e-03,0.0445938,0.0460469,-0.0502219,,-4.816000e-03,-0.00145312
-4.815000e-03,0.0446844,0.0459375,-0.0501719,,-4.815000e-03,-0.00125312
-4.814000e-03,0.0446938,0.0459344,-0.0502219,,-4.814000e-03,-0.00124063
-4.813000e-03,0.0445781,0.0459031,-0.0501781,,-4.813000e-03,-0.001325
-4.812000e-03,0.0445031,0.0458719,-0.0502344,,-4.812000e-03,-0.00136875
-4.811000e-03,0.0444063,0.0457781,-0.050275,,-4.811000e-03,-0.00137187
-4.810000e-03,0.0443531,0.0456563,-0.0501906,,-4.810000e-03,-0.00130313
-4.809000e-03,0.0444656,0.0457563,-0.0501406,,-4.809000e-03,-0.00129063
-4.808000e-03,0.0444781,0.0456406,-0.0500969,,-4.808000e-03,-0.0011625
-4.807000e-03,0.0445031,0.0458594,-0.0500813,,-4.807000e-03,-0.00135625
-4.806000e-03,0.0446187,0.0458687,-0.0500844,,-4.806000e-03,-0.00125
-4.805000e-03,0.0446313,0.045875,-0.0501188,,-4.805000e-03,-0.00124375
-4.804000e-03,0.044625,0.0458719,-0.0501156,,-4.804000e-03,-0.00124687
-4.803000e-03,0.0446812,0.0459406,-0.0500375,,-4.803000e-03,-0.00125938
-4.802000e-03,0.0444875,0.0458313,-0.0500125,,-4.802000e-03,-0.00134375
-4.801000e-03,0.0445313,0.0458531,-0.0501031,,-4.801000e-03,-0.00132188
-4.800000e-03,0.0443375,0.0457281,-0.0500781,,-4.800000e-03,-0.00139062
-4.799000e-03,0.0443469,0.0456,-0.0500031,,-4.799000e-03,-0.00125312
-4.798000e-03,0.0443656,0.0455344,-0.0500312,,-4.798000e-03,-0.00116875
-4.797000e-03,0.0443906,0.0456344,-0.0499344,,-4.797000e-03,-0.00124375
-4.796000e-03,0.0445,0.0457563,-0.0499469,,-4.796000e-03,-0.00125625
-4.795000e-03,0.0444719,0.0457906,-0.0498375,,-4.795000e-03,-0.00131875
-4.794000e-03,0.0445438,0.0460063,-0.0499031,,-4.794000e-03,-0.0014625
-4.793000e-03,0.0444875,0.0459,-0.0499563,,-4.793000e-03,-0.0014125
-4.792000e-03,0.044675,0.0459438,-0.0498375,,-4.792000e-03,-0.00126875
-4.791000e-03,0.0446031,0.0457875,-0.0498938,,-4.791000e-03,-0.00118437
-4.790000e-03,0.0445,0.0457375,-0.0498313,,-4.790000e-03,-0.0012375
-4.789000e-03,0.0443031,0.0456219,-0.0498219,,-4.789000e-03,-0.00131875
-4.788000e-03,0.0443281,0.0456156,-0.0497438,,-4.788000e-03,-0.0012875
-4.787000e-03,0.0443313,0.0454813,-0.0498906,,-4.787000e-03,-0.00115
-4.786000e-03,0.0442875,0.0454281,-0.049925,,-4.786000e-03,-0.00114062
-4.785000e-03,0.0443719,0.0456063,-0.0497625,,-4.785000e-03,-0.00123437
-4.784000e-03,0.0444031,0.0456187,-0.0498125,,-4.784000e-03,-0.00121562
-4.783000e-03,0.044475,0.0458375,-0.0498594,,-4.783000e-03,-0.0013625
-4.782000e-03,0.0444812,0.0457,-0.0497688,,-4.782000e-03,-0.00121875
-4.781000e-03,0.0445813,0.0458094,-0.049725,,-4.781000e-03,-0.00122813
-4.780000e-03,0.0444844,0.0458687,-0.0497063,,-4.780000e-03,-0.00138438
-4.779000e-03,0.0444281,0.0457938,-0.0497,,-4.779000e-03,-0.00136563
-4.778000e-03,0.0443188,0.0456187,-0.0496562,,-4.778000e-03,-0.0013
-4.777000e-03,0.044225,0.0454406,-0.0496688,,-4.777000e-03,-0.00121562
-4.776000e-03,0.0441844,0.0454594,-0.0496656,,-4.776000e-03,-0.001275
-4.775000e-03,0.0441906,0.0454531,-0.0496688,,-4.775000e-03,-0.0012625
-4.774000e-03,0.044225,0.0454906,-0.0497,,-4.774000e-03,-0.00126562
-4.773000e-03,0.0443406,0.0456438,-0.049625,,-4.773000e-03,-0.00130313
-4.772000e-03,0.0444719,0.0456156,-0.049625,,-4.772000e-03,-0.00114375
-4.771000e-03,0.0445188,0.0457031,-0.0497187,,-4.771000e-03,-0.00118437
-4.770000e-03,0.0444187,0.0456969,-0.049725,,-4.770000e-03,-0.00127812
-4.769000e-03,0.0444375,0.0457875,-0.049625,,-4.769000e-03,-0.00135
-4.768000e-03,0.0444344,0.0456469,-0.049575,,-4.768000e-03,-0.0012125
-4.767000e-03,0.0442219,0.0454813,-0.0496406,,-4.767000e-03,-0.00125938
-4.766000e-03,0.0441969,0.0454563,-0.0495188,,-4.766000e-03,-0.00125938
-4.765000e-03,0.0441625,0.0454156,-0.0494125,,-4.765000e-03,-0.00125312
-4.764000e-03,0.044125,0.0453719,-0.0495,,-4.764000e-03,-0.00124687
-4.763000e-03,0.0442438,0.0454344,-0.0494656,,-4.763000e-03,-0.00119063
-4.762000e-03,0.044175,0.0455344,-0.0494469,,-4.762000e-03,-0.00135937
-4.761000e-03,0.0443406,0.0455031,-0.049425,,-4.761000e-03,-0.0011625
-4.760000e-03,0.0444656,0.0456906,-0.0494406,,-4.760000e-03,-0.001225
-4.759000e-03,0.0443906,0.0456406,-0.0494813,,-4.759000e-03,-0.00125
-4.758000e-03,0.0444438,0.0456,-0.0494125,,-4.758000e-03,-0.00115625
-4.757000e-03,0.0443469,0.0455938,-0.0493813,,-4.757000e-03,-0.00124687
-4.756000e-03,0.0443,0.0455031,-0.0494031,,-4.756000e-03,-0.00120312
-4.755000e-03,0.0441406,0.0453813,-0.049425,,-4.755000e-03,-0.00124063
-4.754000e-03,0.0440219,0.0453438,-0.049425,,-4.754000e-03,-0.00132188
-4.753000e-03,0.0440406,0.0452406,-0.049325,,-4.753000e-03,-0.0012
-4.752000e-03,0.0440719,0.0453469,-0.0493094,,-4.752000e-03,-0.001275
-4.751000e-03,0.0442,0.0454719,-0.0492219,,-4.751000e-03,-0.00127188
-4.750000e-03,0.0441906,0.0453938,-0.0493938,,-4.750000e-03,-0.00120312
-4.749000e-03,0.0443156,0.0455562,-0.0493063,,-4.749000e-03,-0.00124063
-4.748000e-03,0.0442813,0.0455156,-0.0492656,,-4.748000e-03,-0.00123437
-4.747000e-03,0.0442688,0.0455281,-0.0492688,,-4.747000e-03,-0.00125938
-4.746000e-03,0.0442312,0.0453969,-0.0492313,,-4.746000e-03,-0.00116562
-4.745000e-03,0.0442063,0.0454,-0.0492594,,-4.745000e-03,-0.00119375
-4.744000e-03,0.0440625,0.0453,-0.0493,,-4.744000e-03,-0.0012375
-4.743000e-03,0.0439656,0.0451469,-0.0492313,,-4.743000e-03,-0.00118125
-4.742000e-03,0.0440938,0.0451781,-0.0492,,-4.742000e-03,-0.00108438
-4.741000e-03,0.0439594,0.0452688,-0.0492906,,-4.741000e-03,-0.00130937
-4.740000e-03,0.0440625,0.0454281,-0.04925,,-4.740000e-03,-0.00136563
-4.739000e-03,0.0442219,0.0453281,-0.0492062,,-4.739000e-03,-0.00110625
-4.738000e-03,0.0441406,0.0453938,-0.049225,,-4.738000e-03,-0.00125312
-4.737000e-03,0.0442406,0.0455,-0.0491375,,-4.737000e-03,-0.00125938
-4.736000e-03,0.0442563,0.0454625,-0.0491688,,-4.736000e-03,-0.00120625
-4.735000e-03,0.044275,0.045425,-0.0490969,,-4.735000e-03,-0.00115
-4.734000e-03,0.0441469,0.0453844,-0.0490719,,-4.734000e-03,-0.0012375
-4.733000e-03,0.0441563,0.0453125,-0.0489969,,-4.733000e-03,-0.00115625
-4.732000e-03,0.0439125,0.0452219,-0.0490875,,-4.732000e-03,-0.00130937
-4.731000e-03,0.0438906,0.0451938,-0.0491469,,-4.731000e-03,-0.00130313
-4.730000e-03,0.0439969,0.045175,-0.0490281,,-4.730000e-03,-0.00117813
-4.729000e-03,0.0440313,0.0452125,-0.0489562,,-4.729000e-03,-0.00118125
