Laser_Spec_Data/tek0007MTH.csv

Model,MDO3014
Firmware Version,1.20

Waveform Type,ANALOG
Point Format,Y
Horizontal Units,s
Horizontal Scale,0.001
Horizontal Delay,-0.00064
Sample Interval,1e-07
Record Length,100000
Gating,58.300% to 61.300%
Probe Attenuation,1
Vertical Units,V
Vertical Offset,0
Vertical Scale,0.01
Vertical Position,0
,
,
,
Label,
TIME,"MATH<CH2-CH1>"
1.899000e-04,0.0106688
1.900000e-04,0.0106344
1.901000e-04,0.0106781
1.902000e-04,0.0106344
1.903000e-04,0.0106125
1.904000e-04,0.0106063
1.905000e-04,0.0106531
1.906000e-04,0.0105688
1.907000e-04,0.0106063
1.908000e-04,0.0106
1.909000e-04,0.0104406
1.910000e-04,0.0105391
1.911000e-04,0.0104563
1.912000e-04,0.0105297
1.913000e-04,0.0105219
1.914000e-04,0.0104531
1.915000e-04,0.0104594
1.916000e-04,0.0104406
1.917000e-04,0.0105531
1.918000e-04,0.0103172
1.919000e-04,0.0103875
1.920000e-04,0.0104563
1.921000e-04,0.0103594
1.922000e-04,0.0103719
1.923000e-04,0.010375
1.924000e-04,0.0104844
1.925000e-04,0.0104938
1.926000e-04,0.0104641
1.927000e-04,0.0103375
1.928000e-04,0.0104
1.929000e-04,0.0103438
1.930000e-04,0.0104375
1.931000e-04,0.0103375
1.932000e-04,0.0102813
1.933000e-04,0.0102688
1.934000e-04,0.0101922
1.935000e-04,0.0102969
1.936000e-04,0.0102938
1.937000e-04,0.0104031
1.938000e-04,0.0103406
1.939000e-04,0.0102391
1.940000e-04,0.0103516
1.941000e-04,0.010225
1.942000e-04,0.0102125
1.943000e-04,0.0102375
1.944000e-04,0.0103406
1.945000e-04,0.0102375
1.946000e-04,0.0101625
1.947000e-04,0.0102844
1.948000e-04,0.0102688
1.949000e-04,0.01015
1.950000e-04,0.0102031
1.951000e-04,0.0102406
1.952000e-04,0.0102172
1.953000e-04,0.0101547
1.954000e-04,0.0101125
1.955000e-04,0.0101094
1.956000e-04,0.0100703
1.957000e-04,0.010175
1.958000e-04,0.0101969
1.959000e-04,0.0100938
1.960000e-04,0.0101172
1.961000e-04,0.0102219
1.962000e-04,0.0100906
1.963000e-04,0.0101531
1.964000e-04,0.0100625
1.965000e-04,0.0100875
1.966000e-04,0.0101
1.967000e-04,0.0101156
1.968000e-04,0.0100094
1.969000e-04,0.00995625
1.970000e-04,0.00993438
1.971000e-04,0.00985313
1.972000e-04,0.010025
1.973000e-04,0.0099875
1.974000e-04,0.00993438
1.975000e-04,0.009925
1.976000e-04,0.00985313
1.977000e-04,0.00987344
1.978000e-04,0.00988125
1.979000e-04,0.00991563
1.980000e-04,0.0099625
1.981000e-04,0.00997187
1.982000e-04,0.00988438
1.983000e-04,0.00994375
1.984000e-04,0.00995625
1.985000e-04,0.00984375
1.986000e-04,0.00973125
1.987000e-04,0.00979375
1.988000e-04,0.00980469
1.989000e-04,0.009825
1.990000e-04,0.0097625
1.991000e-04,0.00980938
1.992000e-04,0.00980156
1.993000e-04,0.00970312
1.994000e-04,0.00981562
1.995000e-04,0.00991875
1.996000e-04,0.00986406
1.997000e-04,0.00982813
1.998000e-04,0.009925
1.999000e-04,0.00975
2.000000e-04,0.00979063
2.001000e-04,0.00971875
2.002000e-04,0.00970312
2.003000e-04,0.0097875
2.004000e-04,0.00962188
2.005000e-04,0.00971719
2.006000e-04,0.00967344
2.007000e-04,0.00959688
2.008000e-04,0.00969219
2.009000e-04,0.00969375
2.010000e-04,0.00965625
2.011000e-04,0.00965
2.012000e-04,0.00975625
2.013000e-04,0.00962188
2.014000e-04,0.009625
2.015000e-04,0.00964531
2.016000e-04,0.0095875
2.017000e-04,0.00954063
2.018000e-04,0.00954375
2.019000e-04,0.00949063
2.020000e-04,0.00970625
2.021000e-04,0.00951719
2.022000e-04,0.00963438
2.023000e-04,0.0095125
2.024000e-04,0.009475
2.025000e-04,0.0095
2.026000e-04,0.00954375
2.027000e-04,0.00940313
2.028000e-04,0.00950625
2.029000e-04,0.00955
2.030000e-04,0.00942813
2.031000e-04,0.00945312
2.032000e-04,0.00940313
2.033000e-04,0.00949063
2.034000e-04,0.00938125
2.035000e-04,0.00935625
2.036000e-04,0.00946094
2.037000e-04,0.00950625
2.038000e-04,0.00929063
2.039000e-04,0.009425
2.040000e-04,0.00936094
2.041000e-04,0.00945
2.042000e-04,0.00933125
2.043000e-04,0.00930937
2.044000e-04,0.00935937
2.045000e-04,0.00940625
2.046000e-04,0.00926563
2.047000e-04,0.00932188
2.048000e-04,0.00926719
2.049000e-04,0.00929687
2.050000e-04,0.00925
2.051000e-04,0.009225
2.052000e-04,0.00919375
2.053000e-04,0.00923438
2.054000e-04,0.00925938
2.055000e-04,0.00926875
2.056000e-04,0.009275
2.057000e-04,0.009275
2.058000e-04,0.00921875
2.059000e-04,0.00915156
2.060000e-04,0.0091875
2.061000e-04,0.00915469
2.062000e-04,0.00920938
2.063000e-04,0.0091
2.064000e-04,0.00929063
2.065000e-04,0.00916875
2.066000e-04,0.00912656
2.067000e-04,0.00919375
2.068000e-04,0.00904375
2.069000e-04,0.00909375
2.070000e-04,0.00910313
2.071000e-04,0.00908438
2.072000e-04,0.00905313
2.073000e-04,0.00903438
2.074000e-04,0.00907188
2.075000e-04,0.00904063
2.076000e-04,0.00905
2.077000e-04,0.00894687
2.078000e-04,0.00903438
2.079000e-04,0.00911875
2.080000e-04,0.00893437
2.081000e-04,0.00891875
2.082000e-04,0.00890938
2.083000e-04,0.0088875
2.084000e-04,0.00887813
2.085000e-04,0.00886875
2.086000e-04,0.00889688
2.087000e-04,0.00899687
2.088000e-04,0.00897812
2.089000e-04,0.008975
2.090000e-04,0.00888125
2.091000e-04,0.00881875
2.092000e-04,0.00881563
2.093000e-04,0.0089
2.094000e-04,0.00884688
2.095000e-04,0.00889688
2.096000e-04,0.0087625
2.097000e-04,0.00883125
2.098000e-04,0.00872812
2.099000e-04,0.00866562
2.100000e-04,0.0088375
2.101000e-04,0.00866562
2.102000e-04,0.00874688
2.103000e-04,0.00886875
2.104000e-04,0.00873125
2.105000e-04,0.00868438
2.106000e-04,0.00873125
2.107000e-04,0.00863125
2.108000e-04,0.00868125
2.109000e-04,0.00874375
2.110000e-04,0.00874375
2.111000e-04,0.00861406
2.112000e-04,0.0086
2.113000e-04,0.0085
2.114000e-04,0.0085875
2.115000e-04,0.00857813
2.116000e-04,0.0086
2.117000e-04,0.00849688
2.118000e-04,0.00865313
2.119000e-04,0.00864063
2.120000e-04,0.00859063
2.121000e-04,0.008525
2.122000e-04,0.00849688
2.123000e-04,0.00852344
2.124000e-04,0.00835938
2.125000e-04,0.00851875
2.126000e-04,0.00845625
2.127000e-04,0.00853125
2.128000e-04,0.00855312
2.129000e-04,0.00845
2.130000e-04,0.00840313
2.131000e-04,0.00837188
2.132000e-04,0.0082375
2.133000e-04,0.0083375
2.134000e-04,0.00847969
2.135000e-04,0.00831563
2.136000e-04,0.00828906
2.137000e-04,0.008425
2.138000e-04,0.00842188
2.139000e-04,0.00840938
2.140000e-04,0.00834063
2.141000e-04,0.00831563
2.142000e-04,0.00831563
2.143000e-04,0.00829531
2.144000e-04,0.00830938
2.145000e-04,0.00825313
2.146000e-04,0.00827344
2.147000e-04,0.00830938
2.148000e-04,0.0082875
2.149000e-04,0.008225
2.150000e-04,0.00821094
2.151000e-04,0.00828125
2.152000e-04,0.00820625
2.153000e-04,0.00825
2.154000e-04,0.00809687
2.155000e-04,0.00810625
2.156000e-04,0.0081
2.157000e-04,0.00815937
2.158000e-04,0.0081
2.159000e-04,0.0080375
2.160000e-04,0.00812812
2.161000e-04,0.00814687
2.162000e-04,0.00815937
2.163000e-04,0.00799688
2.164000e-04,0.00810156
2.165000e-04,0.00806562
2.166000e-04,0.00805312
2.167000e-04,0.00804844
2.168000e-04,0.00804219
2.169000e-04,0.00794375
2.170000e-04,0.00803437
2.171000e-04,0.00813125
2.172000e-04,0.0080625
2.173000e-04,0.00800781
2.174000e-04,0.00795938
2.175000e-04,0.00788125
2.176000e-04,0.00798594
2.177000e-04,0.00790313
2.178000e-04,0.00793125
2.179000e-04,0.00791094
2.180000e-04,0.00798125
2.181000e-04,0.00796875
2.182000e-04,0.0080125
2.183000e-04,0.00794062
2.184000e-04,0.00779063
2.185000e-04,0.00777813
2.186000e-04,0.00783438
2.187000e-04,0.00785313
2.188000e-04,0.00790313
2.189000e-04,0.00773125
2.190000e-04,0.0077875
2.191000e-04,0.00775625
2.192000e-04,0.00778125
2.193000e-04,0.00778125
2.194000e-04,0.00770625
2.195000e-04,0.007725
2.196000e-04,0.00773438
2.197000e-04,0.00767813
2.198000e-04,0.00770625
2.199000e-04,0.00767188
2.200000e-04,0.00764375
2.201000e-04,0.00775313
2.202000e-04,0.0077
2.203000e-04,0.0077125
2.204000e-04,0.00760313
2.205000e-04,0.00765625
2.206000e-04,0.00759219
2.207000e-04,0.00756406
2.208000e-04,0.00755
2.209000e-04,0.00769063
2.210000e-04,0.00758594
2.211000e-04,0.007575
2.212000e-04,0.00755938
2.213000e-04,0.00757188
2.214000e-04,0.0075
2.215000e-04,0.00762031
2.216000e-04,0.0074875
2.217000e-04,0.00750313
2.218000e-04,0.00757813
2.219000e-04,0.00741875
2.220000e-04,0.00739375
2.221000e-04,0.00750625
2.222000e-04,0.00745
2.223000e-04,0.00746563
2.224000e-04,0.00731563
2.225000e-04,0.00743438
2.226000e-04,0.007375
2.227000e-04,0.00733438
2.228000e-04,0.00734375
2.229000e-04,0.00724063
2.230000e-04,0.00726563
2.231000e-04,0.00733438
2.232000e-04,0.00737187
2.233000e-04,0.00740938
2.234000e-04,0.00742969
2.235000e-04,0.00729375
2.236000e-04,0.00735
2.237000e-04,0.00734844
2.238000e-04,0.00726563
2.239000e-04,0.00728125
2.240000e-04,0.00735313
2.241000e-04,0.00723594
2.242000e-04,0.00736875
2.243000e-04,0.00725625
2.244000e-04,0.00718281
2.245000e-04,0.00745
2.246000e-04,0.00725
2.247000e-04,0.00720625
2.248000e-04,0.00725625
2.249000e-04,0.00714063
2.250000e-04,0.00708438
2.251000e-04,0.0073125
2.252000e-04,0.0071375
2.253000e-04,0.00719062
2.254000e-04,0.00705625
2.255000e-04,0.00708125
2.256000e-04,0.00717031
2.257000e-04,0.0070875
2.258000e-04,0.00712344
2.259000e-04,0.00702813
2.260000e-04,0.00704844
2.261000e-04,0.00705313
2.262000e-04,0.0070875
2.263000e-04,0.00715313
2.264000e-04,0.0071
2.265000e-04,0.00710313
2.266000e-04,0.00696719
2.267000e-04,0.006975
2.268000e-04,0.00693594
2.269000e-04,0.00698438
2.270000e-04,0.00699063
2.271000e-04,0.00708438
2.272000e-04,0.00695
2.273000e-04,0.007
2.274000e-04,0.006875
2.275000e-04,0.00703438
2.276000e-04,0.00684375
2.277000e-04,0.00692813
2.278000e-04,0.00695938
2.279000e-04,0.006825
2.280000e-04,0.00689688
2.281000e-04,0.00698438
2.282000e-04,0.006825
2.283000e-04,0.00675469
2.284000e-04,0.00685625
2.285000e-04,0.0068375
2.286000e-04,0.00682812
2.287000e-04,0.00676094
2.288000e-04,0.00675313
2.289000e-04,0.00676875
2.290000e-04,0.00680313
2.291000e-04,0.00690313
2.292000e-04,0.00683125
2.293000e-04,0.00690625
2.294000e-04,0.0067375
2.295000e-04,0.0068
2.296000e-04,0.00671563
2.297000e-04,0.006725
2.298000e-04,0.00678125
2.299000e-04,0.00676875
2.300000e-04,0.0066125
2.301000e-04,0.00665
2.302000e-04,0.00669531
2.303000e-04,0.00663125
2.304000e-04,0.00677188
2.305000e-04,0.00669375
2.306000e-04,0.00673437
2.307000e-04,0.00655938
2.308000e-04,0.00666719
2.309000e-04,0.00661094
2.310000e-04,0.00667813
2.311000e-04,0.00666719
2.312000e-04,0.00664688
2.313000e-04,0.00654688
2.314000e-04,0.00650938
2.315000e-04,0.00652187
2.316000e-04,0.00660938
2.317000e-04,0.00658125
2.318000e-04,0.00661094
2.319000e-04,0.0064875
2.320000e-04,0.0065
2.321000e-04,0.00656875
2.322000e-04,0.00658125
2.323000e-04,0.00659688
2.324000e-04,0.00649063
2.325000e-04,0.00642813
2.326000e-04,0.00654063
2.327000e-04,0.0064625
2.328000e-04,0.00664063
2.329000e-04,0.0065
2.330000e-04,0.0065
2.331000e-04,0.00647813
2.332000e-04,0.006425
2.333000e-04,0.00635
2.334000e-04,0.00640625
2.335000e-04,0.0064125
2.336000e-04,0.00647656
2.337000e-04,0.00640625
2.338000e-04,0.00649375
2.339000e-04,0.00634219
2.340000e-04,0.00640625
2.341000e-04,0.0064
2.342000e-04,0.00633438
2.343000e-04,0.00624531
2.344000e-04,0.00628594
2.345000e-04,0.00635313
2.346000e-04,0.00636094
2.347000e-04,0.00641875
2.348000e-04,0.00627813
2.349000e-04,0.00634062
2.350000e-04,0.00625938
2.351000e-04,0.00629844
2.352000e-04,0.00622656
2.353000e-04,0.00625938
2.354000e-04,0.0062875
2.355000e-04,0.0062
2.356000e-04,0.00625
2.357000e-04,0.00619531
2.358000e-04,0.00634531
2.359000e-04,0.0061375
2.360000e-04,0.00619062
2.361000e-04,0.00625313
2.362000e-04,0.00621875
2.363000e-04,0.00628125
2.364000e-04,0.0062125
2.365000e-04,0.00625938
2.366000e-04,0.0063875
2.367000e-04,0.00619375
2.368000e-04,0.00607188
2.369000e-04,0.00620625
2.370000e-04,0.006025
2.371000e-04,0.00620625
2.372000e-04,0.00610313
2.373000e-04,0.00618438
2.374000e-04,0.0061625
2.375000e-04,0.00607188
2.376000e-04,0.00613906
2.377000e-04,0.00605625
2.378000e-04,0.00592813
2.379000e-04,0.00599688
2.380000e-04,0.00605
2.381000e-04,0.00603906
2.382000e-04,0.0061625
2.383000e-04,0.00601563
2.384000e-04,0.00603594
2.385000e-04,0.006
2.386000e-04,0.00608906
2.387000e-04,0.00595313
2.388000e-04,0.00605156
2.389000e-04,0.00615
2.390000e-04,0.00608125
2.391000e-04,0.00594375
2.392000e-04,0.00594375
2.393000e-04,0.0059375
2.394000e-04,0.00607031
2.395000e-04,0.00597812
2.396000e-04,0.005975
2.397000e-04,0.00606875
2.398000e-04,0.00593125
2.399000e-04,0.005925
2.400000e-04,0.005925
2.401000e-04,0.00585938
2.402000e-04,0.00599375
2.403000e-04,0.00601406
2.404000e-04,0.005825
2.405000e-04,0.00589375
2.406000e-04,0.00593906
2.407000e-04,0.00581875
2.408000e-04,0.005925
2.409000e-04,0.00590156
2.410000e-04,0.00589375
2.411000e-04,0.00585313
2.412000e-04,0.00589375
2.413000e-04,0.00587813
2.414000e-04,0.00590938
2.415000e-04,0.00590625
2.416000e-04,0.00587344
2.417000e-04,0.00583438
2.418000e-04,0.00577188
2.419000e-04,0.00589531
2.420000e-04,0.00577188
2.421000e-04,0.00574688
2.422000e-04,0.00584531
2.423000e-04,0.00583438
2.424000e-04,0.00586406
2.425000e-04,0.0057625
2.426000e-04,0.00578438
2.427000e-04,0.0057625
2.428000e-04,0.00586563
2.429000e-04,0.00571875
2.430000e-04,0.005775
2.431000e-04,0.00579687
2.432000e-04,0.005775
2.433000e-04,0.00579687
2.434000e-04,0.00563125
2.435000e-04,0.00569531
2.436000e-04,0.0057875
2.437000e-04,0.00571563
2.438000e-04,0.00573125
2.439000e-04,0.00566875
2.440000e-04,0.00576406
2.441000e-04,0.00576406
2.442000e-04,0.00571563
2.443000e-04,0.00573125
2.444000e-04,0.00572188
2.445000e-04,0.00561875
2.446000e-04,0.0057625
2.447000e-04,0.00569531
2.448000e-04,0.00567813
2.449000e-04,0.00572656
2.450000e-04,0.00561094
2.451000e-04,0.00563125
2.452000e-04,0.0056375
2.453000e-04,0.00566563
2.454000e-04,0.00575469
2.455000e-04,0.00566563
2.456000e-04,0.00567813
2.457000e-04,0.00560625
2.458000e-04,0.00565313
2.459000e-04,0.00562813
2.460000e-04,0.00543594
2.461000e-04,0.00552187
2.462000e-04,0.00559844
2.463000e-04,0.0056125
2.464000e-04,0.00565469
2.465000e-04,0.00566875
2.466000e-04,0.00565
2.467000e-04,0.0055875
2.468000e-04,0.00550313
2.469000e-04,0.00554219
2.470000e-04,0.00548125
2.471000e-04,0.00544375
2.472000e-04,0.0054625
2.473000e-04,0.00562188
2.474000e-04,0.00555625
2.475000e-04,0.00544688
2.476000e-04,0.0054625
2.477000e-04,0.00547031
2.478000e-04,0.00554375
2.479000e-04,0.00555938
2.480000e-04,0.005525
2.481000e-04,0.00561094
2.482000e-04,0.00543437
2.483000e-04,0.00554063
2.484000e-04,0.00543125
2.485000e-04,0.00539375
2.486000e-04,0.00547969
2.487000e-04,0.0055375
2.488000e-04,0.00544844
2.489000e-04,0.00542188
2.490000e-04,0.00536875
2.491000e-04,0.00541875
2.492000e-04,0.00545469
2.493000e-04,0.00543594
2.494000e-04,0.00535313
2.495000e-04,0.00541875
2.496000e-04,0.00536875
2.497000e-04,0.00541875
2.498000e-04,0.0055125
2.499000e-04,0.00538438
2.500000e-04,0.00540312
2.501000e-04,0.00548281
2.502000e-04,0.00534844
2.503000e-04,0.00533594
2.504000e-04,0.0054375
2.505000e-04,0.00528281
2.506000e-04,0.00537187
2.507000e-04,0.00530313
2.508000e-04,0.00538125
2.509000e-04,0.00541875
2.510000e-04,0.00536406
2.511000e-04,0.00539063
2.512000e-04,0.00537656
2.513000e-04,0.00530781
2.514000e-04,0.00535
2.515000e-04,0.00534688
2.516000e-04,0.00525625
2.517000e-04,0.00522813
2.518000e-04,0.005275
2.519000e-04,0.00537344
2.520000e-04,0.00525
2.521000e-04,0.0052875
2.522000e-04,0.00527188
2.523000e-04,0.00540469
2.524000e-04,0.00526563
2.525000e-04,0.00530781
2.526000e-04,0.00521094
2.527000e-04,0.00529688
2.528000e-04,0.005275
2.529000e-04,0.00525781
2.530000e-04,0.00522656
2.531000e-04,0.00520469
2.532000e-04,0.00530156
2.533000e-04,0.00513125
2.534000e-04,0.005175
2.535000e-04,0.00521563
2.536000e-04,0.00522187
2.537000e-04,0.0051875
2.538000e-04,0.00518125
2.539000e-04,0.00517188
2.540000e-04,0.00521406
2.541000e-04,0.00510156
2.542000e-04,0.00525938
2.543000e-04,0.00526406
2.544000e-04,0.00513438
2.545000e-04,0.00526875
2.546000e-04,0.00515625
2.547000e-04,0.005275
2.548000e-04,0.0050875
2.549000e-04,0.0051
2.550000e-04,0.00520313
2.551000e-04,0.00514063
2.552000e-04,0.00502969
2.553000e-04,0.00512188
2.554000e-04,0.00515313
2.555000e-04,0.00512188
2.556000e-04,0.00505781
2.557000e-04,0.0051
2.558000e-04,0.005075
2.559000e-04,0.00516563
2.560000e-04,0.00505
2.561000e-04,0.00505156
2.562000e-04,0.0051125
2.563000e-04,0.00510156
2.564000e-04,0.00506875
2.565000e-04,0.0050625
2.566000e-04,0.00500625
2.567000e-04,0.00512188
2.568000e-04,0.00504375
2.569000e-04,0.00505156
2.570000e-04,0.00509531
2.571000e-04,0.00507813
2.572000e-04,0.00502813
2.573000e-04,0.00513438
2.574000e-04,0.00497812
2.575000e-04,0.00500469
2.576000e-04,0.00503438
2.577000e-04,0.00500625
2.578000e-04,0.0049125
2.579000e-04,0.00501563
2.580000e-04,0.00495
2.581000e-04,0.00500625
2.582000e-04,0.00516094
2.583000e-04,0.0050375
2.584000e-04,0.00502656
2.585000e-04,0.00497812
2.586000e-04,0.00490469
2.587000e-04,0.0049625
2.588000e-04,0.005025
2.589000e-04,0.00497656
2.590000e-04,0.00494687
2.591000e-04,0.00498281
2.592000e-04,0.00488281
2.593000e-04,0.00486406
2.594000e-04,0.00497031
2.595000e-04,0.00480469
2.596000e-04,0.00488437
2.597000e-04,0.00499063
2.598000e-04,0.00491562
2.599000e-04,0.00504688
2.600000e-04,0.004925
2.601000e-04,0.00474375
2.602000e-04,0.00505313
2.603000e-04,0.00487344
2.604000e-04,0.00485625
2.605000e-04,0.00503438
2.606000e-04,0.00489375
2.607000e-04,0.00491875
2.608000e-04,0.00489531
2.609000e-04,0.00493438
2.610000e-04,0.00487813
2.611000e-04,0.00490625
2.612000e-04,0.00493125
2.613000e-04,0.00496875
2.614000e-04,0.00473594
2.615000e-04,0.00505156
2.616000e-04,0.00488125
2.617000e-04,0.0049
2.618000e-04,0.00482656
2.619000e-04,0.00481875
2.620000e-04,0.00483594
2.621000e-04,0.00486094
2.622000e-04,0.00476719
2.623000e-04,0.00472969
2.624000e-04,0.00479375
2.625000e-04,0.00481563
2.626000e-04,0.00480469
2.627000e-04,0.00476406
2.628000e-04,0.00484219
2.629000e-04,0.00476562
2.630000e-04,0.00478281
2.631000e-04,0.00477188
2.632000e-04,0.00485625
2.633000e-04,0.0047625
2.634000e-04,0.00475313
2.635000e-04,0.00476562
2.636000e-04,0.00484531
2.637000e-04,0.00490938
2.638000e-04,0.00481875
2.639000e-04,0.0046625
2.640000e-04,0.00476875
2.641000e-04,0.00477188
2.642000e-04,0.00485156
2.643000e-04,0.004775
2.644000e-04,0.00475625
2.645000e-04,0.00479063
2.646000e-04,0.00485
2.647000e-04,0.00477813
2.648000e-04,0.00479531
2.649000e-04,0.00480938
2.650000e-04,0.0047
2.651000e-04,0.00469063
2.652000e-04,0.00475938
2.653000e-04,0.00468438
2.654000e-04,0.00475313
2.655000e-04,0.00477813
2.656000e-04,0.00471875
2.657000e-04,0.00459063
2.658000e-04,0.00478125
2.659000e-04,0.00461875
2.660000e-04,0.00467656
2.661000e-04,0.00471875
2.662000e-04,0.00471094
2.663000e-04,0.00468438
2.664000e-04,0.00470625
2.665000e-04,0.00466719
2.666000e-04,0.00471875
2.667000e-04,0.00460938
2.668000e-04,0.00462813
2.669000e-04,0.00460938
2.670000e-04,0.00458125
2.671000e-04,0.00472813
2.672000e-04,0.00458906
2.673000e-04,0.00459688
2.674000e-04,0.00460313
2.675000e-04,0.00471875
2.676000e-04,0.00455938
2.677000e-04,0.00472969
2.678000e-04,0.00473437
2.679000e-04,0.00466875
2.680000e-04,0.00463281
2.681000e-04,0.00471406
2.682000e-04,0.00468438
2.683000e-04,0.00458906
2.684000e-04,0.00459688
2.685000e-04,0.00457813
2.686000e-04,0.00471094
2.687000e-04,0.00465469
2.688000e-04,0.00474375
2.689000e-04,0.00456875
2.690000e-04,0.00474844
2.691000e-04,0.00449531
2.692000e-04,0.00465156
2.693000e-04,0.00458125
2.694000e-04,0.00451875
2.695000e-04,0.00465156
2.696000e-04,0.00463438
2.697000e-04,0.00450313
2.698000e-04,0.00453594
2.699000e-04,0.00457188
2.700000e-04,0.00445469
2.701000e-04,0.00450781
2.702000e-04,0.00454844
2.703000e-04,0.00449062
2.704000e-04,0.004425
2.705000e-04,0.0044
2.706000e-04,0.00445625
2.707000e-04,0.00449531
2.708000e-04,0.0045
2.709000e-04,0.00450625
2.710000e-04,0.00449531
2.711000e-04,0.00452031
2.712000e-04,0.00445781
2.713000e-04,0.00452187
2.714000e-04,0.00449688
2.715000e-04,0.00440781
2.716000e-04,0.00442344
2.717000e-04,0.00447656
2.718000e-04,0.00439063
2.719000e-04,0.0044625
2.720000e-04,0.00460938
2.721000e-04,0.00445781
2.722000e-04,0.00450313
2.723000e-04,0.00448594
2.724000e-04,0.00448438
2.725000e-04,0.00441875
2.726000e-04,0.00446562
2.727000e-04,0.00460313
2.728000e-04,0.004325
2.729000e-04,0.00444688
2.730000e-04,0.00447031
2.731000e-04,0.00445781
2.732000e-04,0.00451875
2.733000e-04,0.00455
2.734000e-04,0.00447188
