Laser_Spec_Data/tek0010ALL.csv

Model,MDO3014
Firmware Version,1.20

Waveform Type,ANALOG,,,Waveform Type,ANALOG
Point Format,Y,,,Point Format,Y
Horizontal Units,s,,,Horizontal Units,s
Horizontal Scale,0.001,,,Horizontal Scale,0.001
Horizontal Delay,-0.00064,,,Horizontal Delay,-0.00064
Sample Interval,1e-07,,,Sample Interval,1e-07
Record Length,100000,,,Record Length,100000
Gating,29.00% to 73.200%,,,Gating,29.00% to 73.200%
Probe Attenuation,1,1,,Probe Attenuation,1
Vertical Units,V,V,,Vertical Units,V
Vertical Offset,0,0,,Vertical Offset,0
Vertical Scale,0.02,0.02,,Vertical Scale,0.01
Vertical Position,0,0,,Vertical Position,0
,,,,,
,,,,,
,,,,,
Label,,,,Label,
TIME,CH1,CH2,,TIME,"MATH<CH2-CH1>"
-2.740100e-03,-0.008175,-0.0106906,,-2.740100e-03,-0.00253438
-2.740000e-03,-0.00809063,-0.0106031,,-2.740000e-03,-0.002525
-2.739900e-03,-0.00812188,-0.0107188,,-2.739900e-03,-0.00259375
-2.739800e-03,-0.008075,-0.0107031,,-2.739800e-03,-0.00260625
-2.739700e-03,-0.00809375,-0.0107,,-2.739700e-03,-0.00260469
-2.739600e-03,-0.00806562,-0.0106656,,-2.739600e-03,-0.00259531
-2.739500e-03,-0.00814063,-0.0106656,,-2.739500e-03,-0.0025125
-2.739400e-03,-0.00808125,-0.0107219,,-2.739400e-03,-0.00264375
-2.739300e-03,-0.0081,-0.0106906,,-2.739300e-03,-0.00258438
-2.739200e-03,-0.00810938,-0.0107375,,-2.739200e-03,-0.00261719
-2.739100e-03,-0.0081125,-0.0107031,,-2.739100e-03,-0.00258125
-2.739000e-03,-0.00813438,-0.0106156,,-2.739000e-03,-0.00246719
-2.738900e-03,-0.00809687,-0.0106875,,-2.738900e-03,-0.00258125
-2.738800e-03,-0.00804375,-0.0106375,,-2.738800e-03,-0.00260156
-2.738700e-03,-0.00806562,-0.0107094,,-2.738700e-03,-0.00266406
-2.738600e-03,-0.00803437,-0.0106844,,-2.738600e-03,-0.00265625
-2.738500e-03,-0.00805938,-0.0106094,,-2.738500e-03,-0.00256563
-2.738400e-03,-0.00810313,-0.0106531,,-2.738400e-03,-0.00255313
-2.738300e-03,-0.00804063,-0.0106313,,-2.738300e-03,-0.00259844
-2.738200e-03,-0.00807188,-0.0106156,,-2.738200e-03,-0.00253594
-2.738100e-03,-0.008075,-0.0106438,,-2.738100e-03,-0.00256094
-2.738000e-03,-0.00808437,-0.0106125,,-2.738000e-03,-0.00252812
-2.737900e-03,-0.00806875,-0.0106875,,-2.737900e-03,-0.00264375
-2.737800e-03,-0.00807813,-0.0106438,,-2.737800e-03,-0.00255625
-2.737700e-03,-0.00806562,-0.0106406,,-2.737700e-03,-0.00257656
-2.737600e-03,-0.00802188,-0.0106375,,-2.737600e-03,-0.00259375
-2.737500e-03,-0.00797813,-0.01065,,-2.737500e-03,-0.00266406
-2.737400e-03,-0.00800938,-0.0105813,,-2.737400e-03,-0.00258125
-2.737300e-03,-0.00800938,-0.0105156,,-2.737300e-03,-0.00250781
-2.737200e-03,-0.00798125,-0.0105875,,-2.737200e-03,-0.0026
-2.737100e-03,-0.007975,-0.0105938,,-2.737100e-03,-0.00260156
-2.737000e-03,-0.00799063,-0.0105406,,-2.737000e-03,-0.00254062
-2.736900e-03,-0.00799375,-0.0105656,,-2.736900e-03,-0.00258125
-2.736800e-03,-0.007975,-0.0105438,,-2.736800e-03,-0.00257031
-2.736700e-03,-0.00794688,-0.0106219,,-2.736700e-03,-0.0026625
-2.736600e-03,-0.00795625,-0.0105406,,-2.736600e-03,-0.00258438
-2.736500e-03,-0.00802188,-0.010625,,-2.736500e-03,-0.00260938
-2.736400e-03,-0.00803437,-0.0105625,,-2.736400e-03,-0.00252656
-2.736300e-03,-0.00804688,-0.0106094,,-2.736300e-03,-0.00255938
-2.736200e-03,-0.00795938,-0.010475,,-2.736200e-03,-0.00250625
-2.736100e-03,-0.00803125,-0.0105594,,-2.736100e-03,-0.00252812
-2.736000e-03,-0.00798125,-0.010625,,-2.736000e-03,-0.00264844
-2.735900e-03,-0.00799688,-0.0105875,,-2.735900e-03,-0.00259688
-2.735800e-03,-0.00799063,-0.0105531,,-2.735800e-03,-0.0025625
-2.735700e-03,-0.00792188,-0.0104969,,-2.735700e-03,-0.00255469
-2.735600e-03,-0.00792813,-0.0105938,,-2.735600e-03,-0.00266875
-2.735500e-03,-0.00801563,-0.0105688,,-2.735500e-03,-0.00253906
-2.735400e-03,-0.00803125,-0.0104688,,-2.735400e-03,-0.00243125
-2.735300e-03,-0.008,-0.0105438,,-2.735300e-03,-0.00255
-2.735200e-03,-0.00794375,-0.0104719,,-2.735200e-03,-0.00250625
-2.735100e-03,-0.00798125,-0.010475,,-2.735100e-03,-0.00248125
-2.735000e-03,-0.00794062,-0.0105531,,-2.735000e-03,-0.0026
-2.734900e-03,-0.00790937,-0.0105906,,-2.734900e-03,-0.00264531
-2.734800e-03,-0.007925,-0.0104875,,-2.734800e-03,-0.00255781
-2.734700e-03,-0.00793125,-0.0105375,,-2.734700e-03,-0.00260625
-2.734600e-03,-0.00792188,-0.0105281,,-2.734600e-03,-0.00258438
-2.734500e-03,-0.00792188,-0.0105031,,-2.734500e-03,-0.00258438
-2.734400e-03,-0.0078875,-0.0104875,,-2.734400e-03,-0.00258594
-2.734300e-03,-0.00788438,-0.0104719,,-2.734300e-03,-0.00258438
-2.734200e-03,-0.007825,-0.0104875,,-2.734200e-03,-0.00267344
-2.734100e-03,-0.00781562,-0.0105,,-2.734100e-03,-0.00269219
-2.734000e-03,-0.00782188,-0.01055,,-2.734000e-03,-0.00273594
-2.733900e-03,-0.00794688,-0.0105188,,-2.733900e-03,-0.00256094
-2.733800e-03,-0.0079625,-0.0105094,,-2.733800e-03,-0.00253125
-2.733700e-03,-0.00784687,-0.0104344,,-2.733700e-03,-0.00257969
-2.733600e-03,-0.00785625,-0.0104813,,-2.733600e-03,-0.00264219
-2.733500e-03,-0.007875,-0.0104531,,-2.733500e-03,-0.00258125
-2.733400e-03,-0.00785313,-0.0105031,,-2.733400e-03,-0.00268438
-2.733300e-03,-0.007875,-0.0104938,,-2.733300e-03,-0.00260781
-2.733200e-03,-0.00789688,-0.0104219,,-2.733200e-03,-0.00251875
-2.733100e-03,-0.00792188,-0.0104531,,-2.733100e-03,-0.00252656
-2.733000e-03,-0.00782188,-0.0104125,,-2.733000e-03,-0.00259219
-2.732900e-03,-0.00778125,-0.0104938,,-2.732900e-03,-0.00272813
-2.732800e-03,-0.007875,-0.0103875,,-2.732800e-03,-0.00251875
-2.732700e-03,-0.00778125,-0.0105062,,-2.732700e-03,-0.0027375
-2.732600e-03,-0.00790313,-0.0104375,,-2.732600e-03,-0.00252812
-2.732500e-03,-0.0078,-0.0103656,,-2.732500e-03,-0.00257656
-2.732400e-03,-0.00782188,-0.010425,,-2.732400e-03,-0.00257344
-2.732300e-03,-0.00782188,-0.0104281,,-2.732300e-03,-0.0026125
-2.732200e-03,-0.0078125,-0.01035,,-2.732200e-03,-0.0025375
-2.732100e-03,-0.0077625,-0.0104625,,-2.732100e-03,-0.00269219
-2.732000e-03,-0.0077375,-0.0104375,,-2.732000e-03,-0.00269688
-2.731900e-03,-0.00779375,-0.0103406,,-2.731900e-03,-0.00254688
-2.731800e-03,-0.00789063,-0.0103906,,-2.731800e-03,-0.00250625
-2.731700e-03,-0.00780938,-0.0103812,,-2.731700e-03,-0.00256875
-2.731600e-03,-0.0077625,-0.0104281,,-2.731600e-03,-0.00266563
-2.731500e-03,-0.00779375,-0.0104219,,-2.731500e-03,-0.00264531
-2.731400e-03,-0.00783438,-0.0104563,,-2.731400e-03,-0.00259844
-2.731300e-03,-0.0078,-0.0103719,,-2.731300e-03,-0.00256094
-2.731200e-03,-0.00778438,-0.0103438,,-2.731200e-03,-0.00252812
-2.731100e-03,-0.007875,-0.010375,,-2.731100e-03,-0.00249687
-2.731000e-03,-0.007775,-0.0104031,,-2.731000e-03,-0.00262969
-2.730900e-03,-0.00775313,-0.0103625,,-2.730900e-03,-0.00257656
-2.730800e-03,-0.00777813,-0.0103656,,-2.730800e-03,-0.00257187
-2.730700e-03,-0.00777188,-0.0104094,,-2.730700e-03,-0.00263125
-2.730600e-03,-0.00782813,-0.0103313,,-2.730600e-03,-0.00249844
-2.730500e-03,-0.00776562,-0.0103844,,-2.730500e-03,-0.00262344
-2.730400e-03,-0.00777813,-0.0103281,,-2.730400e-03,-0.00253438
-2.730300e-03,-0.00777188,-0.01035,,-2.730300e-03,-0.00256406
-2.730200e-03,-0.00776875,-0.0103531,,-2.730200e-03,-0.00258594
-2.730100e-03,-0.00781875,-0.0103812,,-2.730100e-03,-0.00256094
-2.730000e-03,-0.00781875,-0.010375,,-2.730000e-03,-0.00255938
-2.729900e-03,-0.00777188,-0.0103281,,-2.729900e-03,-0.00255469
-2.729800e-03,-0.00775313,-0.01035,,-2.729800e-03,-0.00259688
-2.729700e-03,-0.0078,-0.0103781,,-2.729700e-03,-0.00257656
-2.729600e-03,-0.00774688,-0.0104219,,-2.729600e-03,-0.00264844
-2.729500e-03,-0.00775625,-0.0102938,,-2.729500e-03,-0.00253125
-2.729400e-03,-0.00778125,-0.0102969,,-2.729400e-03,-0.00250781
-2.729300e-03,-0.00767188,-0.0102438,,-2.729300e-03,-0.00259063
-2.729200e-03,-0.0077125,-0.0103187,,-2.729200e-03,-0.00260625
-2.729100e-03,-0.00775313,-0.0103187,,-2.729100e-03,-0.00256094
-2.729000e-03,-0.00776562,-0.0103094,,-2.729000e-03,-0.00255
-2.728900e-03,-0.00775938,-0.0102844,,-2.728900e-03,-0.002525
-2.728800e-03,-0.0076375,-0.0102875,,-2.728800e-03,-0.00265
-2.728700e-03,-0.00767188,-0.0103156,,-2.728700e-03,-0.0026375
-2.728600e-03,-0.007675,-0.0103063,,-2.728600e-03,-0.00262344
-2.728500e-03,-0.00772188,-0.0103,,-2.728500e-03,-0.0025875
-2.728400e-03,-0.00770625,-0.0102813,,-2.728400e-03,-0.00257656
-2.728300e-03,-0.0077,-0.0102781,,-2.728300e-03,-0.00258125
-2.728200e-03,-0.0076875,-0.0102813,,-2.728200e-03,-0.00258594
-2.728100e-03,-0.00767813,-0.0102406,,-2.728100e-03,-0.0025625
-2.728000e-03,-0.00762813,-0.01025,,-2.728000e-03,-0.00259219
-2.727900e-03,-0.0076375,-0.010325,,-2.727900e-03,-0.002675
-2.727800e-03,-0.00767188,-0.0103063,,-2.727800e-03,-0.00262813
-2.727700e-03,-0.00769375,-0.0102656,,-2.727700e-03,-0.00255938
-2.727600e-03,-0.00763438,-0.01025,,-2.727600e-03,-0.002625
-2.727500e-03,-0.00763125,-0.0103281,,-2.727500e-03,-0.00267812
-2.727400e-03,-0.00765625,-0.0102844,,-2.727400e-03,-0.00260156
-2.727300e-03,-0.00762813,-0.0103219,,-2.727300e-03,-0.00268125
-2.727200e-03,-0.00757188,-0.0101906,,-2.727200e-03,-0.00260938
-2.727100e-03,-0.00765,-0.0102656,,-2.727100e-03,-0.00258906
-2.727000e-03,-0.00760938,-0.0101813,,-2.727000e-03,-0.00256719
-2.726900e-03,-0.0077,-0.0102656,,-2.726900e-03,-0.00256719
-2.726800e-03,-0.00754063,-0.0102781,,-2.726800e-03,-0.00273438
-2.726700e-03,-0.00764375,-0.01025,,-2.726700e-03,-0.00259688
-2.726600e-03,-0.00758437,-0.0102875,,-2.726600e-03,-0.00269375
-2.726500e-03,-0.00754688,-0.0103156,,-2.726500e-03,-0.0027625
-2.726400e-03,-0.00768125,-0.0102969,,-2.726400e-03,-0.00261094
-2.726300e-03,-0.00762813,-0.0102438,,-2.726300e-03,-0.00260781
-2.726200e-03,-0.00764375,-0.0102156,,-2.726200e-03,-0.00257187
-2.726100e-03,-0.00755312,-0.0101937,,-2.726100e-03,-0.00264063
-2.726000e-03,-0.00758125,-0.0102469,,-2.726000e-03,-0.00266563
-2.725900e-03,-0.0075875,-0.0102656,,-2.725900e-03,-0.00268125
-2.725800e-03,-0.00763125,-0.0102188,,-2.725800e-03,-0.0025875
-2.725700e-03,-0.00764688,-0.0101719,,-2.725700e-03,-0.002525
-2.725600e-03,-0.00754063,-0.0102125,,-2.725600e-03,-0.00267656
-2.725500e-03,-0.00760625,-0.0102188,,-2.725500e-03,-0.00261406
-2.725400e-03,-0.00762813,-0.0102656,,-2.725400e-03,-0.00261406
-2.725300e-03,-0.00761875,-0.0100938,,-2.725300e-03,-0.00248906
-2.725200e-03,-0.00755938,-0.0102031,,-2.725200e-03,-0.0026375
-2.725100e-03,-0.00756875,-0.0101906,,-2.725100e-03,-0.00260625
-2.725000e-03,-0.0076,-0.0101875,,-2.725000e-03,-0.002575
-2.724900e-03,-0.00751563,-0.0102562,,-2.724900e-03,-0.00274375
-2.724800e-03,-0.00756875,-0.0102125,,-2.724800e-03,-0.00263906
-2.724700e-03,-0.00753125,-0.0101563,,-2.724700e-03,-0.00261563
-2.724600e-03,-0.00754063,-0.0101906,,-2.724600e-03,-0.00264375
-2.724500e-03,-0.00745,-0.0101594,,-2.724500e-03,-0.00270625
-2.724400e-03,-0.00755938,-0.01015,,-2.724400e-03,-0.00259688
-2.724300e-03,-0.00746563,-0.0102313,,-2.724300e-03,-0.00276094
-2.724200e-03,-0.00749375,-0.0101156,,-2.724200e-03,-0.00260625
-2.724100e-03,-0.00755625,-0.0101875,,-2.724100e-03,-0.00264375
-2.724000e-03,-0.00751875,-0.0100906,,-2.724000e-03,-0.00257031
-2.723900e-03,-0.0075875,-0.0101906,,-2.723900e-03,-0.00262656
-2.723800e-03,-0.00750938,-0.0100438,,-2.723800e-03,-0.00252188
-2.723700e-03,-0.00753125,-0.0100906,,-2.723700e-03,-0.00255
-2.723600e-03,-0.00747188,-0.0101406,,-2.723600e-03,-0.00266875
-2.723500e-03,-0.00753125,-0.0101531,,-2.723500e-03,-0.00263281
-2.723400e-03,-0.00753125,-0.0101344,,-2.723400e-03,-0.00259531
-2.723300e-03,-0.00755312,-0.01015,,-2.723300e-03,-0.0025875
-2.723200e-03,-0.00754063,-0.0100844,,-2.723200e-03,-0.00253125
-2.723100e-03,-0.00749375,-0.0100781,,-2.723100e-03,-0.00258281
-2.723000e-03,-0.0075625,-0.0100969,,-2.723000e-03,-0.00253906
-2.722900e-03,-0.00752188,-0.0100469,,-2.722900e-03,-0.00253438
-2.722800e-03,-0.007475,-0.010125,,-2.722800e-03,-0.00265625
-2.722700e-03,-0.00752188,-0.0101406,,-2.722700e-03,-0.00258594
-2.722600e-03,-0.00750313,-0.0101,,-2.722600e-03,-0.00259375
-2.722500e-03,-0.00743125,-0.0101031,,-2.722500e-03,-0.00267812
-2.722400e-03,-0.00744375,-0.0100344,,-2.722400e-03,-0.00259531
-2.722300e-03,-0.00752813,-0.0100656,,-2.722300e-03,-0.00253125
-2.722200e-03,-0.00751875,-0.0100625,,-2.722200e-03,-0.00254375
-2.722100e-03,-0.00749375,-0.0100219,,-2.722100e-03,-0.00251563
-2.722000e-03,-0.007475,-0.00999063,,-2.722000e-03,-0.00250469
-2.721900e-03,-0.00742188,-0.0100563,,-2.721900e-03,-0.00261719
-2.721800e-03,-0.00752813,-0.0100156,,-2.721800e-03,-0.00247969
-2.721700e-03,-0.00746875,-0.0100469,,-2.721700e-03,-0.00257813
-2.721600e-03,-0.00741563,-0.0100438,,-2.721600e-03,-0.00264531
-2.721500e-03,-0.007375,-0.0101406,,-2.721500e-03,-0.00275156
-2.721400e-03,-0.00744375,-0.0100812,,-2.721400e-03,-0.00264063
-2.721300e-03,-0.00739375,-0.00999688,,-2.721300e-03,-0.0025875
-2.721200e-03,-0.0074625,-0.0100594,,-2.721200e-03,-0.00259063
-2.721100e-03,-0.0074,-0.0100563,,-2.721100e-03,-0.00264063
-2.721000e-03,-0.0074,-0.0100125,,-2.721000e-03,-0.00259688
-2.720900e-03,-0.00742188,-0.0100438,,-2.720900e-03,-0.00260938
-2.720800e-03,-0.00744063,-0.0100344,,-2.720800e-03,-0.00258125
-2.720700e-03,-0.00747188,-0.0100531,,-2.720700e-03,-0.00257187
-2.720600e-03,-0.00745625,-0.0100156,,-2.720600e-03,-0.00253438
-2.720500e-03,-0.00735625,-0.0100719,,-2.720500e-03,-0.0027125
-2.720400e-03,-0.00735938,-0.009975,,-2.720400e-03,-0.0026
-2.720300e-03,-0.00745938,-0.0100219,,-2.720300e-03,-0.00255625
-2.720200e-03,-0.0073375,-0.01,,-2.720200e-03,-0.0026625
-2.720100e-03,-0.00748125,-0.0100938,,-2.720100e-03,-0.00261875
-2.720000e-03,-0.0073875,-0.0100469,,-2.720000e-03,-0.00265938
-2.719900e-03,-0.00742813,-0.0099125,,-2.719900e-03,-0.00249844
-2.719800e-03,-0.00733438,-0.0100187,,-2.719800e-03,-0.00267812
-2.719700e-03,-0.00734375,-0.00998438,,-2.719700e-03,-0.00264687
-2.719600e-03,-0.00735,-0.0100125,,-2.719600e-03,-0.00265938
-2.719500e-03,-0.00736563,-0.00999375,,-2.719500e-03,-0.0026375
-2.719400e-03,-0.00731875,-0.00997187,,-2.719400e-03,-0.0026625
-2.719300e-03,-0.00739375,-0.0100313,,-2.719300e-03,-0.00261719
-2.719200e-03,-0.00734688,-0.00987812,,-2.719200e-03,-0.00253906
-2.719100e-03,-0.00735,-0.0100688,,-2.719100e-03,-0.00271563
-2.719000e-03,-0.0073625,-0.00995938,,-2.719000e-03,-0.00259688
-2.718900e-03,-0.00736563,-0.00995625,,-2.718900e-03,-0.002575
-2.718800e-03,-0.00737187,-0.00997187,,-2.718800e-03,-0.00258125
-2.718700e-03,-0.0073875,-0.0100344,,-2.718700e-03,-0.00263906
-2.718600e-03,-0.00735625,-0.00999375,,-2.718600e-03,-0.00263125
-2.718500e-03,-0.00730313,-0.00992188,,-2.718500e-03,-0.002625
-2.718400e-03,-0.00739688,-0.00989063,,-2.718400e-03,-0.00249531
-2.718300e-03,-0.00736563,-0.009925,,-2.718300e-03,-0.00255
-2.718200e-03,-0.00735313,-0.00994375,,-2.718200e-03,-0.00259219
-2.718100e-03,-0.0073,-0.0098,,-2.718100e-03,-0.00249531
-2.718000e-03,-0.00732188,-0.00995,,-2.718000e-03,-0.0026375
-2.717900e-03,-0.00733438,-0.00986875,,-2.717900e-03,-0.00255625
-2.717800e-03,-0.00730625,-0.00997187,,-2.717800e-03,-0.00265313
-2.717700e-03,-0.00734062,-0.00993125,,-2.717700e-03,-0.00259219
-2.717600e-03,-0.00729375,-0.0098625,,-2.717600e-03,-0.00256875
-2.717500e-03,-0.00731563,-0.00995,,-2.717500e-03,-0.00262188
-2.717400e-03,-0.00729688,-0.00988125,,-2.717400e-03,-0.00257031
-2.717300e-03,-0.00729375,-0.00990625,,-2.717300e-03,-0.00261719
-2.717200e-03,-0.00732188,-0.00984063,,-2.717200e-03,-0.00249219
-2.717100e-03,-0.0073625,-0.00989063,,-2.717100e-03,-0.00251719
-2.717000e-03,-0.00725,-0.00988125,,-2.717000e-03,-0.00262344
-2.716900e-03,-0.00729688,-0.0099,,-2.716900e-03,-0.00260156
-2.716800e-03,-0.00734062,-0.009975,,-2.716800e-03,-0.00262188
-2.716700e-03,-0.00731875,-0.0099125,,-2.716700e-03,-0.00258125
-2.716600e-03,-0.00727813,-0.00999375,,-2.716600e-03,-0.00270937
-2.716500e-03,-0.00728125,-0.00986875,,-2.716500e-03,-0.00256563
-2.716400e-03,-0.0073,-0.00987188,,-2.716400e-03,-0.002575
-2.716300e-03,-0.00729688,-0.00984063,,-2.716300e-03,-0.00255469
-2.716200e-03,-0.00726875,-0.00988125,,-2.716200e-03,-0.00260938
-2.716100e-03,-0.007225,-0.00988125,,-2.716100e-03,-0.00263906
-2.716000e-03,-0.00724063,-0.00987188,,-2.716000e-03,-0.00262813
-2.715900e-03,-0.00722813,-0.00985,,-2.715900e-03,-0.00262344
-2.715800e-03,-0.00725,-0.0098875,,-2.715800e-03,-0.00262031
-2.715700e-03,-0.00721875,-0.00992188,,-2.715700e-03,-0.00270469
-2.715600e-03,-0.00719375,-0.009825,,-2.715600e-03,-0.00263281
-2.715500e-03,-0.00723438,-0.0098375,,-2.715500e-03,-0.00258438
-2.715400e-03,-0.00722187,-0.0098375,,-2.715400e-03,-0.00263594
-2.715300e-03,-0.00721563,-0.0098375,,-2.715300e-03,-0.00264063
-2.715200e-03,-0.00719375,-0.00985,,-2.715200e-03,-0.00267812
-2.715100e-03,-0.00723438,-0.00980938,,-2.715100e-03,-0.00256406
-2.715000e-03,-0.00722187,-0.00972813,,-2.715000e-03,-0.00249375
-2.714900e-03,-0.00719375,-0.00980625,,-2.714900e-03,-0.00261875
-2.714800e-03,-0.00715937,-0.00978437,,-2.714800e-03,-0.0026125
-2.714700e-03,-0.00714375,-0.00982188,,-2.714700e-03,-0.00265781
-2.714600e-03,-0.00711875,-0.00980625,,-2.714600e-03,-0.00267188
-2.714500e-03,-0.00713438,-0.00974688,,-2.714500e-03,-0.00261875
-2.714400e-03,-0.00719375,-0.00979375,,-2.714400e-03,-0.00256875
-2.714300e-03,-0.00708438,-0.0097375,,-2.714300e-03,-0.00263437
-2.714200e-03,-0.00704688,-0.00975938,,-2.714200e-03,-0.00272031
-2.714100e-03,-0.00721875,-0.0097,,-2.714100e-03,-0.0024875
-2.714000e-03,-0.00715313,-0.00975,,-2.714000e-03,-0.00256719
-2.713900e-03,-0.0072,-0.00977813,,-2.713900e-03,-0.00258125
-2.713800e-03,-0.0071875,-0.00974688,,-2.713800e-03,-0.00259063
-2.713700e-03,-0.007125,-0.00979063,,-2.713700e-03,-0.00265156
-2.713600e-03,-0.00714688,-0.00976875,,-2.713600e-03,-0.00262188
-2.713500e-03,-0.00708125,-0.00967187,,-2.713500e-03,-0.00261875
-2.713400e-03,-0.00712812,-0.00965938,,-2.713400e-03,-0.00251719
-2.713300e-03,-0.0070875,-0.00965313,,-2.713300e-03,-0.002575
-2.713200e-03,-0.00711563,-0.00973437,,-2.713200e-03,-0.00260312
-2.713100e-03,-0.0071,-0.0097875,,-2.713100e-03,-0.002675
-2.713000e-03,-0.00709688,-0.00971875,,-2.713000e-03,-0.00261563
-2.712900e-03,-0.007125,-0.00974063,,-2.712900e-03,-0.00260469
-2.712800e-03,-0.00711563,-0.00966563,,-2.712800e-03,-0.00254375
-2.712700e-03,-0.0070625,-0.00965625,,-2.712700e-03,-0.0026
-2.712600e-03,-0.00715625,-0.00965313,,-2.712600e-03,-0.0024875
-2.712500e-03,-0.00710313,-0.00970312,,-2.712500e-03,-0.00260625
-2.712400e-03,-0.00705938,-0.00975312,,-2.712400e-03,-0.00267344
-2.712300e-03,-0.00706563,-0.00969688,,-2.712300e-03,-0.00262188
-2.712200e-03,-0.00714375,-0.00972813,,-2.712200e-03,-0.00258906
-2.712100e-03,-0.00710938,-0.0097375,,-2.712100e-03,-0.00262656
-2.712000e-03,-0.00696563,-0.00971875,,-2.712000e-03,-0.0027625
-2.711900e-03,-0.00705625,-0.0096375,,-2.711900e-03,-0.00256406
-2.711800e-03,-0.00702813,-0.00962188,,-2.711800e-03,-0.00260469
-2.711700e-03,-0.00702188,-0.00962813,,-2.711700e-03,-0.00259063
-2.711600e-03,-0.0070625,-0.00974688,,-2.711600e-03,-0.00266719
-2.711500e-03,-0.0070625,-0.00961563,,-2.711500e-03,-0.0025375
-2.711400e-03,-0.00701875,-0.00969688,,-2.711400e-03,-0.00269688
-2.711300e-03,-0.00707188,-0.00965625,,-2.711300e-03,-0.00257813
-2.711200e-03,-0.00705938,-0.0096,,-2.711200e-03,-0.0025375
-2.711100e-03,-0.00701875,-0.00957188,,-2.711100e-03,-0.00255156
-2.711000e-03,-0.00699063,-0.00963125,,-2.711000e-03,-0.00263906
-2.710900e-03,-0.00702813,-0.00961563,,-2.710900e-03,-0.00259063
-2.710800e-03,-0.00694375,-0.0095625,,-2.710800e-03,-0.00260156
-2.710700e-03,-0.00700313,-0.00970625,,-2.710700e-03,-0.00268281
-2.710600e-03,-0.00695,-0.00957812,,-2.710600e-03,-0.002625
-2.710500e-03,-0.006975,-0.00962188,,-2.710500e-03,-0.00265313
-2.710400e-03,-0.0070125,-0.00958125,,-2.710400e-03,-0.0025625
-2.710300e-03,-0.0069625,-0.009625,,-2.710300e-03,-0.00264844
-2.710200e-03,-0.00703125,-0.00959375,,-2.710200e-03,-0.00254375
-2.710100e-03,-0.00693125,-0.00956875,,-2.710100e-03,-0.00263594
-2.710000e-03,-0.00695938,-0.00955,,-2.710000e-03,-0.00259219
-2.709900e-03,-0.00700625,-0.00960313,,-2.709900e-03,-0.00260156
-2.709800e-03,-0.00695938,-0.0095375,,-2.709800e-03,-0.00257344
-2.709700e-03,-0.00695313,-0.0095375,,-2.709700e-03,-0.00258438
