Laser_Spec_Data/tek0009MTH.csv

Model,MDO3014
Firmware Version,1.20

Waveform Type,ANALOG
Point Format,Y
Horizontal Units,s
Horizontal Scale,0.001
Horizontal Delay,-0.00064
Sample Interval,1e-07
Record Length,100000
Gating,68.900% to 73.100%
Probe Attenuation,1
Vertical Units,V
Vertical Offset,0
Vertical Scale,0.01
Vertical Position,0
,
,
,
Label,
TIME,"MATH<CH2-CH1>"
1.249900e-03,-0.00164531
1.250000e-03,-0.00154844
1.250100e-03,-0.00152031
1.250200e-03,-0.00169375
1.250300e-03,-0.00154063
1.250400e-03,-0.00158438
1.250500e-03,-0.00152344
1.250600e-03,-0.001625
1.250700e-03,-0.00157656
1.250800e-03,-0.001625
1.250900e-03,-0.00155469
1.251000e-03,-0.00156563
1.251100e-03,-0.00168125
1.251200e-03,-0.00167188
1.251300e-03,-0.00164375
1.251400e-03,-0.00160625
1.251500e-03,-0.00158906
1.251600e-03,-0.00161094
1.251700e-03,-0.0014625
1.251800e-03,-0.00151406
1.251900e-03,-0.00161094
1.252000e-03,-0.00162969
1.252100e-03,-0.00168438
1.252200e-03,-0.00157188
1.252300e-03,-0.00158594
1.252400e-03,-0.00164531
1.252500e-03,-0.00159687
1.252600e-03,-0.00154531
1.252700e-03,-0.00161875
1.252800e-03,-0.0017
1.252900e-03,-0.00165313
1.253000e-03,-0.00165313
1.253100e-03,-0.00164063
1.253200e-03,-0.00163125
1.253300e-03,-0.00156094
1.253400e-03,-0.00152031
1.253500e-03,-0.0016
1.253600e-03,-0.00159531
1.253700e-03,-0.00172969
1.253800e-03,-0.00152344
1.253900e-03,-0.00164375
1.254000e-03,-0.00166563
1.254100e-03,-0.00167344
1.254200e-03,-0.00154375
1.254300e-03,-0.00148281
1.254400e-03,-0.00162031
1.254500e-03,-0.00161563
1.254600e-03,-0.001575
1.254700e-03,-0.00159687
1.254800e-03,-0.00164531
1.254900e-03,-0.001625
1.255000e-03,-0.00164375
1.255100e-03,-0.00165781
1.255200e-03,-0.0016625
1.255300e-03,-0.00169688
1.255400e-03,-0.001575
1.255500e-03,-0.00160313
1.255600e-03,-0.00158281
1.255700e-03,-0.00166563
1.255800e-03,-0.00161406
1.255900e-03,-0.00159219
1.256000e-03,-0.001625
1.256100e-03,-0.00158594
1.256200e-03,-0.00162813
1.256300e-03,-0.001725
1.256400e-03,-0.00177188
1.256500e-03,-0.00160313
1.256600e-03,-0.00155469
1.256700e-03,-0.00165156
1.256800e-03,-0.00162969
1.256900e-03,-0.00156875
1.257000e-03,-0.00162656
1.257100e-03,-0.00162813
1.257200e-03,-0.00160625
1.257300e-03,-0.00160781
1.257400e-03,-0.00152969
1.257500e-03,-0.00157031
1.257600e-03,-0.00175156
1.257700e-03,-0.00169063
1.257800e-03,-0.00156406
1.257900e-03,-0.00162656
1.258000e-03,-0.00162188
1.258100e-03,-0.00157813
1.258200e-03,-0.00158906
1.258300e-03,-0.00159687
1.258400e-03,-0.001625
1.258500e-03,-0.0015625
1.258600e-03,-0.00163906
1.258700e-03,-0.0015625
1.258800e-03,-0.00161719
1.258900e-03,-0.00168125
1.259000e-03,-0.00169688
1.259100e-03,-0.00153125
1.259200e-03,-0.00159531
1.259300e-03,-0.00157969
1.259400e-03,-0.00157656
1.259500e-03,-0.00154531
1.259600e-03,-0.00155
1.259700e-03,-0.00155
1.259800e-03,-0.00164219
1.259900e-03,-0.00160781
1.260000e-03,-0.00158594
1.260100e-03,-0.00156563
1.260200e-03,-0.00162188
1.260300e-03,-0.00155937
1.260400e-03,-0.00158281
1.260500e-03,-0.00161094
1.260600e-03,-0.001475
1.260700e-03,-0.00157969
1.260800e-03,-0.00157969
1.260900e-03,-0.00162656
1.261000e-03,-0.0016625
1.261100e-03,-0.00165313
1.261200e-03,-0.00163125
1.261300e-03,-0.00157031
1.261400e-03,-0.00169375
1.261500e-03,-0.00155156
1.261600e-03,-0.00153438
1.261700e-03,-0.001575
1.261800e-03,-0.00158594
1.261900e-03,-0.00168281
1.262000e-03,-0.00158906
1.262100e-03,-0.00157188
1.262200e-03,-0.00163437
1.262300e-03,-0.00163906
1.262400e-03,-0.00162969
1.262500e-03,-0.00165625
1.262600e-03,-0.00164219
1.262700e-03,-0.00163281
1.262800e-03,-0.0015875
1.262900e-03,-0.00157188
1.263000e-03,-0.00164531
1.263100e-03,-0.00161094
1.263200e-03,-0.00165938
1.263300e-03,-0.00165469
1.263400e-03,-0.0015625
1.263500e-03,-0.00161406
1.263600e-03,-0.00162188
1.263700e-03,-0.00169531
1.263800e-03,-0.00175938
1.263900e-03,-0.00170156
1.264000e-03,-0.00157656
1.264100e-03,-0.00169688
1.264200e-03,-0.00167344
1.264300e-03,-0.00158438
1.264400e-03,-0.00162813
1.264500e-03,-0.00161875
1.264600e-03,-0.00157188
1.264700e-03,-0.00164531
1.264800e-03,-0.00165469
1.264900e-03,-0.00167344
1.265000e-03,-0.00162188
1.265100e-03,-0.00155937
1.265200e-03,-0.00158281
1.265300e-03,-0.00161719
1.265400e-03,-0.00160313
1.265500e-03,-0.00168125
1.265600e-03,-0.001575
1.265700e-03,-0.00160156
1.265800e-03,-0.00164844
1.265900e-03,-0.00161563
1.266000e-03,-0.00174219
1.266100e-03,-0.00161406
1.266200e-03,-0.00163125
1.266300e-03,-0.001575
1.266400e-03,-0.00164219
1.266500e-03,-0.00157969
1.266600e-03,-0.00156719
1.266700e-03,-0.00160156
1.266800e-03,-0.00172188
1.266900e-03,-0.00156875
1.267000e-03,-0.00148906
1.267100e-03,-0.00156875
1.267200e-03,-0.00165938
1.267300e-03,-0.00169531
1.267400e-03,-0.0015125
1.267500e-03,-0.00160938
1.267600e-03,-0.00160625
1.267700e-03,-0.00155625
1.267800e-03,-0.00158594
1.267900e-03,-0.00161719
1.268000e-03,-0.00174062
1.268100e-03,-0.00163281
1.268200e-03,-0.00154531
1.268300e-03,-0.0014875
1.268400e-03,-0.00169844
1.268500e-03,-0.00156563
1.268600e-03,-0.00160938
1.268700e-03,-0.00164531
1.268800e-03,-0.00174688
1.268900e-03,-0.00169375
1.269000e-03,-0.00157969
1.269100e-03,-0.00155
1.269200e-03,-0.00163906
1.269300e-03,-0.00157188
1.269400e-03,-0.00157969
1.269500e-03,-0.00159375
1.269600e-03,-0.001625
1.269700e-03,-0.00159531
1.269800e-03,-0.00173594
1.269900e-03,-0.00152188
1.270000e-03,-0.00166563
1.270100e-03,-0.00168125
1.270200e-03,-0.00161875
1.270300e-03,-0.00166875
1.270400e-03,-0.00167656
1.270500e-03,-0.00159531
1.270600e-03,-0.00158906
1.270700e-03,-0.00163125
1.270800e-03,-0.00161563
1.270900e-03,-0.00162656
1.271000e-03,-0.00164688
1.271100e-03,-0.00169375
1.271200e-03,-0.00156094
1.271300e-03,-0.00157656
1.271400e-03,-0.00155313
1.271500e-03,-0.00173125
1.271600e-03,-0.00169219
1.271700e-03,-0.00159687
1.271800e-03,-0.00168438
1.271900e-03,-0.00161875
1.272000e-03,-0.00163906
1.272100e-03,-0.00173125
1.272200e-03,-0.00165781
1.272300e-03,-0.00160625
1.272400e-03,-0.00168125
1.272500e-03,-0.00161719
1.272600e-03,-0.00171406
1.272700e-03,-0.00167969
1.272800e-03,-0.00161406
1.272900e-03,-0.00160781
1.273000e-03,-0.00169063
1.273100e-03,-0.00162656
1.273200e-03,-0.00154219
1.273300e-03,-0.00155313
1.273400e-03,-0.00168438
1.273500e-03,-0.00158594
1.273600e-03,-0.00155469
1.273700e-03,-0.00162188
1.273800e-03,-0.00161875
1.273900e-03,-0.00170156
1.274000e-03,-0.001575
1.274100e-03,-0.00165625
1.274200e-03,-0.00161563
1.274300e-03,-0.00158125
1.274400e-03,-0.00158594
1.274500e-03,-0.00160938
1.274600e-03,-0.00169219
1.274700e-03,-0.00171094
1.274800e-03,-0.00167656
1.274900e-03,-0.0017
1.275000e-03,-0.0016625
1.275100e-03,-0.00159687
1.275200e-03,-0.00169063
1.275300e-03,-0.00156875
1.275400e-03,-0.00176719
1.275500e-03,-0.0016625
1.275600e-03,-0.00175938
1.275700e-03,-0.00175938
1.275800e-03,-0.00164844
1.275900e-03,-0.00170156
1.276000e-03,-0.00174531
1.276100e-03,-0.00161719
1.276200e-03,-0.0017625
1.276300e-03,-0.00165938
1.276400e-03,-0.00164688
1.276500e-03,-0.00160781
1.276600e-03,-0.001575
1.276700e-03,-0.00167969
1.276800e-03,-0.00172031
1.276900e-03,-0.00166094
1.277000e-03,-0.00164375
1.277100e-03,-0.00160313
1.277200e-03,-0.00157656
1.277300e-03,-0.0016125
1.277400e-03,-0.00169531
1.277500e-03,-0.00165156
1.277600e-03,-0.00170938
1.277700e-03,-0.00164844
1.277800e-03,-0.00169688
1.277900e-03,-0.00160938
1.278000e-03,-0.00153438
1.278100e-03,-0.00170469
1.278200e-03,-0.00162188
1.278300e-03,-0.0016375
1.278400e-03,-0.00181563
1.278500e-03,-0.00162656
1.278600e-03,-0.00166094
1.278700e-03,-0.00167188
1.278800e-03,-0.00161406
1.278900e-03,-0.0016125
1.279000e-03,-0.00164688
1.279100e-03,-0.001575
1.279200e-03,-0.00160313
1.279300e-03,-0.00158281
1.279400e-03,-0.00155469
1.279500e-03,-0.00159687
1.279600e-03,-0.00164844
1.279700e-03,-0.00174062
1.279800e-03,-0.0016375
1.279900e-03,-0.00157188
1.280000e-03,-0.00164219
1.280100e-03,-0.001725
1.280200e-03,-0.00174688
1.280300e-03,-0.001725
1.280400e-03,-0.00161406
1.280500e-03,-0.00163906
1.280600e-03,-0.00172813
1.280700e-03,-0.00164063
1.280800e-03,-0.00171875
1.280900e-03,-0.00173125
1.281000e-03,-0.00167969
1.281100e-03,-0.00166875
1.281200e-03,-0.00162188
1.281300e-03,-0.00163437
1.281400e-03,-0.00173125
1.281500e-03,-0.00169844
1.281600e-03,-0.00162188
1.281700e-03,-0.00167656
1.281800e-03,-0.0015625
1.281900e-03,-0.00172813
1.282000e-03,-0.0016875
1.282100e-03,-0.00165625
1.282200e-03,-0.00160313
1.282300e-03,-0.00165156
1.282400e-03,-0.00157656
1.282500e-03,-0.00170938
1.282600e-03,-0.00166563
1.282700e-03,-0.00167969
1.282800e-03,-0.00165156
1.282900e-03,-0.00157969
1.283000e-03,-0.00170781
1.283100e-03,-0.001625
1.283200e-03,-0.00165313
1.283300e-03,-0.001675
1.283400e-03,-0.00170156
1.283500e-03,-0.00161875
1.283600e-03,-0.00166875
1.283700e-03,-0.00161094
1.283800e-03,-0.00171719
1.283900e-03,-0.00164219
1.284000e-03,-0.00168438
1.284100e-03,-0.00167656
1.284200e-03,-0.00154531
1.284300e-03,-0.00171563
1.284400e-03,-0.001675
1.284500e-03,-0.00154531
1.284600e-03,-0.00159219
1.284700e-03,-0.00174219
1.284800e-03,-0.00168906
1.284900e-03,-0.00168594
1.285000e-03,-0.00167188
1.285100e-03,-0.00174219
1.285200e-03,-0.00167188
1.285300e-03,-0.00164844
1.285400e-03,-0.00167656
1.285500e-03,-0.00160781
1.285600e-03,-0.00172969
1.285700e-03,-0.00162188
1.285800e-03,-0.00158906
1.285900e-03,-0.00159687
1.286000e-03,-0.00153438
1.286100e-03,-0.00165156
1.286200e-03,-0.00169063
1.286300e-03,-0.00169063
1.286400e-03,-0.00160313
1.286500e-03,-0.00159063
1.286600e-03,-0.00169219
1.286700e-03,-0.00168125
1.286800e-03,-0.001725
1.286900e-03,-0.0016375
1.287000e-03,-0.00163906
1.287100e-03,-0.00167656
1.287200e-03,-0.00168281
1.287300e-03,-0.00170781
1.287400e-03,-0.00172031
1.287500e-03,-0.00168594
1.287600e-03,-0.00162188
1.287700e-03,-0.00172813
1.287800e-03,-0.00169063
1.287900e-03,-0.00167188
1.288000e-03,-0.00160781
1.288100e-03,-0.00162813
1.288200e-03,-0.00159063
1.288300e-03,-0.001725
1.288400e-03,-0.00165469
1.288500e-03,-0.00162813
1.288600e-03,-0.00171094
1.288700e-03,-0.00162969
1.288800e-03,-0.00169219
1.288900e-03,-0.00169063
1.289000e-03,-0.00164531
1.289100e-03,-0.00160313
1.289200e-03,-0.00168438
1.289300e-03,-0.00167344
1.289400e-03,-0.00169063
1.289500e-03,-0.00173281
1.289600e-03,-0.00163906
1.289700e-03,-0.00169063
1.289800e-03,-0.001575
1.289900e-03,-0.00166875
1.290000e-03,-0.00163125
1.290100e-03,-0.00156875
1.290200e-03,-0.00171563
1.290300e-03,-0.00164531
1.290400e-03,-0.00165313
1.290500e-03,-0.00164844
1.290600e-03,-0.00166563
1.290700e-03,-0.00167344
1.290800e-03,-0.0017375
1.290900e-03,-0.00172188
1.291000e-03,-0.00167813
1.291100e-03,-0.00170469
1.291200e-03,-0.00156563
1.291300e-03,-0.00162813
1.291400e-03,-0.00167969
1.291500e-03,-0.00170938
1.291600e-03,-0.00174688
1.291700e-03,-0.00173594
1.291800e-03,-0.00165938
1.291900e-03,-0.00162813
1.292000e-03,-0.00161406
1.292100e-03,-0.0016375
1.292200e-03,-0.00170938
1.292300e-03,-0.00168281
1.292400e-03,-0.00165
1.292500e-03,-0.00158281
1.292600e-03,-0.00165
1.292700e-03,-0.00164844
1.292800e-03,-0.00163437
1.292900e-03,-0.00169688
1.293000e-03,-0.00167656
1.293100e-03,-0.00169063
1.293200e-03,-0.00167656
1.293300e-03,-0.00163125
1.293400e-03,-0.00169375
1.293500e-03,-0.00157188
1.293600e-03,-0.00152344
1.293700e-03,-0.00164375
1.293800e-03,-0.001725
1.293900e-03,-0.00161094
1.294000e-03,-0.0016125
1.294100e-03,-0.00156406
1.294200e-03,-0.00159844
1.294300e-03,-0.00157188
1.294400e-03,-0.00165938
1.294500e-03,-0.00172031
1.294600e-03,-0.00169063
1.294700e-03,-0.0017375
1.294800e-03,-0.00159531
1.294900e-03,-0.00164219
1.295000e-03,-0.00174844
1.295100e-03,-0.00180313
1.295200e-03,-0.00163437
1.295300e-03,-0.00163906
1.295400e-03,-0.0016375
1.295500e-03,-0.00160625
1.295600e-03,-0.00156406
1.295700e-03,-0.00153281
1.295800e-03,-0.00169688
1.295900e-03,-0.00167188
1.296000e-03,-0.00165938
1.296100e-03,-0.00148125
1.296200e-03,-0.0016375
1.296300e-03,-0.00164375
1.296400e-03,-0.0016625
1.296500e-03,-0.00168438
1.296600e-03,-0.00165938
1.296700e-03,-0.00175
1.296800e-03,-0.00173906
1.296900e-03,-0.00160625
1.297000e-03,-0.00171563
1.297100e-03,-0.00167969
1.297200e-03,-0.00174219
1.297300e-03,-0.00162031
1.297400e-03,-0.00167656
1.297500e-03,-0.00161406
1.297600e-03,-0.00173594
1.297700e-03,-0.001725
1.297800e-03,-0.00164531
1.297900e-03,-0.00156563
1.298000e-03,-0.00167188
1.298100e-03,-0.00175938
1.298200e-03,-0.00174375
1.298300e-03,-0.00163906
1.298400e-03,-0.00164531
1.298500e-03,-0.00160781
1.298600e-03,-0.0016625
1.298700e-03,-0.00157813
1.298800e-03,-0.00162344
1.298900e-03,-0.00167813
1.299000e-03,-0.00171406
1.299100e-03,-0.00168594
1.299200e-03,-0.00170469
1.299300e-03,-0.00173906
1.299400e-03,-0.001575
1.299500e-03,-0.00175938
1.299600e-03,-0.00167344
1.299700e-03,-0.00174531
1.299800e-03,-0.00179844
1.299900e-03,-0.00170156
1.300000e-03,-0.00157656
1.300100e-03,-0.00162188
1.300200e-03,-0.00165313
1.300300e-03,-0.00170156
1.300400e-03,-0.00165313
1.300500e-03,-0.00161875
1.300600e-03,-0.00166094
1.300700e-03,-0.00157188
1.300800e-03,-0.00167969
1.300900e-03,-0.00167656
1.301000e-03,-0.00166563
1.301100e-03,-0.00159687
1.301200e-03,-0.00158906
1.301300e-03,-0.00164063
1.301400e-03,-0.00160313
1.301500e-03,-0.00171094
1.301600e-03,-0.00174375
1.301700e-03,-0.0016875
1.301800e-03,-0.00168438
1.301900e-03,-0.0017125
1.302000e-03,-0.00165156
1.302100e-03,-0.00164531
1.302200e-03,-0.00169063
1.302300e-03,-0.00174219
1.302400e-03,-0.00164219
1.302500e-03,-0.00174688
1.302600e-03,-0.00159687
1.302700e-03,-0.00164219
1.302800e-03,-0.00169688
1.302900e-03,-0.00177969
1.303000e-03,-0.00173281
1.303100e-03,-0.00164844
1.303200e-03,-0.00167656
1.303300e-03,-0.00164063
1.303400e-03,-0.00174688
1.303500e-03,-0.00169844
1.303600e-03,-0.00157969
1.303700e-03,-0.0016
1.303800e-03,-0.00164375
1.303900e-03,-0.00172969
1.304000e-03,-0.0018125
1.304100e-03,-0.00159375
1.304200e-03,-0.00161719
1.304300e-03,-0.00161094
1.304400e-03,-0.00166563
1.304500e-03,-0.00162813
1.304600e-03,-0.00161875
1.304700e-03,-0.00170156
1.304800e-03,-0.00155625
1.304900e-03,-0.00168125
1.305000e-03,-0.00155469
1.305100e-03,-0.00167344
1.305200e-03,-0.001575
1.305300e-03,-0.0016
1.305400e-03,-0.00165
1.305500e-03,-0.00170156
1.305600e-03,-0.00170469
1.305700e-03,-0.00162656
1.305800e-03,-0.00157969
1.305900e-03,-0.00163594
1.306000e-03,-0.00179375
1.306100e-03,-0.0016875
1.306200e-03,-0.00172188
1.306300e-03,-0.00157969
1.306400e-03,-0.00164688
1.306500e-03,-0.00165156
1.306600e-03,-0.00173281
1.306700e-03,-0.00169063
1.306800e-03,-0.0016375
1.306900e-03,-0.0016375
1.307000e-03,-0.00169688
1.307100e-03,-0.00171719
1.307200e-03,-0.00168906
1.307300e-03,-0.00178438
1.307400e-03,-0.00175313
1.307500e-03,-0.00165156
1.307600e-03,-0.00169375
1.307700e-03,-0.00165469
1.307800e-03,-0.00162031
1.307900e-03,-0.0016875
1.308000e-03,-0.00162969
1.308100e-03,-0.00174688
1.308200e-03,-0.0017625
1.308300e-03,-0.00172188
1.308400e-03,-0.00161406
1.308500e-03,-0.00179219
1.308600e-03,-0.00168438
1.308700e-03,-0.00167813
1.308800e-03,-0.00163437
1.308900e-03,-0.0015625
1.309000e-03,-0.00161406
1.309100e-03,-0.001725
1.309200e-03,-0.00170781
1.309300e-03,-0.00169688
1.309400e-03,-0.0017625
1.309500e-03,-0.00163125
1.309600e-03,-0.00161406
1.309700e-03,-0.00172188
1.309800e-03,-0.00168438
1.309900e-03,-0.00178281
1.310000e-03,-0.00175
1.310100e-03,-0.001775
1.310200e-03,-0.0017125
1.310300e-03,-0.0016875
1.310400e-03,-0.00165469
1.310500e-03,-0.00167656
1.310600e-03,-0.00169375
1.310700e-03,-0.00165781
1.310800e-03,-0.00174688
1.310900e-03,-0.00168438
1.311000e-03,-0.0016875
1.311100e-03,-0.00169531
1.311200e-03,-0.001625
1.311300e-03,-0.0016625
1.311400e-03,-0.00179375
1.311500e-03,-0.00171875
1.311600e-03,-0.00180313
1.311700e-03,-0.00165
1.311800e-03,-0.0016875
1.311900e-03,-0.00173125
1.312000e-03,-0.00166094
1.312100e-03,-0.00167188
1.312200e-03,-0.00170781
1.312300e-03,-0.00173125
1.312400e-03,-0.00170312
1.312500e-03,-0.00166875
1.312600e-03,-0.00169375
1.312700e-03,-0.00181875
1.312800e-03,-0.00166094
1.312900e-03,-0.00156719
1.313000e-03,-0.00163125
1.313100e-03,-0.00168125
1.313200e-03,-0.00172969
1.313300e-03,-0.00159219
1.313400e-03,-0.00160625
1.313500e-03,-0.00171719
1.313600e-03,-0.00171094
1.313700e-03,-0.00164688
1.313800e-03,-0.00171094
1.313900e-03,-0.00171406
1.314000e-03,-0.00162188
1.314100e-03,-0.00163906
1.314200e-03,-0.00170312
1.314300e-03,-0.00173281
1.314400e-03,-0.00169063
1.314500e-03,-0.00170469
1.314600e-03,-0.0017
1.314700e-03,-0.00163906
1.314800e-03,-0.00163437
1.314900e-03,-0.0016375
1.315000e-03,-0.00164688
1.315100e-03,-0.00180938
1.315200e-03,-0.0017125
1.315300e-03,-0.00179219
1.315400e-03,-0.00176406
1.315500e-03,-0.00166875
1.315600e-03,-0.00167813
1.315700e-03,-0.001675
1.315800e-03,-0.00161094
1.315900e-03,-0.00171094
1.316000e-03,-0.00167344
1.316100e-03,-0.00159531
1.316200e-03,-0.00165469
1.316300e-03,-0.00175625
1.316400e-03,-0.00165313
1.316500e-03,-0.0017125
1.316600e-03,-0.00157188
1.316700e-03,-0.00161875
1.316800e-03,-0.00154688
1.316900e-03,-0.00167656
1.317000e-03,-0.00163125
1.317100e-03,-0.00167656
1.317200e-03,-0.00165313
1.317300e-03,-0.00169375
1.317400e-03,-0.00169688
1.317500e-03,-0.00160625
1.317600e-03,-0.00164531
1.317700e-03,-0.0016625
1.317800e-03,-0.00164219
1.317900e-03,-0.00170156
1.318000e-03,-0.00174531
1.318100e-03,-0.00168594
1.318200e-03,-0.001625
1.318300e-03,-0.00168906
1.318400e-03,-0.00164375
1.318500e-03,-0.001675
1.318600e-03,-0.00164688
1.318700e-03,-0.00169375
1.318800e-03,-0.00173438
1.318900e-03,-0.00172031
1.319000e-03,-0.001625
1.319100e-03,-0.0016625
1.319200e-03,-0.00167031
1.319300e-03,-0.0015875
1.319400e-03,-0.00170156
1.319500e-03,-0.00157969
1.319600e-03,-0.00161406
1.319700e-03,-0.00175156
1.319800e-03,-0.00163906
1.319900e-03,-0.00169063
1.320000e-03,-0.00156563
1.320100e-03,-0.00167969
1.320200e-03,-0.00166875
1.320300e-03,-0.0017
1.320400e-03,-0.00164688
1.320500e-03,-0.00165156
1.320600e-03,-0.00166563
1.320700e-03,-0.00163906
1.320800e-03,-0.0016625
1.320900e-03,-0.00171875
1.321000e-03,-0.00168125
1.321100e-03,-0.00165938
1.321200e-03,-0.00173594
1.321300e-03,-0.00169531
1.321400e-03,-0.00160781
1.321500e-03,-0.00157969
1.321600e-03,-0.00184219
1.321700e-03,-0.0017
1.321800e-03,-0.00160156
1.321900e-03,-0.00179688
1.322000e-03,-0.00175156
1.322100e-03,-0.00170469
1.322200e-03,-0.00163906
1.322300e-03,-0.00163125
1.322400e-03,-0.00169375
1.322500e-03,-0.001825
1.322600e-03,-0.00183438
1.322700e-03,-0.00171719
1.322800e-03,-0.0017125
1.322900e-03,-0.00178438
1.323000e-03,-0.00159531
1.323100e-03,-0.00166875
1.323200e-03,-0.00160313
1.323300e-03,-0.00170469
1.323400e-03,-0.00167656
1.323500e-03,-0.00164844
1.323600e-03,-0.00164531
1.323700e-03,-0.00173281
1.323800e-03,-0.00169219
1.323900e-03,-0.00171875
1.324000e-03,-0.00170938
1.324100e-03,-0.00164375
1.324200e-03,-0.00166875
1.324300e-03,-0.0017
1.324400e-03,-0.00167031
1.324500e-03,-0.0017
1.324600e-03,-0.00172813
1.324700e-03,-0.00165313
1.324800e-03,-0.00166406
1.324900e-03,-0.00165156
1.325000e-03,-0.00165625
1.325100e-03,-0.00167188
1.325200e-03,-0.00175625
1.325300e-03,-0.00166875
1.325400e-03,-0.00164375
1.325500e-03,-0.00177969
1.325600e-03,-0.00166875
1.325700e-03,-0.00164844
1.325800e-03,-0.0017125
1.325900e-03,-0.00171406
1.326000e-03,-0.00173125
1.326100e-03,-0.00166563
1.326200e-03,-0.00168125
1.326300e-03,-0.00154531
1.326400e-03,-0.00164531
1.326500e-03,-0.00172188
1.326600e-03,-0.00160156
1.326700e-03,-0.00164531
1.326800e-03,-0.00168438
1.326900e-03,-0.00164219
1.327000e-03,-0.00166719
1.327100e-03,-0.00161406
1.327200e-03,-0.00165156
1.327300e-03,-0.00147656
1.327400e-03,-0.00159375
1.327500e-03,-0.00164531
1.327600e-03,-0.00164688
1.327700e-03,-0.00172969
1.327800e-03,-0.00169531
1.327900e-03,-0.00171094
1.328000e-03,-0.00167969
1.328100e-03,-0.00175625
1.328200e-03,-0.00169688
1.328300e-03,-0.00167813
1.328400e-03,-0.00162813
1.328500e-03,-0.00151406
1.328600e-03,-0.00157188
1.328700e-03,-0.00171719
1.328800e-03,-0.00170781
1.328900e-03,-0.0015875
1.329000e-03,-0.0016875
1.329100e-03,-0.0016
1.329200e-03,-0.00160781
