Laser_Spec_Data/tek0003MTH.csv

Model,MDO3014
Firmware Version,1.20

Waveform Type,ANALOG
Point Format,Y
Horizontal Units,s
Horizontal Scale,0.001
Horizontal Delay,-0.00064
Sample Interval,1e-07
Record Length,100000
Gating,0.0% to 100.0%
Probe Attenuation,1
Vertical Units,V
Vertical Offset,0
Vertical Scale,0.01
Vertical Position,0
,
,
,
Label,
TIME,"MATH<CH2-CH1>"
-5.640000e-03,-0.00323125
-5.639900e-03,-0.00321563
-5.639800e-03,-0.00308438
-5.639700e-03,-0.0032375
-5.639600e-03,-0.00317188
-5.639500e-03,-0.00319688
-5.639400e-03,-0.00323438
-5.639300e-03,-0.00320937
-5.639200e-03,-0.00314375
-5.639100e-03,-0.00315625
-5.639000e-03,-0.0032875
-5.638900e-03,-0.00321875
-5.638800e-03,-0.0032375
-5.638700e-03,-0.00316875
-5.638600e-03,-0.00318438
-5.638500e-03,-0.0031375
-5.638400e-03,-0.0031875
-5.638300e-03,-0.0032375
-5.638200e-03,-0.00322188
-5.638100e-03,-0.00328125
-5.638000e-03,-0.00319375
-5.637900e-03,-0.00325312
-5.637800e-03,-0.00323438
-5.637700e-03,-0.003175
-5.637600e-03,-0.00320625
-5.637500e-03,-0.00322188
-5.637400e-03,-0.0031
-5.637300e-03,-0.0032375
-5.637200e-03,-0.00320313
-5.637100e-03,-0.00315
-5.637000e-03,-0.003225
-5.636900e-03,-0.00319375
-5.636800e-03,-0.0031875
-5.636700e-03,-0.00318438
-5.636600e-03,-0.00328125
-5.636500e-03,-0.00325
-5.636400e-03,-0.0031875
-5.636300e-03,-0.00332188
-5.636200e-03,-0.00313125
-5.636100e-03,-0.003125
-5.636000e-03,-0.0033875
-5.635900e-03,-0.00321875
-5.635800e-03,-0.00316094
-5.635700e-03,-0.00318906
-5.635600e-03,-0.00318438
-5.635500e-03,-0.00316094
-5.635400e-03,-0.0031375
-5.635300e-03,-0.00319688
-5.635200e-03,-0.00324688
-5.635100e-03,-0.00326563
-5.635000e-03,-0.0032125
-5.634900e-03,-0.0032625
-5.634800e-03,-0.00328125
-5.634700e-03,-0.00319688
-5.634600e-03,-0.00324375
-5.634500e-03,-0.00321563
-5.634400e-03,-0.00319688
-5.634300e-03,-0.003225
-5.634200e-03,-0.00329375
-5.634100e-03,-0.00314063
-5.634000e-03,-0.0032125
-5.633900e-03,-0.003125
-5.633800e-03,-0.00328125
-5.633700e-03,-0.00316094
-5.633600e-03,-0.00320313
-5.633500e-03,-0.00316563
-5.633400e-03,-0.00320625
-5.633300e-03,-0.00324063
-5.633200e-03,-0.00320313
-5.633100e-03,-0.00316094
-5.633000e-03,-0.00313281
-5.632900e-03,-0.00320937
-5.632800e-03,-0.00319844
-5.632700e-03,-0.00318438
-5.632600e-03,-0.00315625
-5.632500e-03,-0.00317188
-5.632400e-03,-0.0032
-5.632300e-03,-0.00314375
-5.632200e-03,-0.00315313
-5.632100e-03,-0.00323438
-5.632000e-03,-0.00328437
-5.631900e-03,-0.00317812
-5.631800e-03,-0.0033
-5.631700e-03,-0.00325625
-5.631600e-03,-0.00323438
-5.631500e-03,-0.00315938
-5.631400e-03,-0.003125
-5.631300e-03,-0.00315
-5.631200e-03,-0.00328437
-5.631100e-03,-0.00317812
-5.631000e-03,-0.00306875
-5.630900e-03,-0.00311875
-5.630800e-03,-0.00313125
-5.630700e-03,-0.00320625
-5.630600e-03,-0.003125
-5.630500e-03,-0.00313594
-5.630400e-03,-0.0032125
-5.630300e-03,-0.00315625
-5.630200e-03,-0.00309688
-5.630100e-03,-0.00317188
-5.630000e-03,-0.00317188
-5.629900e-03,-0.00316875
-5.629800e-03,-0.00308594
-5.629700e-03,-0.00313281
-5.629600e-03,-0.003125
-5.629500e-03,-0.00309688
-5.629400e-03,-0.00318438
-5.629300e-03,-0.00322188
-5.629200e-03,-0.00311094
-5.629100e-03,-0.00304688
-5.629000e-03,-0.00310938
-5.628900e-03,-0.00315313
-5.628800e-03,-0.00314063
-5.628700e-03,-0.00315313
-5.628600e-03,-0.00315
-5.628500e-03,-0.00324063
-5.628400e-03,-0.00322813
-5.628300e-03,-0.00315625
-5.628200e-03,-0.00323438
-5.628100e-03,-0.00321563
-5.628000e-03,-0.003125
-5.627900e-03,-0.00315938
-5.627800e-03,-0.00320625
-5.627700e-03,-0.00318438
-5.627600e-03,-0.00319688
-5.627500e-03,-0.00323438
-5.627400e-03,-0.00319688
-5.627300e-03,-0.00327188
-5.627200e-03,-0.0030875
-5.627100e-03,-0.00305938
-5.627000e-03,-0.00315
-5.626900e-03,-0.00319063
-5.626800e-03,-0.00318125
-5.626700e-03,-0.0031
-5.626600e-03,-0.00324063
-5.626500e-03,-0.00321875
-5.626400e-03,-0.00314375
-5.626300e-03,-0.00319063
-5.626200e-03,-0.0032
-5.626100e-03,-0.0032375
-5.626000e-03,-0.00312813
-5.625900e-03,-0.00315313
-5.625800e-03,-0.00319844
-5.625700e-03,-0.00316875
-5.625600e-03,-0.00325
-5.625500e-03,-0.00329063
-5.625400e-03,-0.00324375
-5.625300e-03,-0.0031875
-5.625200e-03,-0.00315313
-5.625100e-03,-0.00311875
-5.625000e-03,-0.00320625
-5.624900e-03,-0.00319688
-5.624800e-03,-0.00315938
-5.624700e-03,-0.00316875
-5.624600e-03,-0.00319688
-5.624500e-03,-0.00315938
-5.624400e-03,-0.003125
-5.624300e-03,-0.00311875
-5.624200e-03,-0.00323438
-5.624100e-03,-0.00323438
-5.624000e-03,-0.0031875
-5.623900e-03,-0.0033125
-5.623800e-03,-0.00317812
-5.623700e-03,-0.00315
-5.623600e-03,-0.00304375
-5.623500e-03,-0.00328437
-5.623400e-03,-0.00309063
-5.623300e-03,-0.00310312
-5.623200e-03,-0.00324375
-5.623100e-03,-0.00314688
-5.623000e-03,-0.00315313
-5.622900e-03,-0.00320313
-5.622800e-03,-0.00320313
-5.622700e-03,-0.00319688
-5.622600e-03,-0.003125
-5.622500e-03,-0.00316875
-5.622400e-03,-0.00326563
-5.622300e-03,-0.00320625
-5.622200e-03,-0.00326875
-5.622100e-03,-0.00308125
-5.622000e-03,-0.003175
-5.621900e-03,-0.00317188
-5.621800e-03,-0.00315938
-5.621700e-03,-0.00323438
-5.621600e-03,-0.00314219
-5.621500e-03,-0.0031875
-5.621400e-03,-0.00314688
-5.621300e-03,-0.0031375
-5.621200e-03,-0.00315313
-5.621100e-03,-0.0031
-5.621000e-03,-0.00318438
-5.620900e-03,-0.00318906
-5.620800e-03,-0.00308438
-5.620700e-03,-0.00316094
-5.620600e-03,-0.00316563
-5.620500e-03,-0.00316875
-5.620400e-03,-0.00316875
-5.620300e-03,-0.00320313
-5.620200e-03,-0.00319375
-5.620100e-03,-0.00311406
-5.620000e-03,-0.00310625
-5.619900e-03,-0.00307187
-5.619800e-03,-0.003175
-5.619700e-03,-0.00308594
-5.619600e-03,-0.00310625
-5.619500e-03,-0.00314063
-5.619400e-03,-0.00321875
-5.619300e-03,-0.00320781
-5.619200e-03,-0.0032125
-5.619100e-03,-0.003175
-5.619000e-03,-0.00315
-5.618900e-03,-0.00305625
-5.618800e-03,-0.00315
-5.618700e-03,-0.0031375
-5.618600e-03,-0.00319375
-5.618500e-03,-0.00311875
-5.618400e-03,-0.0031375
-5.618300e-03,-0.00311406
-5.618200e-03,-0.003125
-5.618100e-03,-0.00314063
-5.618000e-03,-0.00318438
-5.617900e-03,-0.00324063
-5.617800e-03,-0.00318906
-5.617700e-03,-0.00322188
-5.617600e-03,-0.00318125
-5.617500e-03,-0.003175
-5.617400e-03,-0.00317188
-5.617300e-03,-0.00313125
-5.617200e-03,-0.003275
-5.617100e-03,-0.00315313
-5.617000e-03,-0.00306563
-5.616900e-03,-0.003225
-5.616800e-03,-0.00316875
-5.616700e-03,-0.00318125
-5.616600e-03,-0.00305469
-5.616500e-03,-0.00306563
-5.616400e-03,-0.00309063
-5.616300e-03,-0.00323125
-5.616200e-03,-0.00315313
-5.616100e-03,-0.00316875
-5.616000e-03,-0.0032375
-5.615900e-03,-0.0031875
-5.615800e-03,-0.00314063
-5.615700e-03,-0.00306406
-5.615600e-03,-0.00315313
-5.615500e-03,-0.00325312
-5.615400e-03,-0.00314688
-5.615300e-03,-0.003225
-5.615200e-03,-0.00322188
-5.615100e-03,-0.00311094
-5.615000e-03,-0.00319375
-5.614900e-03,-0.00317812
-5.614800e-03,-0.00318906
-5.614700e-03,-0.0032125
-5.614600e-03,-0.00319844
-5.614500e-03,-0.00318438
-5.614400e-03,-0.00317188
-5.614300e-03,-0.003175
-5.614200e-03,-0.00312813
-5.614100e-03,-0.00320313
-5.614000e-03,-0.00326563
-5.613900e-03,-0.00317188
-5.613800e-03,-0.0031375
-5.613700e-03,-0.00311875
-5.613600e-03,-0.00320625
-5.613500e-03,-0.0032375
-5.613400e-03,-0.00314688
-5.613300e-03,-0.00324063
-5.613200e-03,-0.003225
-5.613100e-03,-0.00316875
-5.613000e-03,-0.00325625
-5.612900e-03,-0.00308906
-5.612800e-03,-0.0031375
-5.612700e-03,-0.00314688
-5.612600e-03,-0.00310938
-5.612500e-03,-0.00311563
-5.612400e-03,-0.00327656
-5.612300e-03,-0.00313125
-5.612200e-03,-0.00312813
-5.612100e-03,-0.00310625
-5.612000e-03,-0.0031125
-5.611900e-03,-0.00312813
-5.611800e-03,-0.00322813
-5.611700e-03,-0.00315938
-5.611600e-03,-0.00312188
-5.611500e-03,-0.00307813
-5.611400e-03,-0.0031125
-5.611300e-03,-0.00317812
-5.611200e-03,-0.00317812
-5.611100e-03,-0.003175
-5.611000e-03,-0.00319375
-5.610900e-03,-0.00320937
-5.610800e-03,-0.0032125
-5.610700e-03,-0.00312813
-5.610600e-03,-0.00304375
-5.610500e-03,-0.00314063
-5.610400e-03,-0.00324688
-5.610300e-03,-0.00317188
-5.610200e-03,-0.00316875
-5.610100e-03,-0.00322188
-5.610000e-03,-0.00314688
-5.609900e-03,-0.00315625
-5.609800e-03,-0.00320625
-5.609700e-03,-0.00321563
-5.609600e-03,-0.00316875
-5.609500e-03,-0.00314063
-5.609400e-03,-0.00319375
-5.609300e-03,-0.00316563
-5.609200e-03,-0.00310312
-5.609100e-03,-0.0031125
-5.609000e-03,-0.00313594
-5.608900e-03,-0.00325
-5.608800e-03,-0.0031875
-5.608700e-03,-0.00320625
-5.608600e-03,-0.00313281
-5.608500e-03,-0.00313594
-5.608400e-03,-0.00319688
-5.608300e-03,-0.003225
-5.608200e-03,-0.00309688
-5.608100e-03,-0.00310938
-5.608000e-03,-0.00315313
-5.607900e-03,-0.00316094
-5.607800e-03,-0.00321563
-5.607700e-03,-0.0031125
-5.607600e-03,-0.00320313
-5.607500e-03,-0.0031625
-5.607400e-03,-0.00310625
-5.607300e-03,-0.00312813
-5.607200e-03,-0.00322813
-5.607100e-03,-0.00314375
-5.607000e-03,-0.00310938
-5.606900e-03,-0.00310938
-5.606800e-03,-0.00318438
-5.606700e-03,-0.00315625
-5.606600e-03,-0.00320937
-5.606500e-03,-0.003225
-5.606400e-03,-0.00313125
-5.606300e-03,-0.00314375
-5.606200e-03,-0.0032
-5.606100e-03,-0.00320625
-5.606000e-03,-0.00317812
-5.605900e-03,-0.00316563
-5.605800e-03,-0.00321875
-5.605700e-03,-0.003125
-5.605600e-03,-0.00315313
-5.605500e-03,-0.00314688
-5.605400e-03,-0.00307187
-5.605300e-03,-0.00312813
-5.605200e-03,-0.0032125
-5.605100e-03,-0.00317188
-5.605000e-03,-0.00322813
-5.604900e-03,-0.00320625
-5.604800e-03,-0.00313438
-5.604700e-03,-0.00318594
-5.604600e-03,-0.00322188
-5.604500e-03,-0.003125
-5.604400e-03,-0.00322813
-5.604300e-03,-0.0032
-5.604200e-03,-0.00321875
-5.604100e-03,-0.00324531
-5.604000e-03,-0.00319063
-5.603900e-03,-0.00317812
-5.603800e-03,-0.00326563
-5.603700e-03,-0.0031625
-5.603600e-03,-0.00309688
-5.603500e-03,-0.00325
-5.603400e-03,-0.00315625
-5.603300e-03,-0.00318906
-5.603200e-03,-0.00311094
-5.603100e-03,-0.003075
-5.603000e-03,-0.00318125
-5.602900e-03,-0.0031625
-5.602800e-03,-0.00327188
-5.602700e-03,-0.00316094
-5.602600e-03,-0.00317188
-5.602500e-03,-0.00320313
-5.602400e-03,-0.00323438
-5.602300e-03,-0.00310625
-5.602200e-03,-0.00319688
-5.602100e-03,-0.00310625
-5.602000e-03,-0.00318594
-5.601900e-03,-0.00319375
-5.601800e-03,-0.00317812
-5.601700e-03,-0.0032375
-5.601600e-03,-0.00327188
-5.601500e-03,-0.00315313
-5.601400e-03,-0.00319063
-5.601300e-03,-0.00315938
-5.601200e-03,-0.0032375
-5.601100e-03,-0.00318125
-5.601000e-03,-0.00314688
-5.600900e-03,-0.00315625
-5.600800e-03,-0.00303125
-5.600700e-03,-0.00303438
-5.600600e-03,-0.00307813
-5.600500e-03,-0.00315
-5.600400e-03,-0.00330938
-5.600300e-03,-0.00321563
-5.600200e-03,-0.00315938
-5.600100e-03,-0.00308906
-5.600000e-03,-0.0031375
-5.599900e-03,-0.00322188
-5.599800e-03,-0.00315938
-5.599700e-03,-0.00319375
-5.599600e-03,-0.00312813
-5.599500e-03,-0.00315
-5.599400e-03,-0.00317812
-5.599300e-03,-0.0032375
-5.599200e-03,-0.00305313
-5.599100e-03,-0.00315313
-5.599000e-03,-0.003125
-5.598900e-03,-0.00311875
-5.598800e-03,-0.003175
-5.598700e-03,-0.00317812
-5.598600e-03,-0.00316094
-5.598500e-03,-0.0030875
-5.598400e-03,-0.00313125
-5.598300e-03,-0.00314375
-5.598200e-03,-0.0031875
-5.598100e-03,-0.00318125
-5.598000e-03,-0.00309688
-5.597900e-03,-0.00310625
-5.597800e-03,-0.00317188
-5.597700e-03,-0.00321875
-5.597600e-03,-0.003275
-5.597500e-03,-0.0032
-5.597400e-03,-0.00322656
-5.597300e-03,-0.00318906
-5.597200e-03,-0.00318594
-5.597100e-03,-0.00320625
-5.597000e-03,-0.0032
-5.596900e-03,-0.00308594
-5.596800e-03,-0.00310625
-5.596700e-03,-0.00315625
-5.596600e-03,-0.00330625
-5.596500e-03,-0.00330313
-5.596400e-03,-0.0032375
-5.596300e-03,-0.00319063
-5.596200e-03,-0.00324531
-5.596100e-03,-0.00314688
-5.596000e-03,-0.00315
-5.595900e-03,-0.00325312
-5.595800e-03,-0.0032375
-5.595700e-03,-0.003125
-5.595600e-03,-0.00322188
-5.595500e-03,-0.00322813
-5.595400e-03,-0.00323125
-5.595300e-03,-0.00318438
-5.595200e-03,-0.00315938
-5.595100e-03,-0.00313125
-5.595000e-03,-0.00324063
-5.594900e-03,-0.00320625
-5.594800e-03,-0.00315
-5.594700e-03,-0.00318125
-5.594600e-03,-0.00325938
-5.594500e-03,-0.00311406
-5.594400e-03,-0.00316094
-5.594300e-03,-0.00323438
-5.594200e-03,-0.00311875
-5.594100e-03,-0.00317188
-5.594000e-03,-0.00321875
-5.593900e-03,-0.00324063
-5.593800e-03,-0.00323438
-5.593700e-03,-0.003175
-5.593600e-03,-0.00316875
-5.593500e-03,-0.00314688
-5.593400e-03,-0.00323125
-5.593300e-03,-0.00322813
-5.593200e-03,-0.00325625
-5.593100e-03,-0.00319063
-5.593000e-03,-0.00318906
-5.592900e-03,-0.0032875
-5.592800e-03,-0.0032375
-5.592700e-03,-0.00326875
-5.592600e-03,-0.0032375
-5.592500e-03,-0.00314063
-5.592400e-03,-0.00320313
-5.592300e-03,-0.00319844
-5.592200e-03,-0.00319375
-5.592100e-03,-0.00318125
-5.592000e-03,-0.00315313
-5.591900e-03,-0.00306563
-5.591800e-03,-0.00326875
-5.591700e-03,-0.00322188
-5.591600e-03,-0.00317812
-5.591500e-03,-0.0032375
-5.591400e-03,-0.00311563
-5.591300e-03,-0.0032125
-5.591200e-03,-0.00308594
-5.591100e-03,-0.00321563
-5.591000e-03,-0.003225
-5.590900e-03,-0.00327188
-5.590800e-03,-0.00305
-5.590700e-03,-0.00307813
-5.590600e-03,-0.00320937
-5.590500e-03,-0.00317969
-5.590400e-03,-0.00328437
-5.590300e-03,-0.00324063
-5.590200e-03,-0.00317188
-5.590100e-03,-0.00319688
-5.590000e-03,-0.00312031
-5.589900e-03,-0.00321563
-5.589800e-03,-0.00316563
-5.589700e-03,-0.00318906
-5.589600e-03,-0.00314688
-5.589500e-03,-0.00316875
-5.589400e-03,-0.0032375
-5.589300e-03,-0.00314219
-5.589200e-03,-0.00322188
-5.589100e-03,-0.00318906
-5.589000e-03,-0.0031875
-5.588900e-03,-0.0032
-5.588800e-03,-0.00316094
-5.588700e-03,-0.0031
-5.588600e-03,-0.003175
-5.588500e-03,-0.00318438
-5.588400e-03,-0.00313438
-5.588300e-03,-0.00313281
-5.588200e-03,-0.00329375
-5.588100e-03,-0.00318906
-5.588000e-03,-0.00318438
-5.587900e-03,-0.00323125
-5.587800e-03,-0.00320625
-5.587700e-03,-0.00317031
-5.587600e-03,-0.00319688
-5.587500e-03,-0.00320313
-5.587400e-03,-0.00322344
-5.587300e-03,-0.0032375
-5.587200e-03,-0.00321563
-5.587100e-03,-0.00324375
-5.587000e-03,-0.00322188
-5.586900e-03,-0.0032625
-5.586800e-03,-0.00330156
-5.586700e-03,-0.00321563
-5.586600e-03,-0.00322188
-5.586500e-03,-0.0033125
-5.586400e-03,-0.00319375
-5.586300e-03,-0.00320625
-5.586200e-03,-0.00325625
-5.586100e-03,-0.00319375
-5.586000e-03,-0.00318906
-5.585900e-03,-0.00318125
-5.585800e-03,-0.00315938
-5.585700e-03,-0.00327656
-5.585600e-03,-0.00319688
-5.585500e-03,-0.00329063
-5.585400e-03,-0.00324375
-5.585300e-03,-0.00319688
-5.585200e-03,-0.00317188
-5.585100e-03,-0.0031875
-5.585000e-03,-0.00317656
-5.584900e-03,-0.00326563
-5.584800e-03,-0.00314375
-5.584700e-03,-0.0031875
-5.584600e-03,-0.003175
-5.584500e-03,-0.00315313
-5.584400e-03,-0.00324063
-5.584300e-03,-0.00322813
-5.584200e-03,-0.00318906
-5.584100e-03,-0.0032
-5.584000e-03,-0.00318125
-5.583900e-03,-0.00321563
-5.583800e-03,-0.00318906
-5.583700e-03,-0.00323438
-5.583600e-03,-0.00315313
-5.583500e-03,-0.00327188
-5.583400e-03,-0.003225
-5.583300e-03,-0.0031875
-5.583200e-03,-0.00327813
-5.583100e-03,-0.00320937
-5.583000e-03,-0.00324375
-5.582900e-03,-0.00317188
-5.582800e-03,-0.00318438
-5.582700e-03,-0.00318125
-5.582600e-03,-0.00320937
-5.582500e-03,-0.00326875
-5.582400e-03,-0.00325938
-5.582300e-03,-0.00322188
-5.582200e-03,-0.00327188
-5.582100e-03,-0.00325
-5.582000e-03,-0.00323438
-5.581900e-03,-0.00324063
-5.581800e-03,-0.00331875
-5.581700e-03,-0.00322813
-5.581600e-03,-0.003225
-5.581500e-03,-0.00335937
-5.581400e-03,-0.00332188
-5.581300e-03,-0.00325938
-5.581200e-03,-0.0031625
-5.581100e-03,-0.00334063
-5.581000e-03,-0.00319688
-5.580900e-03,-0.00321563
-5.580800e-03,-0.0032125
-5.580700e-03,-0.00319688
-5.580600e-03,-0.00320937
-5.580500e-03,-0.0030875
-5.580400e-03,-0.00324375
-5.580300e-03,-0.00324063
-5.580200e-03,-0.003225
-5.580100e-03,-0.00321563
-5.580000e-03,-0.00321875
-5.579900e-03,-0.00327188
-5.579800e-03,-0.00312813
-5.579700e-03,-0.00324063
-5.579600e-03,-0.00318438
-5.579500e-03,-0.00322188
-5.579400e-03,-0.00326875
-5.579300e-03,-0.00325625
-5.579200e-03,-0.00325625
-5.579100e-03,-0.00325312
-5.579000e-03,-0.00324063
-5.578900e-03,-0.00322344
-5.578800e-03,-0.0032
-5.578700e-03,-0.00320313
-5.578600e-03,-0.00319375
-5.578500e-03,-0.00326875
-5.578400e-03,-0.00320937
-5.578300e-03,-0.00323125
-5.578200e-03,-0.00325312
-5.578100e-03,-0.00321875
-5.578000e-03,-0.00324531
-5.577900e-03,-0.00320937
-5.577800e-03,-0.00317812
-5.577700e-03,-0.0032125
-5.577600e-03,-0.00320313
-5.577500e-03,-0.003275
-5.577400e-03,-0.0032125
-5.577300e-03,-0.00326563
-5.577200e-03,-0.00320156
-5.577100e-03,-0.00320937
-5.577000e-03,-0.00315938
-5.576900e-03,-0.00313594
-5.576800e-03,-0.00317812
-5.576700e-03,-0.003175
-5.576600e-03,-0.00321563
-5.576500e-03,-0.00317812
-5.576400e-03,-0.0032125
-5.576300e-03,-0.00329844
-5.576200e-03,-0.00323125
-5.576100e-03,-0.00322188
-5.576000e-03,-0.00319688
-5.575900e-03,-0.00322188
-5.575800e-03,-0.003225
-5.575700e-03,-0.00325
-5.575600e-03,-0.00319844
-5.575500e-03,-0.00330156
-5.575400e-03,-0.00321875
-5.575300e-03,-0.00325312
-5.575200e-03,-0.0033
-5.575100e-03,-0.00323125
-5.575000e-03,-0.00329063
-5.574900e-03,-0.0032125
-5.574800e-03,-0.00318125
-5.574700e-03,-0.00325
-5.574600e-03,-0.00325469
-5.574500e-03,-0.00325938
-5.574400e-03,-0.00320625
-5.574300e-03,-0.00320625
-5.574200e-03,-0.00320937
-5.574100e-03,-0.00326875
-5.574000e-03,-0.00315625
-5.573900e-03,-0.00328437
-5.573800e-03,-0.0032125
-5.573700e-03,-0.0031125
-5.573600e-03,-0.00315938
-5.573500e-03,-0.00322813
-5.573400e-03,-0.00331562
-5.573300e-03,-0.00304531
-5.573200e-03,-0.00318125
-5.573100e-03,-0.00318906
-5.573000e-03,-0.00316875
-5.572900e-03,-0.00329375
-5.572800e-03,-0.0032625
-5.572700e-03,-0.00325938
-5.572600e-03,-0.00318594
-5.572500e-03,-0.00317812
-5.572400e-03,-0.00323438
-5.572300e-03,-0.0032125
-5.572200e-03,-0.00322188
-5.572100e-03,-0.00335
-5.572000e-03,-0.00332344
-5.571900e-03,-0.00322969
-5.571800e-03,-0.00321563
-5.571700e-03,-0.00333125
-5.571600e-03,-0.00322813
-5.571500e-03,-0.00329375
-5.571400e-03,-0.003325
-5.571300e-03,-0.003225
-5.571200e-03,-0.003375
-5.571100e-03,-0.00308438
-5.571000e-03,-0.00315625
-5.570900e-03,-0.00325312
-5.570800e-03,-0.003175
-5.570700e-03,-0.00325625
-5.570600e-03,-0.00324688
-5.570500e-03,-0.00327813
-5.570400e-03,-0.00317812
-5.570300e-03,-0.00323125
-5.570200e-03,-0.00330313
-5.570100e-03,-0.00323438
-5.570000e-03,-0.00325938
-5.569900e-03,-0.00316094
-5.569800e-03,-0.00319688
-5.569700e-03,-0.00324375
-5.569600e-03,-0.00319688
-5.569500e-03,-0.00317656
-5.569400e-03,-0.00319688
-5.569300e-03,-0.00319375
-5.569200e-03,-0.00315625
-5.569100e-03,-0.00326875
-5.569000e-03,-0.00328437
-5.568900e-03,-0.00320625
-5.568800e-03,-0.00312656
-5.568700e-03,-0.003225
-5.568600e-03,-0.00325938
-5.568500e-03,-0.00315313
-5.568400e-03,-0.00318594
-5.568300e-03,-0.00326563
-5.568200e-03,-0.00320313
-5.568100e-03,-0.0031375
-5.568000e-03,-0.00309063
-5.567900e-03,-0.00317812
-5.567800e-03,-0.00323594
-5.567700e-03,-0.003175
-5.567600e-03,-0.00321875
-5.567500e-03,-0.00314531
-5.567400e-03,-0.00325312
-5.567300e-03,-0.00325938
-5.567200e-03,-0.00321406
-5.567100e-03,-0.00319688
-5.567000e-03,-0.00325938
-5.566900e-03,-0.00327344
-5.566800e-03,-0.00317812
-5.566700e-03,-0.00319688
-5.566600e-03,-0.00330313
-5.566500e-03,-0.00328125
-5.566400e-03,-0.00323125
-5.566300e-03,-0.00318125
-5.566200e-03,-0.00331875
-5.566100e-03,-0.00318125
-5.566000e-03,-0.0032625
-5.565900e-03,-0.0033375
-5.565800e-03,-0.00326563
-5.565700e-03,-0.00323438
-5.565600e-03,-0.00319063
-5.565500e-03,-0.00313281
-5.565400e-03,-0.00318594
-5.565300e-03,-0.0032875
-5.565200e-03,-0.003225
-5.565100e-03,-0.00322344
-5.565000e-03,-0.00324375
-5.564900e-03,-0.00328437
-5.564800e-03,-0.00323438
-5.564700e-03,-0.00312969
-5.564600e-03,-0.00320625
-5.564500e-03,-0.00330938
-5.564400e-03,-0.0033125
-5.564300e-03,-0.00322813
-5.564200e-03,-0.00318125
-5.564100e-03,-0.00313125
-5.564000e-03,-0.00316094
-5.563900e-03,-0.00325938
-5.563800e-03,-0.00323438
-5.563700e-03,-0.0033125
-5.563600e-03,-0.0032625
-5.563500e-03,-0.00328281
-5.563400e-03,-0.0033
