Laser_Spectroscopy/Laser_Spec_Data/tek0005MTH.csv

Model,MDO3014
Firmware Version,1.20

Waveform Type,ANALOG
Point Format,Y
Horizontal Units,s
Horizontal Scale,0.001
Horizontal Delay,-0.00064
Sample Interval,1e-07
Record Length,100000
Gating,49.500% to 53.500%
Probe Attenuation,1
Vertical Units,V
Vertical Offset,0
Vertical Scale,0.01
Vertical Position,0
,
,
,
Label,
TIME,"MATH<CH2-CH1>"
-6.901000e-04,0.00117187
-6.900000e-04,0.00123125
-6.899000e-04,0.00120156
-6.898000e-04,0.00118281
-6.897000e-04,0.00124062
-6.896000e-04,0.00125
-6.895000e-04,0.00125781
-6.894000e-04,0.0012
-6.893000e-04,0.0012
-6.892000e-04,0.00128906
-6.891000e-04,0.00131875
-6.890000e-04,0.00130313
-6.889000e-04,0.00125
-6.888000e-04,0.00114219
-6.887000e-04,0.0013375
-6.886000e-04,0.0012875
-6.885000e-04,0.00127031
-6.884000e-04,0.00117344
-6.883000e-04,0.00138125
-6.882000e-04,0.00120781
-6.881000e-04,0.0012125
-6.880000e-04,0.00129219
-6.879000e-04,0.00130625
-6.878000e-04,0.0012375
-6.877000e-04,0.00137031
-6.876000e-04,0.00133906
-6.875000e-04,0.00130156
-6.874000e-04,0.00131563
-6.873000e-04,0.00132344
-6.872000e-04,0.00130625
-6.871000e-04,0.00127969
-6.870000e-04,0.00135313
-6.869000e-04,0.00126406
-6.868000e-04,0.00117344
-6.867000e-04,0.00121094
-6.866000e-04,0.00133438
-6.865000e-04,0.00134687
-6.864000e-04,0.00133906
-6.863000e-04,0.0011875
-6.862000e-04,0.00129688
-6.861000e-04,0.00127812
-6.860000e-04,0.00125313
-6.859000e-04,0.00127031
-6.858000e-04,0.00136875
-6.857000e-04,0.00125313
-6.856000e-04,0.00133438
-6.855000e-04,0.00130625
-6.854000e-04,0.00122969
-6.853000e-04,0.00136875
-6.852000e-04,0.00143438
-6.851000e-04,0.00141719
-6.850000e-04,0.00136094
-6.849000e-04,0.00129063
-6.848000e-04,0.0014375
-6.847000e-04,0.00141406
-6.846000e-04,0.00135156
-6.845000e-04,0.00137813
-6.844000e-04,0.00130156
-6.843000e-04,0.00127656
-6.842000e-04,0.00143125
-6.841000e-04,0.00135781
-6.840000e-04,0.00138594
-6.839000e-04,0.00132344
-6.838000e-04,0.00134531
-6.837000e-04,0.00148594
-6.836000e-04,0.0014
-6.835000e-04,0.00140313
-6.834000e-04,0.00144063
-6.833000e-04,0.00138125
-6.832000e-04,0.00145781
-6.831000e-04,0.00150625
-6.830000e-04,0.00152969
-6.829000e-04,0.00139219
-6.828000e-04,0.00147344
-6.827000e-04,0.00135313
-6.826000e-04,0.00150938
-6.825000e-04,0.00147188
-6.824000e-04,0.00145781
-6.823000e-04,0.00146094
-6.822000e-04,0.00146406
-6.821000e-04,0.00148281
-6.820000e-04,0.00145469
-6.819000e-04,0.00138594
-6.818000e-04,0.00141719
-6.817000e-04,0.00143438
-6.816000e-04,0.00149688
-6.815000e-04,0.0015375
-6.814000e-04,0.00150313
-6.813000e-04,0.00150313
-6.812000e-04,0.00155
-6.811000e-04,0.00144844
-6.810000e-04,0.00144531
-6.809000e-04,0.00141719
-6.808000e-04,0.00160625
-6.807000e-04,0.0015125
-6.806000e-04,0.00162031
-6.805000e-04,0.00157969
-6.804000e-04,0.00151563
-6.803000e-04,0.00147656
-6.802000e-04,0.00166094
-6.801000e-04,0.00150313
-6.800000e-04,0.0015125
-6.799000e-04,0.0014875
-6.798000e-04,0.00156563
-6.797000e-04,0.0016125
-6.796000e-04,0.00150781
-6.795000e-04,0.00155469
-6.794000e-04,0.00155
-6.793000e-04,0.0015375
-6.792000e-04,0.00154844
-6.791000e-04,0.00147969
-6.790000e-04,0.00148438
-6.789000e-04,0.0015375
-6.788000e-04,0.00155937
-6.787000e-04,0.00153281
-6.786000e-04,0.001575
-6.785000e-04,0.0014
-6.784000e-04,0.0015375
-6.783000e-04,0.00150469
-6.782000e-04,0.00154219
-6.781000e-04,0.00150938
-6.780000e-04,0.00153906
-6.779000e-04,0.00155156
-6.778000e-04,0.00160625
-6.777000e-04,0.0015875
-6.776000e-04,0.00157188
-6.775000e-04,0.00162656
-6.774000e-04,0.00160469
-6.773000e-04,0.00160938
-6.772000e-04,0.00151406
-6.771000e-04,0.0016375
-6.770000e-04,0.00156875
-6.769000e-04,0.00156875
-6.768000e-04,0.00162188
-6.767000e-04,0.00163281
-6.766000e-04,0.00163906
-6.765000e-04,0.00151875
-6.764000e-04,0.00156875
-6.763000e-04,0.0016125
-6.762000e-04,0.00167031
-6.761000e-04,0.00171406
-6.760000e-04,0.00169688
-6.759000e-04,0.00156406
-6.758000e-04,0.00154844
-6.757000e-04,0.00167969
-6.756000e-04,0.00162813
-6.755000e-04,0.00162188
-6.754000e-04,0.00159531
-6.753000e-04,0.00171875
-6.752000e-04,0.00167813
-6.751000e-04,0.00171406
-6.750000e-04,0.00160313
-6.749000e-04,0.00166406
-6.748000e-04,0.001625
-6.747000e-04,0.00161563
-6.746000e-04,0.00173438
-6.745000e-04,0.00173281
-6.744000e-04,0.00163281
-6.743000e-04,0.00167031
-6.742000e-04,0.00170156
-6.741000e-04,0.00174844
-6.740000e-04,0.00173281
-6.739000e-04,0.00149688
-6.738000e-04,0.00165469
-6.737000e-04,0.00164063
-6.736000e-04,0.00166563
-6.735000e-04,0.00172344
-6.734000e-04,0.00171719
-6.733000e-04,0.00166563
-6.732000e-04,0.001625
-6.731000e-04,0.00178906
-6.730000e-04,0.00167656
-6.729000e-04,0.00170781
-6.728000e-04,0.00173281
-6.727000e-04,0.00173438
-6.726000e-04,0.00172031
-6.725000e-04,0.00177969
-6.724000e-04,0.00175
-6.723000e-04,0.00174375
-6.722000e-04,0.00177031
-6.721000e-04,0.00183281
-6.720000e-04,0.00170469
-6.719000e-04,0.0018125
-6.718000e-04,0.00180625
-6.717000e-04,0.00167656
-6.716000e-04,0.00170938
-6.715000e-04,0.001725
-6.714000e-04,0.00177344
-6.713000e-04,0.00175625
-6.712000e-04,0.00173125
-6.711000e-04,0.00171563
-6.710000e-04,0.00184219
-6.709000e-04,0.00174844
-6.708000e-04,0.00183906
-6.707000e-04,0.00182813
-6.706000e-04,0.001825
-6.705000e-04,0.00178281
-6.704000e-04,0.00180313
-6.703000e-04,0.00173906
-6.702000e-04,0.00173125
-6.701000e-04,0.00187969
-6.700000e-04,0.00189844
-6.699000e-04,0.00183906
-6.698000e-04,0.00176563
-6.697000e-04,0.00182969
-6.696000e-04,0.00180313
-6.695000e-04,0.00181875
-6.694000e-04,0.00189844
-6.693000e-04,0.00186094
-6.692000e-04,0.00181719
-6.691000e-04,0.00185938
-6.690000e-04,0.00184375
-6.689000e-04,0.00175469
-6.688000e-04,0.0017875
-6.687000e-04,0.00182188
-6.686000e-04,0.00186563
-6.685000e-04,0.00190938
-6.684000e-04,0.00189531
-6.683000e-04,0.00197969
-6.682000e-04,0.001825
-6.681000e-04,0.00186719
-6.680000e-04,0.00179375
-6.679000e-04,0.00183594
-6.678000e-04,0.0018125
-6.677000e-04,0.00187188
-6.676000e-04,0.00197813
-6.675000e-04,0.00190625
-6.674000e-04,0.00191563
-6.673000e-04,0.00177969
-6.672000e-04,0.00193438
-6.671000e-04,0.0019375
-6.670000e-04,0.00190156
-6.669000e-04,0.00185938
-6.668000e-04,0.00183438
-6.667000e-04,0.00191094
-6.666000e-04,0.00199531
-6.665000e-04,0.00183906
-6.664000e-04,0.00201719
-6.663000e-04,0.00196094
-6.662000e-04,0.00182969
-6.661000e-04,0.00191406
-6.660000e-04,0.00183594
-6.659000e-04,0.00196875
-6.658000e-04,0.00196094
-6.657000e-04,0.00186875
-6.656000e-04,0.00195781
-6.655000e-04,0.00197656
-6.654000e-04,0.00200313
-6.653000e-04,0.00194688
-6.652000e-04,0.00196562
-6.651000e-04,0.00208281
-6.650000e-04,0.00192813
-6.649000e-04,0.00195469
-6.648000e-04,0.00196406
-6.647000e-04,0.00190156
-6.646000e-04,0.00203906
-6.645000e-04,0.00200938
-6.644000e-04,0.00190938
-6.643000e-04,0.00184219
-6.642000e-04,0.0018875
-6.641000e-04,0.00207969
-6.640000e-04,0.00203906
-6.639000e-04,0.00193906
-6.638000e-04,0.00194688
-6.637000e-04,0.00212813
-6.636000e-04,0.00205781
-6.635000e-04,0.00199531
-6.634000e-04,0.00197188
-6.633000e-04,0.002
-6.632000e-04,0.00201563
-6.631000e-04,0.00202031
-6.630000e-04,0.0020125
-6.629000e-04,0.00202656
-6.628000e-04,0.00202656
-6.627000e-04,0.0020125
-6.626000e-04,0.00206875
-6.625000e-04,0.0021
-6.624000e-04,0.00198281
-6.623000e-04,0.00207813
-6.622000e-04,0.00204062
-6.621000e-04,0.00203438
-6.620000e-04,0.0022125
-6.619000e-04,0.00199844
-6.618000e-04,0.00204844
-6.617000e-04,0.00200313
-6.616000e-04,0.00205
-6.615000e-04,0.00206406
-6.614000e-04,0.00205
-6.613000e-04,0.002025
-6.612000e-04,0.00201406
-6.611000e-04,0.00210781
-6.610000e-04,0.00220781
-6.609000e-04,0.0021125
-6.608000e-04,0.00209688
-6.607000e-04,0.00208281
-6.606000e-04,0.00202656
-6.605000e-04,0.00207813
-6.604000e-04,0.0020625
-6.603000e-04,0.00209219
-6.602000e-04,0.002125
-6.601000e-04,0.00212969
-6.600000e-04,0.00204688
-6.599000e-04,0.00214375
-6.598000e-04,0.00209688
-6.597000e-04,0.00216406
-6.596000e-04,0.0022
-6.595000e-04,0.0021125
-6.594000e-04,0.00210156
-6.593000e-04,0.00230781
-6.592000e-04,0.00219063
-6.591000e-04,0.00208438
-6.590000e-04,0.00222656
-6.589000e-04,0.00218281
-6.588000e-04,0.00225781
-6.587000e-04,0.0021
-6.586000e-04,0.00221406
-6.585000e-04,0.00210469
-6.584000e-04,0.00216875
-6.583000e-04,0.00225625
-6.582000e-04,0.00208281
-6.581000e-04,0.00217656
-6.580000e-04,0.00214844
-6.579000e-04,0.00230469
-6.578000e-04,0.00211406
-6.577000e-04,0.00216563
-6.576000e-04,0.00216406
-6.575000e-04,0.0020875
-6.574000e-04,0.00217969
-6.573000e-04,0.00216094
-6.572000e-04,0.00221094
-6.571000e-04,0.0022125
-6.570000e-04,0.00223438
-6.569000e-04,0.00225156
-6.568000e-04,0.00228437
-6.567000e-04,0.00218438
-6.566000e-04,0.00221094
-6.565000e-04,0.00222969
-6.564000e-04,0.00235156
-6.563000e-04,0.00231562
-6.562000e-04,0.00229219
-6.561000e-04,0.00222656
-6.560000e-04,0.00230938
-6.559000e-04,0.00240938
-6.558000e-04,0.00224062
-6.557000e-04,0.00228594
-6.556000e-04,0.00224219
-6.555000e-04,0.0023125
-6.554000e-04,0.002325
-6.553000e-04,0.00234063
-6.552000e-04,0.00233125
-6.551000e-04,0.00224531
-6.550000e-04,0.00224688
-6.549000e-04,0.00230156
-6.548000e-04,0.00228281
-6.547000e-04,0.00234375
-6.546000e-04,0.00228125
-6.545000e-04,0.00229844
-6.544000e-04,0.00235156
-6.543000e-04,0.00239375
-6.542000e-04,0.00233125
-6.541000e-04,0.00233281
-6.540000e-04,0.00215156
-6.539000e-04,0.00231875
-6.538000e-04,0.00229219
-6.537000e-04,0.00219219
-6.536000e-04,0.00235156
-6.535000e-04,0.00231406
-6.534000e-04,0.00235469
-6.533000e-04,0.00239844
-6.532000e-04,0.00240625
-6.531000e-04,0.00224375
-6.530000e-04,0.00241406
-6.529000e-04,0.00239062
-6.528000e-04,0.00233594
-6.527000e-04,0.002325
-6.526000e-04,0.00239062
-6.525000e-04,0.0023625
-6.524000e-04,0.00233281
-6.523000e-04,0.00234844
-6.522000e-04,0.00237656
-6.521000e-04,0.00234531
-6.520000e-04,0.0023625
-6.519000e-04,0.00229531
-6.518000e-04,0.00227188
-6.517000e-04,0.00238906
-6.516000e-04,0.00240781
-6.515000e-04,0.00245
-6.514000e-04,0.00238906
-6.513000e-04,0.00242656
-6.512000e-04,0.0023875
-6.511000e-04,0.00241094
-6.510000e-04,0.00245781
-6.509000e-04,0.00239844
-6.508000e-04,0.0024
-6.507000e-04,0.00241094
-6.506000e-04,0.00245469
-6.505000e-04,0.00236406
-6.504000e-04,0.00242969
-6.503000e-04,0.00248906
-6.502000e-04,0.00246562
-6.501000e-04,0.00247188
-6.500000e-04,0.00252656
-6.499000e-04,0.00248281
-6.498000e-04,0.00253281
-6.497000e-04,0.00250313
-6.496000e-04,0.00251875
-6.495000e-04,0.00254844
-6.494000e-04,0.00253281
-6.493000e-04,0.00252656
-6.492000e-04,0.00246094
-6.491000e-04,0.00252188
-6.490000e-04,0.00251563
-6.489000e-04,0.00262188
-6.488000e-04,0.00253594
-6.487000e-04,0.00246094
-6.486000e-04,0.00247188
-6.485000e-04,0.00244844
-6.484000e-04,0.00252188
-6.483000e-04,0.00253125
-6.482000e-04,0.00250938
-6.481000e-04,0.00258594
-6.480000e-04,0.00258594
-6.479000e-04,0.00252031
-6.478000e-04,0.00254219
-6.477000e-04,0.00260156
-6.476000e-04,0.00258125
-6.475000e-04,0.00263906
-6.474000e-04,0.00256563
-6.473000e-04,0.00262031
-6.472000e-04,0.002575
-6.471000e-04,0.00258594
-6.470000e-04,0.00251875
-6.469000e-04,0.00252188
-6.468000e-04,0.00268594
-6.467000e-04,0.00256094
-6.466000e-04,0.00257187
-6.465000e-04,0.00267969
-6.464000e-04,0.00261875
-6.463000e-04,0.00264531
-6.462000e-04,0.00263125
-6.461000e-04,0.00263125
-6.460000e-04,0.00261406
-6.459000e-04,0.00266406
-6.458000e-04,0.0027125
-6.457000e-04,0.00272656
-6.456000e-04,0.00264844
-6.455000e-04,0.00262813
-6.454000e-04,0.00269688
-6.453000e-04,0.00255625
-6.452000e-04,0.00254375
-6.451000e-04,0.0027125
-6.450000e-04,0.00263281
-6.449000e-04,0.00283906
-6.448000e-04,0.00261719
-6.447000e-04,0.00265625
-6.446000e-04,0.00263125
-6.445000e-04,0.00265469
-6.444000e-04,0.00269375
-6.443000e-04,0.00261094
-6.442000e-04,0.00258438
-6.441000e-04,0.00268281
-6.440000e-04,0.00265156
-6.439000e-04,0.00272344
-6.438000e-04,0.00268125
-6.437000e-04,0.00259531
-6.436000e-04,0.00274844
-6.435000e-04,0.00267812
-6.434000e-04,0.00277344
-6.433000e-04,0.00274844
-6.432000e-04,0.00272656
-6.431000e-04,0.00269063
-6.430000e-04,0.00292031
-6.429000e-04,0.002725
-6.428000e-04,0.00269375
-6.427000e-04,0.0027875
-6.426000e-04,0.00277344
-6.425000e-04,0.00262656
-6.424000e-04,0.00277969
-6.423000e-04,0.0027
-6.422000e-04,0.00286719
-6.421000e-04,0.00278437
-6.420000e-04,0.00274375
-6.419000e-04,0.00278281
-6.418000e-04,0.00274375
-6.417000e-04,0.00266875
-6.416000e-04,0.00277656
-6.415000e-04,0.00285781
-6.414000e-04,0.00283594
-6.413000e-04,0.00278906
-6.412000e-04,0.00273281
-6.411000e-04,0.0028
-6.410000e-04,0.002825
-6.409000e-04,0.00287188
-6.408000e-04,0.002825
-6.407000e-04,0.00282813
-6.406000e-04,0.00286563
-6.405000e-04,0.0027625
-6.404000e-04,0.002875
-6.403000e-04,0.00280469
-6.402000e-04,0.00289688
-6.401000e-04,0.0029125
-6.400000e-04,0.00295313
-6.399000e-04,0.00289062
-6.398000e-04,0.00294531
-6.397000e-04,0.00284219
-6.396000e-04,0.00292187
-6.395000e-04,0.0029375
-6.394000e-04,0.00285
-6.393000e-04,0.00283438
-6.392000e-04,0.00283125
-6.391000e-04,0.00289375
-6.390000e-04,0.00292813
-6.389000e-04,0.0028875
-6.388000e-04,0.00285
-6.387000e-04,0.00289844
-6.386000e-04,0.00291719
-6.385000e-04,0.003025
-6.384000e-04,0.00289688
-6.383000e-04,0.00287188
-6.382000e-04,0.00293125
-6.381000e-04,0.00291094
-6.380000e-04,0.00298281
-6.379000e-04,0.00293438
-6.378000e-04,0.00295313
-6.377000e-04,0.00295313
-6.376000e-04,0.00299375
-6.375000e-04,0.00292656
-6.374000e-04,0.00292813
-6.373000e-04,0.00297969
-6.372000e-04,0.00295625
-6.371000e-04,0.00293438
-6.370000e-04,0.00289844
-6.369000e-04,0.0029625
-6.368000e-04,0.00292344
-6.367000e-04,0.00313438
-6.366000e-04,0.00304219
-6.365000e-04,0.00302969
-6.364000e-04,0.00303906
-6.363000e-04,0.00294688
-6.362000e-04,0.00300156
-6.361000e-04,0.00298906
-6.360000e-04,0.003025
-6.359000e-04,0.00301563
-6.358000e-04,0.00307031
-6.357000e-04,0.00304844
-6.356000e-04,0.00306563
-6.355000e-04,0.00314375
-6.354000e-04,0.00312813
-6.353000e-04,0.00302031
-6.352000e-04,0.00300625
-6.351000e-04,0.00299375
-6.350000e-04,0.00300938
-6.349000e-04,0.00313125
-6.348000e-04,0.00315313
-6.347000e-04,0.00299219
-6.346000e-04,0.00309531
-6.345000e-04,0.00308906
-6.344000e-04,0.00305313
-6.343000e-04,0.00311406
-6.342000e-04,0.00307969
-6.341000e-04,0.00308125
-6.340000e-04,0.00325156
-6.339000e-04,0.00308594
-6.338000e-04,0.00312344
-6.337000e-04,0.00313281
-6.336000e-04,0.00309844
-6.335000e-04,0.00304375
-6.334000e-04,0.00313438
-6.333000e-04,0.00319531
-6.332000e-04,0.00308281
-6.331000e-04,0.00322969
-6.330000e-04,0.00316406
-6.329000e-04,0.00315781
-6.328000e-04,0.00320313
-6.327000e-04,0.00323125
-6.326000e-04,0.00318438
-6.325000e-04,0.00321875
-6.324000e-04,0.00318594
-6.323000e-04,0.00314063
-6.322000e-04,0.00316875
-6.321000e-04,0.00325469
-6.320000e-04,0.003275
-6.319000e-04,0.0032625
-6.318000e-04,0.00320156
-6.317000e-04,0.00321563
-6.316000e-04,0.00322969
-6.315000e-04,0.00320313
-6.314000e-04,0.00328594
-6.313000e-04,0.0032
-6.312000e-04,0.00323594
-6.311000e-04,0.00327813
-6.310000e-04,0.00327656
-6.309000e-04,0.0032
-6.308000e-04,0.00322969
-6.307000e-04,0.00327188
-6.306000e-04,0.00324375
-6.305000e-04,0.00317812
-6.304000e-04,0.0032875
-6.303000e-04,0.00326094
-6.302000e-04,0.00334844
-6.301000e-04,0.00320937
-6.300000e-04,0.00333281
-6.299000e-04,0.00331719
-6.298000e-04,0.00326875
-6.297000e-04,0.0033375
-6.296000e-04,0.0032625
-6.295000e-04,0.00336875
-6.294000e-04,0.00336406
-6.293000e-04,0.00339219
-6.292000e-04,0.00330625
-6.291000e-04,0.00327188
-6.290000e-04,0.00330625
-6.289000e-04,0.00343125
-6.288000e-04,0.00338438
-6.287000e-04,0.00325625
-6.286000e-04,0.00335781
-6.285000e-04,0.00340313
-6.284000e-04,0.00336719
-6.283000e-04,0.00344219
-6.282000e-04,0.00332969
-6.281000e-04,0.0034875
-6.280000e-04,0.00339844
-6.279000e-04,0.00342344
-6.278000e-04,0.00347188
-6.277000e-04,0.00346719
-6.276000e-04,0.00341406
-6.275000e-04,0.00325938
-6.274000e-04,0.00350313
-6.273000e-04,0.00343281
-6.272000e-04,0.00339062
-6.271000e-04,0.00351875
-6.270000e-04,0.00350156
-6.269000e-04,0.00353125
-6.268000e-04,0.00342813
-6.267000e-04,0.00341094
-6.266000e-04,0.00347656
-6.265000e-04,0.00350781
-6.264000e-04,0.00334844
-6.263000e-04,0.00355938
-6.262000e-04,0.00350625
-6.261000e-04,0.00344375
-6.260000e-04,0.00351563
-6.259000e-04,0.00349375
-6.258000e-04,0.00344688
-6.257000e-04,0.00355
-6.256000e-04,0.00346562
-6.255000e-04,0.00350313
-6.254000e-04,0.00350313
-6.253000e-04,0.00360781
-6.252000e-04,0.00356563
-6.251000e-04,0.00359375
-6.250000e-04,0.00348281
-6.249000e-04,0.00348125
-6.248000e-04,0.0036
-6.247000e-04,0.00357344
-6.246000e-04,0.003525
-6.245000e-04,0.00353906
-6.244000e-04,0.00356563
-6.243000e-04,0.00349375
-6.242000e-04,0.00357813
-6.241000e-04,0.00354531
-6.240000e-04,0.00349219
-6.239000e-04,0.00365313
-6.238000e-04,0.00354063
-6.237000e-04,0.00355781
-6.236000e-04,0.00359844
-6.235000e-04,0.00358125
-6.234000e-04,0.00361719
-6.233000e-04,0.00360156
-6.232000e-04,0.00363438
-6.231000e-04,0.00359219
-6.230000e-04,0.00362813
-6.229000e-04,0.00358125
-6.228000e-04,0.00370313
-6.227000e-04,0.00361094
-6.226000e-04,0.00362656
-6.225000e-04,0.00362188
-6.224000e-04,0.00360781
-6.223000e-04,0.00367344
-6.222000e-04,0.00374375
-6.221000e-04,0.0036875
-6.220000e-04,0.00372656
-6.219000e-04,0.00363125
-6.218000e-04,0.00363281
-6.217000e-04,0.00366406
-6.216000e-04,0.00374688
-6.215000e-04,0.00379531
-6.214000e-04,0.00366094
-6.213000e-04,0.00379531
-6.212000e-04,0.00377188
-6.211000e-04,0.00377656
-6.210000e-04,0.00375313
-6.209000e-04,0.00381875
-6.208000e-04,0.00373906
-6.207000e-04,0.0037875
-6.206000e-04,0.00383438
-6.205000e-04,0.00373594
-6.204000e-04,0.00371719
-6.203000e-04,0.00380938
-6.202000e-04,0.00379844
-6.201000e-04,0.00373594
-6.200000e-04,0.00377813
-6.199000e-04,0.00366719
-6.198000e-04,0.00378125
-6.197000e-04,0.00373281
-6.196000e-04,0.00386406
-6.195000e-04,0.0039125
-6.194000e-04,0.00362656
-6.193000e-04,0.00380469
-6.192000e-04,0.00383438
-6.191000e-04,0.00383281
-6.190000e-04,0.00380313
-6.189000e-04,0.00381563
-6.188000e-04,0.00382969
-6.187000e-04,0.00388281
-6.186000e-04,0.00392813
-6.185000e-04,0.00392969
-6.184000e-04,0.00387031
-6.183000e-04,0.00385156
-6.182000e-04,0.00382656
-6.181000e-04,0.00387344
-6.180000e-04,0.00392344
-6.179000e-04,0.00391406
-6.178000e-04,0.00390781
-6.177000e-04,0.00381875
-6.176000e-04,0.00397188
-6.175000e-04,0.00379844
-6.174000e-04,0.00394531
-6.173000e-04,0.00384844
-6.172000e-04,0.00382813
-6.171000e-04,0.00393594
-6.170000e-04,0.00393125
-6.169000e-04,0.00393125
-6.168000e-04,0.00391719
-6.167000e-04,0.003925
-6.166000e-04,0.0039375
-6.165000e-04,0.00399531
-6.164000e-04,0.0040125
-6.163000e-04,0.00400625
-6.162000e-04,0.0039375
-6.161000e-04,0.00402188
-6.160000e-04,0.00397188
-6.159000e-04,0.00404688
-6.158000e-04,0.0039875
-6.157000e-04,0.00402969
-6.156000e-04,0.00400313
-6.155000e-04,0.00399375
-6.154000e-04,0.00400469
-6.153000e-04,0.00402188
-6.152000e-04,0.00399375
-6.151000e-04,0.00404219
-6.150000e-04,0.00410469
-6.149000e-04,0.00403594
-6.148000e-04,0.00402344
-6.147000e-04,0.00404688
-6.146000e-04,0.00411406
-6.145000e-04,0.00401875
-6.144000e-04,0.004025
-6.143000e-04,0.00405938
-6.142000e-04,0.004075
-6.141000e-04,0.00416094
-6.140000e-04,0.00417813
-6.139000e-04,0.00422813
-6.138000e-04,0.00408438
-6.137000e-04,0.00416875
-6.136000e-04,0.00399219
-6.135000e-04,0.00404844
-6.134000e-04,0.00407813
-6.133000e-04,0.00403437
-6.132000e-04,0.00419219
-6.131000e-04,0.00419062
-6.130000e-04,0.00406094
-6.129000e-04,0.00411719
-6.128000e-04,0.00425
-6.127000e-04,0.00411406
-6.126000e-04,0.00419219
-6.125000e-04,0.00405781
-6.124000e-04,0.00423594
-6.123000e-04,0.00419688
-6.122000e-04,0.00415781
-6.121000e-04,0.00418438
-6.120000e-04,0.00414375
-6.119000e-04,0.00414688
-6.118000e-04,0.00416406
-6.117000e-04,0.0041875
-6.116000e-04,0.00416406
-6.115000e-04,0.00419531
-6.114000e-04,0.0042875
-6.113000e-04,0.00420625
-6.112000e-04,0.00415313
-6.111000e-04,0.00419375
-6.110000e-04,0.0042375
-6.109000e-04,0.00442656
-6.108000e-04,0.00425781
