Laser_Spectroscopy/Laser_Spec_Data/tek0008MTH.csv

Model,MDO3014
Firmware Version,1.20

Waveform Type,ANALOG
Point Format,Y
Horizontal Units,s
Horizontal Scale,0.001
Horizontal Delay,-0.00064
Sample Interval,1e-07
Record Length,100000
Gating,63.600% to 67.600%
Probe Attenuation,1
Vertical Units,V
Vertical Offset,0
Vertical Scale,0.01
Vertical Position,0
,
,
,
Label,
TIME,"MATH<CH2-CH1>"
7.199000e-04,-0.0007625
7.200000e-04,-0.000725
7.201000e-04,-0.000846875
7.202000e-04,-0.000826563
7.203000e-04,-0.00083125
7.204000e-04,-0.000853125
7.205000e-04,-0.0008
7.206000e-04,-0.000734375
7.207000e-04,-0.000715625
7.208000e-04,-0.000810938
7.209000e-04,-0.000875
7.210000e-04,-0.0008625
7.211000e-04,-0.00074375
7.212000e-04,-0.000740625
7.213000e-04,-0.0006875
7.214000e-04,-0.000792188
7.215000e-04,-0.000815625
7.216000e-04,-0.0007625
7.217000e-04,-0.0007625
7.218000e-04,-0.000803125
7.219000e-04,-0.000878125
7.220000e-04,-0.0007
7.221000e-04,-0.000678125
7.222000e-04,-0.000753125
7.223000e-04,-0.000807813
7.224000e-04,-0.000878125
7.225000e-04,-0.000748438
7.226000e-04,-0.000778125
7.227000e-04,-0.000767188
7.228000e-04,-0.000759375
7.229000e-04,-0.000798437
7.230000e-04,-0.0009125
7.231000e-04,-0.000592188
7.232000e-04,-0.000779687
7.233000e-04,-0.000846875
7.234000e-04,-0.000798437
7.235000e-04,-0.000729688
7.236000e-04,-0.000821875
7.237000e-04,-0.000798437
7.238000e-04,-0.000740625
7.239000e-04,-0.000882813
7.240000e-04,-0.000829688
7.241000e-04,-0.000810938
7.242000e-04,-0.00080625
7.243000e-04,-0.000875
7.244000e-04,-0.0007875
7.245000e-04,-0.000795313
7.246000e-04,-0.000779687
7.247000e-04,-0.000796875
7.248000e-04,-0.000829688
7.249000e-04,-0.000865625
7.250000e-04,-0.000803125
7.251000e-04,-0.000757813
7.252000e-04,-0.000764062
7.253000e-04,-0.000809375
7.254000e-04,-0.000757813
7.255000e-04,-0.000778125
7.256000e-04,-0.000948438
7.257000e-04,-0.000835938
7.258000e-04,-0.00070625
7.259000e-04,-0.000720313
7.260000e-04,-0.000682813
7.261000e-04,-0.000759375
7.262000e-04,-0.000767188
7.263000e-04,-0.00075
7.264000e-04,-0.000826563
7.265000e-04,-0.000776563
7.266000e-04,-0.000903125
7.267000e-04,-0.000746875
7.268000e-04,-0.000828125
7.269000e-04,-0.000814063
7.270000e-04,-0.00089375
7.271000e-04,-0.000771875
7.272000e-04,-0.000778125
7.273000e-04,-0.000790625
7.274000e-04,-0.000835938
7.275000e-04,-0.000792188
7.276000e-04,-0.000790625
7.277000e-04,-0.000764062
7.278000e-04,-0.000779687
7.279000e-04,-0.000859375
7.280000e-04,-0.0008625
7.281000e-04,-0.000810938
7.282000e-04,-0.000790625
7.283000e-04,-0.000842188
7.284000e-04,-0.000782813
7.285000e-04,-0.000796875
7.286000e-04,-0.000898438
7.287000e-04,-0.000820313
7.288000e-04,-0.00084375
7.289000e-04,-0.000810938
7.290000e-04,-0.00083125
7.291000e-04,-0.00086875
7.292000e-04,-0.00084375
7.293000e-04,-0.000857813
7.294000e-04,-0.00085
7.295000e-04,-0.000728125
7.296000e-04,-0.000909375
7.297000e-04,-0.000865625
7.298000e-04,-0.000775
7.299000e-04,-0.000834375
7.300000e-04,-0.00085
7.301000e-04,-0.000871875
7.302000e-04,-0.000920313
7.303000e-04,-0.000823438
7.304000e-04,-0.000803125
7.305000e-04,-0.000870312
7.306000e-04,-0.000890625
7.307000e-04,-0.0009
7.308000e-04,-0.000759375
7.309000e-04,-0.00084375
7.310000e-04,-0.0008625
7.311000e-04,-0.000859375
7.312000e-04,-0.000870312
7.313000e-04,-0.000760938
7.314000e-04,-0.00096875
7.315000e-04,-0.000870312
7.316000e-04,-0.000778125
7.317000e-04,-0.000746875
7.318000e-04,-0.000715625
7.319000e-04,-0.000845313
7.320000e-04,-0.0007875
7.321000e-04,-0.000790625
7.322000e-04,-0.00075625
7.323000e-04,-0.000945313
7.324000e-04,-0.00081875
7.325000e-04,-0.000835938
7.326000e-04,-0.000734375
7.327000e-04,-0.000820313
7.328000e-04,-0.0007875
7.329000e-04,-0.00079375
7.330000e-04,-0.000903125
7.331000e-04,-0.000853125
7.332000e-04,-0.0009125
7.333000e-04,-0.000751563
7.334000e-04,-0.00080625
7.335000e-04,-0.000728125
7.336000e-04,-0.000685938
7.337000e-04,-0.000820313
7.338000e-04,-0.0007625
7.339000e-04,-0.000834375
7.340000e-04,-0.000775
7.341000e-04,-0.000765625
7.342000e-04,-0.000846875
7.343000e-04,-0.000740625
7.344000e-04,-0.000778125
7.345000e-04,-0.000834375
7.346000e-04,-0.000765625
7.347000e-04,-0.000796875
7.348000e-04,-0.000720313
7.349000e-04,-0.000809375
7.350000e-04,-0.000778125
7.351000e-04,-0.000740625
7.352000e-04,-0.000740625
7.353000e-04,-0.000945313
7.354000e-04,-0.000829688
7.355000e-04,-0.000885938
7.356000e-04,-0.0008375
7.357000e-04,-0.000807813
7.358000e-04,-0.000790625
7.359000e-04,-0.000779687
7.360000e-04,-0.000746875
7.361000e-04,-0.00088125
7.362000e-04,-0.000832813
7.363000e-04,-0.00085
7.364000e-04,-0.000809375
7.365000e-04,-0.000709375
7.366000e-04,-0.000740625
7.367000e-04,-0.000853125
7.368000e-04,-0.00070625
7.369000e-04,-0.000823438
7.370000e-04,-0.00073125
7.371000e-04,-0.000717188
7.372000e-04,-0.000759375
7.373000e-04,-0.000809375
7.374000e-04,-0.000875
7.375000e-04,-0.000798437
7.376000e-04,-0.000764062
7.377000e-04,-0.000934375
7.378000e-04,-0.000846875
7.379000e-04,-0.000779687
7.380000e-04,-0.000839063
7.381000e-04,-0.000770313
7.382000e-04,-0.000790625
7.383000e-04,-0.000870312
7.384000e-04,-0.0007875
7.385000e-04,-0.000853125
7.386000e-04,-0.000867188
7.387000e-04,-0.000748438
7.388000e-04,-0.000895313
7.389000e-04,-0.000828125
7.390000e-04,-0.0008375
7.391000e-04,-0.000867188
7.392000e-04,-0.00095
7.393000e-04,-0.000828125
7.394000e-04,-0.000798437
7.395000e-04,-0.000867188
7.396000e-04,-0.000764062
7.397000e-04,-0.000865625
7.398000e-04,-0.000807813
7.399000e-04,-0.000789063
7.400000e-04,-0.0008125
7.401000e-04,-0.000792188
7.402000e-04,-0.0009375
7.403000e-04,-0.000859375
7.404000e-04,-0.000809375
7.405000e-04,-0.000765625
7.406000e-04,-0.0008125
7.407000e-04,-0.00081875
7.408000e-04,-0.000790625
7.409000e-04,-0.000804688
7.410000e-04,-0.000770313
7.411000e-04,-0.000782813
7.412000e-04,-0.000775
7.413000e-04,-0.000810938
7.414000e-04,-0.0007125
7.415000e-04,-0.00071875
7.416000e-04,-0.000760938
7.417000e-04,-0.000745312
7.418000e-04,-0.000759375
7.419000e-04,-0.000798437
7.420000e-04,-0.00084375
7.421000e-04,-0.000798437
7.422000e-04,-0.00084375
7.423000e-04,-0.000789063
7.424000e-04,-0.000829688
7.425000e-04,-0.000884375
7.426000e-04,-0.000821875
7.427000e-04,-0.0007625
7.428000e-04,-0.000840625
7.429000e-04,-0.0009625
7.430000e-04,-0.000839063
7.431000e-04,-0.0009125
7.432000e-04,-0.000720313
7.433000e-04,-0.000889063
7.434000e-04,-0.0008375
7.435000e-04,-0.00075625
7.436000e-04,-0.000776563
7.437000e-04,-0.000654687
7.438000e-04,-0.000721875
7.439000e-04,-0.000685938
7.440000e-04,-0.000828125
7.441000e-04,-0.000871875
7.442000e-04,-0.00081875
7.443000e-04,-0.000759375
7.444000e-04,-0.000782813
7.445000e-04,-0.000878125
7.446000e-04,-0.000779687
7.447000e-04,-0.000834375
7.448000e-04,-0.000792188
7.449000e-04,-0.00074375
7.450000e-04,-0.00084375
7.451000e-04,-0.00079375
7.452000e-04,-0.0007875
7.453000e-04,-0.0009875
7.454000e-04,-0.000717188
7.455000e-04,-0.000821875
7.456000e-04,-0.000798437
7.457000e-04,-0.000840625
7.458000e-04,-0.000829688
7.459000e-04,-0.000864063
7.460000e-04,-0.000921875
7.461000e-04,-0.000770313
7.462000e-04,-0.000764062
7.463000e-04,-0.000820313
7.464000e-04,-0.0008625
7.465000e-04,-0.000760938
7.466000e-04,-0.000898438
7.467000e-04,-0.0007875
7.468000e-04,-0.000792188
7.469000e-04,-0.000770313
7.470000e-04,-0.0008375
7.471000e-04,-0.000720313
7.472000e-04,-0.000795313
7.473000e-04,-0.000821875
7.474000e-04,-0.00090625
7.475000e-04,-0.000626563
7.476000e-04,-0.000775
7.477000e-04,-0.000751563
7.478000e-04,-0.000914063
7.479000e-04,-0.0009625
7.480000e-04,-0.00085625
7.481000e-04,-0.000815625
7.482000e-04,-0.000740625
7.483000e-04,-0.000790625
7.484000e-04,-0.00081875
7.485000e-04,-0.000898438
7.486000e-04,-0.000742188
7.487000e-04,-0.00083125
7.488000e-04,-0.000820313
7.489000e-04,-0.000871875
7.490000e-04,-0.000889063
7.491000e-04,-0.000865625
7.492000e-04,-0.000898438
7.493000e-04,-0.000782813
7.494000e-04,-0.000826563
7.495000e-04,-0.00074375
7.496000e-04,-0.000870312
7.497000e-04,-0.000742188
7.498000e-04,-0.00083125
7.499000e-04,-0.000828125
7.500000e-04,-0.00078125
7.501000e-04,-0.000782813
7.502000e-04,-0.00081875
7.503000e-04,-0.000696875
7.504000e-04,-0.000773438
7.505000e-04,-0.000882813
7.506000e-04,-0.0008375
7.507000e-04,-0.00081875
7.508000e-04,-0.0008375
7.509000e-04,-0.00085
7.510000e-04,-0.0007875
7.511000e-04,-0.000895313
7.512000e-04,-0.000879688
7.513000e-04,-0.000765625
7.514000e-04,-0.000876563
7.515000e-04,-0.0007875
7.516000e-04,-0.000748438
7.517000e-04,-0.000857813
7.518000e-04,-0.000864063
7.519000e-04,-0.00083125
7.520000e-04,-0.000826563
7.521000e-04,-0.000825
7.522000e-04,-0.000759375
7.523000e-04,-0.000796875
7.524000e-04,-0.000826563
7.525000e-04,-0.000692187
7.526000e-04,-0.00083125
7.527000e-04,-0.00089375
7.528000e-04,-0.00085
7.529000e-04,-0.000803125
7.530000e-04,-0.000810938
7.531000e-04,-0.000904688
7.532000e-04,-0.000870312
7.533000e-04,-0.000846875
7.534000e-04,-0.000825
7.535000e-04,-0.000820313
7.536000e-04,-0.000651563
7.537000e-04,-0.0007375
7.538000e-04,-0.00075625
7.539000e-04,-0.00075625
7.540000e-04,-0.000826563
7.541000e-04,-0.000846875
7.542000e-04,-0.000851562
7.543000e-04,-0.000853125
7.544000e-04,-0.000778125
7.545000e-04,-0.00084375
7.546000e-04,-0.000809375
7.547000e-04,-0.00084375
7.548000e-04,-0.000876563
7.549000e-04,-0.000745312
7.550000e-04,-0.000767188
7.551000e-04,-0.000835938
7.552000e-04,-0.000804688
7.553000e-04,-0.00093125
7.554000e-04,-0.000885938
7.555000e-04,-0.000729688
7.556000e-04,-0.000820313
7.557000e-04,-0.000901563
7.558000e-04,-0.000825
7.559000e-04,-0.000810938
7.560000e-04,-0.000834375
7.561000e-04,-0.000896875
7.562000e-04,-0.00065625
7.563000e-04,-0.000820313
7.564000e-04,-0.000771875
7.565000e-04,-0.00088125
7.566000e-04,-0.00081875
7.567000e-04,-0.000632813
7.568000e-04,-0.000729688
7.569000e-04,-0.000840625
7.570000e-04,-0.000898438
7.571000e-04,-0.000804688
7.572000e-04,-0.000803125
7.573000e-04,-0.000829688
7.574000e-04,-0.00086875
7.575000e-04,-0.000803125
7.576000e-04,-0.000871875
7.577000e-04,-0.0008875
7.578000e-04,-0.000685938
7.579000e-04,-0.000685938
7.580000e-04,-0.0006625
7.581000e-04,-0.000765625
7.582000e-04,-0.000734375
7.583000e-04,-0.0007625
7.584000e-04,-0.000670313
7.585000e-04,-0.000789063
7.586000e-04,-0.000734375
7.587000e-04,-0.000867188
7.588000e-04,-0.000778125
7.589000e-04,-0.000790625
7.590000e-04,-0.0008
7.591000e-04,-0.000832813
7.592000e-04,-0.000857813
7.593000e-04,-0.000748438
7.594000e-04,-0.00080625
7.595000e-04,-0.000748438
7.596000e-04,-0.000759375
7.597000e-04,-0.000742188
7.598000e-04,-0.000803125
7.599000e-04,-0.000771875
7.600000e-04,-0.000742188
7.601000e-04,-0.000685938
7.602000e-04,-0.000909375
7.603000e-04,-0.000704688
7.604000e-04,-0.00068125
7.605000e-04,-0.000732813
7.606000e-04,-0.00085625
7.607000e-04,-0.000684375
7.608000e-04,-0.000942187
7.609000e-04,-0.0009
7.610000e-04,-0.0008625
7.611000e-04,-0.000759375
7.612000e-04,-0.000701563
7.613000e-04,-0.00075625
7.614000e-04,-0.000803125
7.615000e-04,-0.000803125
7.616000e-04,-0.000889063
7.617000e-04,-0.00085625
7.618000e-04,-0.00086875
7.619000e-04,-0.00078125
7.620000e-04,-0.000867188
7.621000e-04,-0.000829688
7.622000e-04,-0.000826563
7.623000e-04,-0.000764062
7.624000e-04,-0.000810938
7.625000e-04,-0.00076875
7.626000e-04,-0.000764062
7.627000e-04,-0.000807813
7.628000e-04,-0.00075625
7.629000e-04,-0.000764062
7.630000e-04,-0.000870312
7.631000e-04,-0.00090625
7.632000e-04,-0.000876563
7.633000e-04,-0.00095625
7.634000e-04,-0.000846875
7.635000e-04,-0.000882813
7.636000e-04,-0.000720313
7.637000e-04,-0.000810938
7.638000e-04,-0.000767188
7.639000e-04,-0.000879688
7.640000e-04,-0.000965625
7.641000e-04,-0.000742188
7.642000e-04,-0.000746875
7.643000e-04,-0.000767188
7.644000e-04,-0.000782813
7.645000e-04,-0.000773438
7.646000e-04,-0.000790625
7.647000e-04,-0.00074375
7.648000e-04,-0.000757813
7.649000e-04,-0.000785938
7.650000e-04,-0.000820313
7.651000e-04,-0.000810938
7.652000e-04,-0.000814063
7.653000e-04,-0.00079375
7.654000e-04,-0.00079375
7.655000e-04,-0.000815625
7.656000e-04,-0.00084375
7.657000e-04,-0.000834375
7.658000e-04,-0.000790625
7.659000e-04,-0.0007875
7.660000e-04,-0.000865625
7.661000e-04,-0.00085625
7.662000e-04,-0.00076875
7.663000e-04,-0.000853125
7.664000e-04,-0.000840625
7.665000e-04,-0.000779687
7.666000e-04,-0.000820313
7.667000e-04,-0.00080625
7.668000e-04,-0.000823438
7.669000e-04,-0.00070625
7.670000e-04,-0.000709375
7.671000e-04,-0.000792188
7.672000e-04,-0.000829688
7.673000e-04,-0.000825
7.674000e-04,-0.0008625
7.675000e-04,-0.0008
7.676000e-04,-0.000740625
7.677000e-04,-0.000820313
7.678000e-04,-0.000790625
7.679000e-04,-0.00080625
7.680000e-04,-0.000820313
7.681000e-04,-0.000789063
7.682000e-04,-0.00075625
7.683000e-04,-0.000834375
7.684000e-04,-0.000901563
7.685000e-04,-0.000829688
7.686000e-04,-0.000684375
7.687000e-04,-0.000684375
7.688000e-04,-0.000753125
7.689000e-04,-0.00066875
7.690000e-04,-0.00070625
7.691000e-04,-0.00083125
7.692000e-04,-0.00093125
7.693000e-04,-0.000748438
7.694000e-04,-0.000673437
7.695000e-04,-0.000814063
7.696000e-04,-0.000851562
7.697000e-04,-0.000832813
7.698000e-04,-0.00071875
7.699000e-04,-0.00081875
7.700000e-04,-0.000810938
7.701000e-04,-0.000729688
7.702000e-04,-0.000832813
7.703000e-04,-0.0008875
7.704000e-04,-0.000804688
7.705000e-04,-0.000692187
7.706000e-04,-0.000748438
7.707000e-04,-0.000884375
7.708000e-04,-0.000720313
7.709000e-04,-0.000778125
7.710000e-04,-0.000825
7.711000e-04,-0.000807813
7.712000e-04,-0.0008375
7.713000e-04,-0.0007625
7.714000e-04,-0.000798437
7.715000e-04,-0.00076875
7.716000e-04,-0.000740625
7.717000e-04,-0.000779687
7.718000e-04,-0.00079375
7.719000e-04,-0.000875
7.720000e-04,-0.000851562
7.721000e-04,-0.000779687
7.722000e-04,-0.0008
7.723000e-04,-0.000848438
7.724000e-04,-0.000715625
7.725000e-04,-0.000828125
7.726000e-04,-0.000734375
7.727000e-04,-0.000784375
7.728000e-04,-0.00075625
7.729000e-04,-0.00069375
7.730000e-04,-0.000798437
7.731000e-04,-0.0007
7.732000e-04,-0.00073125
7.733000e-04,-0.000690625
7.734000e-04,-0.000723438
7.735000e-04,-0.000909375
7.736000e-04,-0.000776563
7.737000e-04,-0.000778125
7.738000e-04,-0.000773438
7.739000e-04,-0.000715625
7.740000e-04,-0.000803125
7.741000e-04,-0.000778125
7.742000e-04,-0.000770313
7.743000e-04,-0.000773438
7.744000e-04,-0.000798437
7.745000e-04,-0.000804688
7.746000e-04,-0.00085
7.747000e-04,-0.000723438
7.748000e-04,-0.00073125
7.749000e-04,-0.000746875
7.750000e-04,-0.000740625
7.751000e-04,-0.000751563
7.752000e-04,-0.000710937
7.753000e-04,-0.000717188
7.754000e-04,-0.0007
7.755000e-04,-0.000775
7.756000e-04,-0.000764062
7.757000e-04,-0.00085625
7.758000e-04,-0.000745312
7.759000e-04,-0.000725
7.760000e-04,-0.000698438
7.761000e-04,-0.0007125
7.762000e-04,-0.00078125
7.763000e-04,-0.000698438
7.764000e-04,-0.000778125
7.765000e-04,-0.00088125
7.766000e-04,-0.000670313
7.767000e-04,-0.000673437
7.768000e-04,-0.00075625
7.769000e-04,-0.00079375
7.770000e-04,-0.00069375
7.771000e-04,-0.000679688
7.772000e-04,-0.00075625
7.773000e-04,-0.00074375
7.774000e-04,-0.000629688
7.775000e-04,-0.000764062
7.776000e-04,-0.000721875
7.777000e-04,-0.000710937
7.778000e-04,-0.0008
7.779000e-04,-0.000882813
7.780000e-04,-0.000682813
7.781000e-04,-0.000804688
7.782000e-04,-0.000784375
7.783000e-04,-0.000875
7.784000e-04,-0.000753125
7.785000e-04,-0.000829688
7.786000e-04,-0.000809375
7.787000e-04,-0.0007
7.788000e-04,-0.000748438
7.789000e-04,-0.000767188
7.790000e-04,-0.000879688
7.791000e-04,-0.0008
7.792000e-04,-0.000670313
7.793000e-04,-0.000903125
7.794000e-04,-0.000835938
7.795000e-04,-0.00081875
7.796000e-04,-0.00074375
7.797000e-04,-0.0007875
7.798000e-04,-0.00075625
7.799000e-04,-0.00081875
7.800000e-04,-0.000720313
7.801000e-04,-0.000767188
7.802000e-04,-0.000834375
7.803000e-04,-0.0007
7.804000e-04,-0.000834375
7.805000e-04,-0.000809375
7.806000e-04,-0.00078125
7.807000e-04,-0.00076875
7.808000e-04,-0.000720313
7.809000e-04,-0.000721875
7.810000e-04,-0.0007625
7.811000e-04,-0.00085
7.812000e-04,-0.00083125
7.813000e-04,-0.000807813
7.814000e-04,-0.000767188
7.815000e-04,-0.00064375
7.816000e-04,-0.000870312
7.817000e-04,-0.0008125
7.818000e-04,-0.000723438
7.819000e-04,-0.0007125
7.820000e-04,-0.00081875
7.821000e-04,-0.000845313
7.822000e-04,-0.000823438
7.823000e-04,-0.000807813
7.824000e-04,-0.000792188
7.825000e-04,-0.000629688
7.826000e-04,-0.000732813
7.827000e-04,-0.000748438
7.828000e-04,-0.000670313
7.829000e-04,-0.000829688
7.830000e-04,-0.000759375
7.831000e-04,-0.000664063
7.832000e-04,-0.000759375
7.833000e-04,-0.000773438
7.834000e-04,-0.0007375
7.835000e-04,-0.00085
7.836000e-04,-0.000796875
7.837000e-04,-0.000776563
7.838000e-04,-0.000826563
7.839000e-04,-0.000826563
7.840000e-04,-0.0007
7.841000e-04,-0.000746875
7.842000e-04,-0.000746875
7.843000e-04,-0.00078125
7.844000e-04,-0.000829688
7.845000e-04,-0.000707812
7.846000e-04,-0.000746875
7.847000e-04,-0.00078125
7.848000e-04,-0.00084375
7.849000e-04,-0.0007
7.850000e-04,-0.000671875
7.851000e-04,-0.000715625
7.852000e-04,-0.00075625
7.853000e-04,-0.000846875
7.854000e-04,-0.0008875
7.855000e-04,-0.000746875
7.856000e-04,-0.000789063
7.857000e-04,-0.000664063
7.858000e-04,-0.000821875
7.859000e-04,-0.000803125
7.860000e-04,-0.000753125
7.861000e-04,-0.000779687
7.862000e-04,-0.0007
7.863000e-04,-0.000764062
7.864000e-04,-0.000725
7.865000e-04,-0.0008
7.866000e-04,-0.000778125
7.867000e-04,-0.000820313
7.868000e-04,-0.000790625
7.869000e-04,-0.000759375
7.870000e-04,-0.000703125
7.871000e-04,-0.000757813
7.872000e-04,-0.000790625
7.873000e-04,-0.000771875
7.874000e-04,-0.000789063
7.875000e-04,-0.0008375
7.876000e-04,-0.000707812
7.877000e-04,-0.00085
7.878000e-04,-0.0007
7.879000e-04,-0.00075625
7.880000e-04,-0.00074375
7.881000e-04,-0.000790625
7.882000e-04,-0.000784375
7.883000e-04,-0.00070625
7.884000e-04,-0.000764062
7.885000e-04,-0.000770313
7.886000e-04,-0.000770313
7.887000e-04,-0.000814063
7.888000e-04,-0.000773438
7.889000e-04,-0.000757813
7.890000e-04,-0.000753125
7.891000e-04,-0.000628125
7.892000e-04,-0.00061875
7.893000e-04,-0.000742188
7.894000e-04,-0.000835938
7.895000e-04,-0.000625
7.896000e-04,-0.000753125
7.897000e-04,-0.000814063
7.898000e-04,-0.000690625
7.899000e-04,-0.00071875
7.900000e-04,-0.000675
7.901000e-04,-0.000728125
7.902000e-04,-0.000746875
7.903000e-04,-0.000696875
7.904000e-04,-0.000825
7.905000e-04,-0.000728125
7.906000e-04,-0.00085
7.907000e-04,-0.0007125
7.908000e-04,-0.000710937
7.909000e-04,-0.000770313
7.910000e-04,-0.000692187
7.911000e-04,-0.000775
7.912000e-04,-0.000607813
7.913000e-04,-0.000740625
7.914000e-04,-0.0006625
7.915000e-04,-0.000635938
7.916000e-04,-0.000796875
7.917000e-04,-0.000740625
7.918000e-04,-0.000698438
7.919000e-04,-0.00073125
7.920000e-04,-0.000639062
7.921000e-04,-0.000810938
7.922000e-04,-0.000684375
7.923000e-04,-0.00075
7.924000e-04,-0.000764062
7.925000e-04,-0.000790625
7.926000e-04,-0.000809375
7.927000e-04,-0.000717188
7.928000e-04,-0.000682813
7.929000e-04,-0.000809375
7.930000e-04,-0.000570313
7.931000e-04,-0.000701563
7.932000e-04,-0.000773438
7.933000e-04,-0.000778125
7.934000e-04,-0.0007625
7.935000e-04,-0.000785938
7.936000e-04,-0.000784375
7.937000e-04,-0.000703125
7.938000e-04,-0.000678125
7.939000e-04,-0.000707812
7.940000e-04,-0.000790625
7.941000e-04,-0.000707812
7.942000e-04,-0.000782813
7.943000e-04,-0.000685938
7.944000e-04,-0.000623438
7.945000e-04,-0.000748438
7.946000e-04,-0.00069375
7.947000e-04,-0.0007625
7.948000e-04,-0.0006625
7.949000e-04,-0.000707812
7.950000e-04,-0.000629688
7.951000e-04,-0.000698438
7.952000e-04,-0.000715625
7.953000e-04,-0.000703125
7.954000e-04,-0.000665625
7.955000e-04,-0.000715625
7.956000e-04,-0.000598438
7.957000e-04,-0.000889063
7.958000e-04,-0.000740625
7.959000e-04,-0.00075625
7.960000e-04,-0.000735938
7.961000e-04,-0.000739063
7.962000e-04,-0.00064375
7.963000e-04,-0.000764062
7.964000e-04,-0.000745312
7.965000e-04,-0.000709375
7.966000e-04,-0.000860938
7.967000e-04,-0.000620312
7.968000e-04,-0.0007375
7.969000e-04,-0.000710937
7.970000e-04,-0.00069375
